\relax 
\providecommand*\new@tpo@label[2]{}
\providecommand\babel@aux[2]{}
\@nameuse{bbl@beforestart}
\citation{giles2009vibrato}
\babel@aux{italian}{}
\babel@aux{italian}{}
\@writefile{toc}{\contentsline {section}{\numberline {1}Metodo Vibrato Montecarlo}{1}{}\protected@file@percent }
\@writefile{toc}{\contentsline {subsection}{\numberline {1.1}Idea}{1}{}\protected@file@percent }
\@writefile{toc}{\contentsline {subsection}{\numberline {1.2}Opzioni di tipo Europeo}{1}{}\protected@file@percent }
\citation{burgos2009investigation}
\@writefile{toc}{\contentsline {subsection}{\numberline {1.3}Osservazioni}{3}{}\protected@file@percent }
\citation{hogan2014fast}
\citation{bezanson2012julia}
\@writefile{toc}{\contentsline {subsection}{\numberline {1.4}Simulazioni Numeriche}{4}{}\protected@file@percent }
\@writefile{toc}{\contentsline {subsubsection}{\numberline {1.4.1}Metodo Pathwise}{4}{}\protected@file@percent }
\@writefile{toc}{\contentsline {subsubsection}{\numberline {1.4.2}Likelihood Ratio Method}{6}{}\protected@file@percent }
\@writefile{toc}{\contentsline {subsubsection}{\numberline {1.4.3}Vibrato Montecarlo Method}{7}{}\protected@file@percent }
\@writefile{toc}{\contentsline {section}{\numberline {2}Processi di Levy ad Attivit\'a Finita: Vibrato Saltando Montecarlo Method}{9}{}\protected@file@percent }
\@writefile{toc}{\contentsline {subsection}{\numberline {2.1}Idea}{9}{}\protected@file@percent }
\@writefile{toc}{\contentsline {subsection}{\numberline {2.2}Opzioni Europee}{10}{}\protected@file@percent }
\newlabel{condz}{{6}{10}}
\@writefile{toc}{\contentsline {subsection}{\numberline {2.3}Simulazioni Numeriche}{11}{}\protected@file@percent }
\@writefile{toc}{\contentsline {subsection}{\numberline {2.4}Conclusioni}{13}{}\protected@file@percent }
\gdef \@abspage@last{13}
