%!PS-Adobe-3.0 EPSF-3.0
%%Creator: (MATLAB, The Mathworks, Inc. Version 9.2.0.556344 \(R2017a\). Operating System: Windows 8)
%%Title: C:/Users/nicol/Desktop/ComplDIFF2.eps
%%CreationDate: 2017-06-12T17:25:18
%%Pages: (atend)
%%BoundingBox: 0 0 420 315
%%LanguageLevel: 3
%%EndComments
%%BeginProlog
%%BeginResource: procset (Apache XML Graphics Std ProcSet) 1.2 0
%%Version: 1.2 0
%%Copyright: (Copyright 2001-2003,2010 The Apache Software Foundation. License terms: http://www.apache.org/licenses/LICENSE-2.0)
/bd{bind def}bind def
/ld{load def}bd
/GR/grestore ld
/M/moveto ld
/LJ/setlinejoin ld
/C/curveto ld
/f/fill ld
/LW/setlinewidth ld
/GC/setgray ld
/t/show ld
/N/newpath ld
/CT/concat ld
/cp/closepath ld
/S/stroke ld
/L/lineto ld
/CC/setcmykcolor ld
/A/ashow ld
/GS/gsave ld
/RC/setrgbcolor ld
/RM/rmoveto ld
/ML/setmiterlimit ld
/re {4 2 roll M
1 index 0 rlineto
0 exch rlineto
neg 0 rlineto
cp } bd
/_ctm matrix def
/_tm matrix def
/BT { _ctm currentmatrix pop matrix _tm copy pop 0 0 moveto } bd
/ET { _ctm setmatrix } bd
/iTm { _ctm setmatrix _tm concat } bd
/Tm { _tm astore pop iTm 0 0 moveto } bd
/ux 0.0 def
/uy 0.0 def
/F {
  /Tp exch def
  /Tf exch def
  Tf findfont Tp scalefont setfont
  /cf Tf def  /cs Tp def
} bd
/ULS {currentpoint /uy exch def /ux exch def} bd
/ULE {
  /Tcx currentpoint pop def
  gsave
  newpath
  cf findfont cs scalefont dup
  /FontMatrix get 0 get /Ts exch def /FontInfo get dup
  /UnderlinePosition get Ts mul /To exch def
  /UnderlineThickness get Ts mul /Tt exch def
  ux uy To add moveto  Tcx uy To add lineto
  Tt setlinewidth stroke
  grestore
} bd
/OLE {
  /Tcx currentpoint pop def
  gsave
  newpath
  cf findfont cs scalefont dup
  /FontMatrix get 0 get /Ts exch def /FontInfo get dup
  /UnderlinePosition get Ts mul /To exch def
  /UnderlineThickness get Ts mul /Tt exch def
  ux uy To add cs add moveto Tcx uy To add cs add lineto
  Tt setlinewidth stroke
  grestore
} bd
/SOE {
  /Tcx currentpoint pop def
  gsave
  newpath
  cf findfont cs scalefont dup
  /FontMatrix get 0 get /Ts exch def /FontInfo get dup
  /UnderlinePosition get Ts mul /To exch def
  /UnderlineThickness get Ts mul /Tt exch def
  ux uy To add cs 10 mul 26 idiv add moveto Tcx uy To add cs 10 mul 26 idiv add lineto
  Tt setlinewidth stroke
  grestore
} bd
/QT {
/Y22 exch store
/X22 exch store
/Y21 exch store
/X21 exch store
currentpoint
/Y21 load 2 mul add 3 div exch
/X21 load 2 mul add 3 div exch
/X21 load 2 mul /X22 load add 3 div
/Y21 load 2 mul /Y22 load add 3 div
/X22 load /Y22 load curveto
} bd
/SSPD {
dup length /d exch dict def
{
/v exch def
/k exch def
currentpagedevice k known {
/cpdv currentpagedevice k get def
v cpdv ne {
/upd false def
/nullv v type /nulltype eq def
/nullcpdv cpdv type /nulltype eq def
nullv nullcpdv or
{
/upd true def
} {
/sametype v type cpdv type eq def
sametype {
v type /arraytype eq {
/vlen v length def
/cpdvlen cpdv length def
vlen cpdvlen eq {
0 1 vlen 1 sub {
/i exch def
/obj v i get def
/cpdobj cpdv i get def
obj cpdobj ne {
/upd true def
exit
} if
} for
} {
/upd true def
} ifelse
} {
v type /dicttype eq {
v {
/dv exch def
/dk exch def
/cpddv cpdv dk get def
dv cpddv ne {
/upd true def
exit
} if
} forall
} {
/upd true def
} ifelse
} ifelse
} if
} ifelse
upd true eq {
d k v put
} if
} if
} if
} forall
d length 0 gt {
d setpagedevice
} if
} bd
/RE { % /NewFontName [NewEncodingArray] /FontName RE -
  findfont dup length dict begin
  {
    1 index /FID ne
    {def} {pop pop} ifelse
  } forall
  /Encoding exch def
  /FontName 1 index def
  currentdict definefont pop
  end
} bind def
%%EndResource
%%BeginResource: procset (Apache XML Graphics EPS ProcSet) 1.0 0
%%Version: 1.0 0
%%Copyright: (Copyright 2002-2003 The Apache Software Foundation. License terms: http://www.apache.org/licenses/LICENSE-2.0)
/BeginEPSF { %def
/b4_Inc_state save def         % Save state for cleanup
/dict_count countdictstack def % Count objects on dict stack
/op_count count 1 sub def      % Count objects on operand stack
userdict begin                 % Push userdict on dict stack
/showpage { } def              % Redefine showpage, { } = null proc
0 setgray 0 setlinecap         % Prepare graphics state
1 setlinewidth 0 setlinejoin
10 setmiterlimit [ ] 0 setdash newpath
/languagelevel where           % If level not equal to 1 then
{pop languagelevel             % set strokeadjust and
1 ne                           % overprint to their defaults.
{false setstrokeadjust false setoverprint
} if
} if
} bd
/EndEPSF { %def
count op_count sub {pop} repeat            % Clean up stacks
countdictstack dict_count sub {end} repeat
b4_Inc_state restore
} bd
%%EndResource
%FOPBeginFontDict
%%IncludeResource: font Courier-Bold
%%IncludeResource: font Helvetica
%%IncludeResource: font Courier-BoldOblique
%%IncludeResource: font Courier-Oblique
%%IncludeResource: font Times-Roman
%%IncludeResource: font Helvetica-BoldOblique
%%IncludeResource: font Helvetica-Bold
%%IncludeResource: font Helvetica-Oblique
%%IncludeResource: font Times-BoldItalic
%%IncludeResource: font Courier
%%IncludeResource: font Times-Italic
%%IncludeResource: font Times-Bold
%%IncludeResource: font Symbol
%%IncludeResource: font ZapfDingbats
%FOPEndFontDict
%%BeginResource: encoding WinAnsiEncoding
/WinAnsiEncoding [
/.notdef /.notdef /.notdef /.notdef /.notdef
/.notdef /.notdef /.notdef /.notdef /.notdef
/.notdef /.notdef /.notdef /.notdef /.notdef
/.notdef /.notdef /.notdef /.notdef /.notdef
/.notdef /.notdef /.notdef /.notdef /.notdef
/.notdef /.notdef /.notdef /.notdef /.notdef
/.notdef /.notdef /space /exclam /quotedbl
/numbersign /dollar /percent /ampersand /quotesingle
/parenleft /parenright /asterisk /plus /comma
/hyphen /period /slash /zero /one
/two /three /four /five /six
/seven /eight /nine /colon /semicolon
/less /equal /greater /question /at
/A /B /C /D /E
/F /G /H /I /J
/K /L /M /N /O
/P /Q /R /S /T
/U /V /W /X /Y
/Z /bracketleft /backslash /bracketright /asciicircum
/underscore /quoteleft /a /b /c
/d /e /f /g /h
/i /j /k /l /m
/n /o /p /q /r
/s /t /u /v /w
/x /y /z /braceleft /bar
/braceright /asciitilde /bullet /Euro /bullet
/quotesinglbase /florin /quotedblbase /ellipsis /dagger
/daggerdbl /circumflex /perthousand /Scaron /guilsinglleft
/OE /bullet /Zcaron /bullet /bullet
/quoteleft /quoteright /quotedblleft /quotedblright /bullet
/endash /emdash /asciitilde /trademark /scaron
/guilsinglright /oe /bullet /zcaron /Ydieresis
/space /exclamdown /cent /sterling /currency
/yen /brokenbar /section /dieresis /copyright
/ordfeminine /guillemotleft /logicalnot /sfthyphen /registered
/macron /degree /plusminus /twosuperior /threesuperior
/acute /mu /paragraph /middot /cedilla
/onesuperior /ordmasculine /guillemotright /onequarter /onehalf
/threequarters /questiondown /Agrave /Aacute /Acircumflex
/Atilde /Adieresis /Aring /AE /Ccedilla
/Egrave /Eacute /Ecircumflex /Edieresis /Igrave
/Iacute /Icircumflex /Idieresis /Eth /Ntilde
/Ograve /Oacute /Ocircumflex /Otilde /Odieresis
/multiply /Oslash /Ugrave /Uacute /Ucircumflex
/Udieresis /Yacute /Thorn /germandbls /agrave
/aacute /acircumflex /atilde /adieresis /aring
/ae /ccedilla /egrave /eacute /ecircumflex
/edieresis /igrave /iacute /icircumflex /idieresis
/eth /ntilde /ograve /oacute /ocircumflex
/otilde /odieresis /divide /oslash /ugrave
/uacute /ucircumflex /udieresis /yacute /thorn
/ydieresis
] def
%%EndResource
%FOPBeginFontReencode
/Courier-Bold findfont
dup length dict begin
  {1 index /FID ne {def} {pop pop} ifelse} forall
  /Encoding WinAnsiEncoding def
  currentdict
end
/Courier-Bold exch definefont pop
/Helvetica findfont
dup length dict begin
  {1 index /FID ne {def} {pop pop} ifelse} forall
  /Encoding WinAnsiEncoding def
  currentdict
end
/Helvetica exch definefont pop
/Courier-BoldOblique findfont
dup length dict begin
  {1 index /FID ne {def} {pop pop} ifelse} forall
  /Encoding WinAnsiEncoding def
  currentdict
end
/Courier-BoldOblique exch definefont pop
/Courier-Oblique findfont
dup length dict begin
  {1 index /FID ne {def} {pop pop} ifelse} forall
  /Encoding WinAnsiEncoding def
  currentdict
end
/Courier-Oblique exch definefont pop
/Times-Roman findfont
dup length dict begin
  {1 index /FID ne {def} {pop pop} ifelse} forall
  /Encoding WinAnsiEncoding def
  currentdict
end
/Times-Roman exch definefont pop
/Helvetica-BoldOblique findfont
dup length dict begin
  {1 index /FID ne {def} {pop pop} ifelse} forall
  /Encoding WinAnsiEncoding def
  currentdict
end
/Helvetica-BoldOblique exch definefont pop
/Helvetica-Bold findfont
dup length dict begin
  {1 index /FID ne {def} {pop pop} ifelse} forall
  /Encoding WinAnsiEncoding def
  currentdict
end
/Helvetica-Bold exch definefont pop
/Helvetica-Oblique findfont
dup length dict begin
  {1 index /FID ne {def} {pop pop} ifelse} forall
  /Encoding WinAnsiEncoding def
  currentdict
end
/Helvetica-Oblique exch definefont pop
/Times-BoldItalic findfont
dup length dict begin
  {1 index /FID ne {def} {pop pop} ifelse} forall
  /Encoding WinAnsiEncoding def
  currentdict
end
/Times-BoldItalic exch definefont pop
/Courier findfont
dup length dict begin
  {1 index /FID ne {def} {pop pop} ifelse} forall
  /Encoding WinAnsiEncoding def
  currentdict
end
/Courier exch definefont pop
/Times-Italic findfont
dup length dict begin
  {1 index /FID ne {def} {pop pop} ifelse} forall
  /Encoding WinAnsiEncoding def
  currentdict
end
/Times-Italic exch definefont pop
/Times-Bold findfont
dup length dict begin
  {1 index /FID ne {def} {pop pop} ifelse} forall
  /Encoding WinAnsiEncoding def
  currentdict
end
/Times-Bold exch definefont pop
%FOPEndFontReencode
%%EndProlog
%%Page: 1 1
%%PageBoundingBox: 0 0 420 315
%%BeginPageSetup
[1 0 0 -1 0 315] CT
%%EndPageSetup
GS
[0.5 0 0 0.5 0 0] CT
1 GC
N
0 0 840 630 re
f
GR
GS
[0.5 0 0 0.5 0 0] CT
1 GC
N
0 0 840 630 re
f
GR
GS
[0.5 0 0 0.5 0 0] CT
1 GC
N
109 560 M
760 560 L
760 47 L
109 47 L
cp
f
GR
GS
[0.5 0 0 0.5 0 0] CT
0.775 GC
[1 3] 0 setdash
2 LJ
N
141.55 560 M
141.55 47 L
S
GR
GS
[0.5 0 0 0.5 0 0] CT
0.775 GC
[1 3] 0 setdash
2 LJ
N
174.1 560 M
174.1 47 L
S
GR
GS
[0.5 0 0 0.5 0 0] CT
0.775 GC
[1 3] 0 setdash
2 LJ
N
206.65 560 M
206.65 47 L
S
GR
GS
[0.5 0 0 0.5 0 0] CT
0.775 GC
[1 3] 0 setdash
2 LJ
N
239.2 560 M
239.2 47 L
S
GR
GS
[0.5 0 0 0.5 0 0] CT
0.775 GC
[1 3] 0 setdash
2 LJ
N
304.3 560 M
304.3 47 L
S
GR
GS
[0.5 0 0 0.5 0 0] CT
0.775 GC
[1 3] 0 setdash
2 LJ
N
336.85 560 M
336.85 47 L
S
GR
GS
[0.5 0 0 0.5 0 0] CT
0.775 GC
[1 3] 0 setdash
2 LJ
N
369.4 560 M
369.4 47 L
S
GR
GS
[0.5 0 0 0.5 0 0] CT
0.775 GC
[1 3] 0 setdash
2 LJ
N
401.95 560 M
401.95 47 L
S
GR
GS
[0.5 0 0 0.5 0 0] CT
0.775 GC
[1 3] 0 setdash
2 LJ
N
467.05 560 M
467.05 47 L
S
GR
GS
[0.5 0 0 0.5 0 0] CT
0.775 GC
[1 3] 0 setdash
2 LJ
N
499.6 560 M
499.6 47 L
S
GR
GS
[0.5 0 0 0.5 0 0] CT
0.775 GC
[1 3] 0 setdash
2 LJ
N
532.15 560 M
532.15 47 L
S
GR
GS
[0.5 0 0 0.5 0 0] CT
0.775 GC
[1 3] 0 setdash
2 LJ
N
564.7 560 M
564.7 47 L
S
GR
GS
[0.5 0 0 0.5 0 0] CT
0.775 GC
[1 3] 0 setdash
2 LJ
N
629.8 560 M
629.8 47 L
S
GR
GS
[0.5 0 0 0.5 0 0] CT
0.775 GC
[1 3] 0 setdash
2 LJ
N
662.35 560 M
662.35 47 L
S
GR
GS
[0.5 0 0 0.5 0 0] CT
0.775 GC
[1 3] 0 setdash
2 LJ
N
694.9 560 M
694.9 47 L
S
GR
GS
[0.5 0 0 0.5 0 0] CT
0.775 GC
[1 3] 0 setdash
2 LJ
N
727.45 560 M
727.45 47 L
S
GR
GS
[0.5 0 0 0.5 0 0] CT
0.873 GC
1 LJ
N
109 560 M
109 47 L
S
GR
GS
[0.5 0 0 0.5 0 0] CT
0.873 GC
1 LJ
N
271.75 560 M
271.75 47 L
S
GR
GS
[0.5 0 0 0.5 0 0] CT
0.873 GC
1 LJ
N
434.5 560 M
434.5 47 L
S
GR
GS
[0.5 0 0 0.5 0 0] CT
0.873 GC
1 LJ
N
597.25 560 M
597.25 47 L
S
GR
GS
[0.5 0 0 0.5 0 0] CT
0.873 GC
1 LJ
N
760 560 M
760 47 L
S
GR
GS
[0.5 0 0 0.5 0 0] CT
0.775 GC
[1 3] 0 setdash
2 LJ
N
760 539.48 M
109 539.48 L
S
GR
GS
[0.5 0 0 0.5 0 0] CT
0.775 GC
[1 3] 0 setdash
2 LJ
N
760 518.96 M
109 518.96 L
S
GR
GS
[0.5 0 0 0.5 0 0] CT
0.775 GC
[1 3] 0 setdash
2 LJ
N
760 498.44 M
109 498.44 L
S
GR
GS
[0.5 0 0 0.5 0 0] CT
0.775 GC
[1 3] 0 setdash
2 LJ
N
760 477.92 M
109 477.92 L
S
GR
GS
[0.5 0 0 0.5 0 0] CT
0.775 GC
[1 3] 0 setdash
2 LJ
N
760 436.88 M
109 436.88 L
S
GR
GS
[0.5 0 0 0.5 0 0] CT
0.775 GC
[1 3] 0 setdash
2 LJ
N
760 416.36 M
109 416.36 L
S
GR
GS
[0.5 0 0 0.5 0 0] CT
0.775 GC
[1 3] 0 setdash
2 LJ
N
760 395.84 M
109 395.84 L
S
GR
GS
[0.5 0 0 0.5 0 0] CT
0.775 GC
[1 3] 0 setdash
2 LJ
N
760 375.32 M
109 375.32 L
S
GR
GS
[0.5 0 0 0.5 0 0] CT
0.775 GC
[1 3] 0 setdash
2 LJ
N
760 334.28 M
109 334.28 L
S
GR
GS
[0.5 0 0 0.5 0 0] CT
0.775 GC
[1 3] 0 setdash
2 LJ
N
760 313.76 M
109 313.76 L
S
GR
GS
[0.5 0 0 0.5 0 0] CT
0.775 GC
[1 3] 0 setdash
2 LJ
N
760 293.24 M
109 293.24 L
S
GR
GS
[0.5 0 0 0.5 0 0] CT
0.775 GC
[1 3] 0 setdash
2 LJ
N
760 272.72 M
109 272.72 L
S
GR
GS
[0.5 0 0 0.5 0 0] CT
0.775 GC
[1 3] 0 setdash
2 LJ
N
760 231.68 M
109 231.68 L
S
GR
GS
[0.5 0 0 0.5 0 0] CT
0.775 GC
[1 3] 0 setdash
2 LJ
N
760 211.16 M
109 211.16 L
S
GR
GS
[0.5 0 0 0.5 0 0] CT
0.775 GC
[1 3] 0 setdash
2 LJ
N
760 190.64 M
109 190.64 L
S
GR
GS
[0.5 0 0 0.5 0 0] CT
0.775 GC
[1 3] 0 setdash
2 LJ
N
760 170.12 M
109 170.12 L
S
GR
GS
[0.5 0 0 0.5 0 0] CT
0.775 GC
[1 3] 0 setdash
2 LJ
N
760 129.08 M
109 129.08 L
S
GR
GS
[0.5 0 0 0.5 0 0] CT
0.775 GC
[1 3] 0 setdash
2 LJ
N
760 108.56 M
109 108.56 L
S
GR
GS
[0.5 0 0 0.5 0 0] CT
0.775 GC
[1 3] 0 setdash
2 LJ
N
760 88.04 M
109 88.04 L
S
GR
GS
[0.5 0 0 0.5 0 0] CT
0.775 GC
[1 3] 0 setdash
2 LJ
N
760 67.52 M
109 67.52 L
S
GR
GS
[0.5 0 0 0.5 0 0] CT
0.873 GC
1 LJ
N
760 560 M
109 560 L
S
GR
GS
[0.5 0 0 0.5 0 0] CT
0.873 GC
1 LJ
N
760 457.4 M
109 457.4 L
S
GR
GS
[0.5 0 0 0.5 0 0] CT
0.873 GC
1 LJ
N
760 354.8 M
109 354.8 L
S
GR
GS
[0.5 0 0 0.5 0 0] CT
0.873 GC
1 LJ
N
760 252.2 M
109 252.2 L
S
GR
GS
[0.5 0 0 0.5 0 0] CT
0.873 GC
1 LJ
N
760 149.6 M
109 149.6 L
S
GR
GS
[0.5 0 0 0.5 0 0] CT
0.873 GC
1 LJ
N
760 47 M
109 47 L
S
GR
GS
[0.5 0 0 0.5 0 0] CT
0.149 GC
2 setlinecap
1 LJ
N
109 560 M
760 560 L
S
GR
GS
[0.5 0 0 0.5 0 0] CT
0.149 GC
2 setlinecap
1 LJ
N
109 47 M
760 47 L
S
GR
GS
[0.5 0 0 0.5 0 0] CT
0.149 GC
2 setlinecap
1 LJ
N
109 560 M
109 553.49 L
S
GR
GS
[0.5 0 0 0.5 0 0] CT
0.149 GC
2 setlinecap
1 LJ
N
271.75 560 M
271.75 553.49 L
S
GR
GS
[0.5 0 0 0.5 0 0] CT
0.149 GC
2 setlinecap
1 LJ
N
434.5 560 M
434.5 553.49 L
S
GR
GS
[0.5 0 0 0.5 0 0] CT
0.149 GC
2 setlinecap
1 LJ
N
597.25 560 M
597.25 553.49 L
S
GR
GS
[0.5 0 0 0.5 0 0] CT
0.149 GC
2 setlinecap
1 LJ
N
760 560 M
760 553.49 L
S
GR
GS
[0.5 0 0 0.5 0 0] CT
0.149 GC
2 setlinecap
1 LJ
N
109 47 M
109 53.51 L
S
GR
GS
[0.5 0 0 0.5 0 0] CT
0.149 GC
2 setlinecap
1 LJ
N
271.75 47 M
271.75 53.51 L
S
GR
GS
[0.5 0 0 0.5 0 0] CT
0.149 GC
2 setlinecap
1 LJ
N
434.5 47 M
434.5 53.51 L
S
GR
GS
[0.5 0 0 0.5 0 0] CT
0.149 GC
2 setlinecap
1 LJ
N
597.25 47 M
597.25 53.51 L
S
GR
GS
[0.5 0 0 0.5 0 0] CT
0.149 GC
2 setlinecap
1 LJ
N
760 47 M
760 53.51 L
S
GR
GS
[0.5 0 0 0.5 0 0] CT
0.149 GC
2 setlinecap
1 LJ
N
109 560 M
109 556.745 L
S
GR
GS
[0.5 0 0 0.5 0 0] CT
0.149 GC
2 setlinecap
1 LJ
N
141.55 560 M
141.55 556.745 L
S
GR
GS
[0.5 0 0 0.5 0 0] CT
0.149 GC
2 setlinecap
1 LJ
N
174.1 560 M
174.1 556.745 L
S
GR
GS
[0.5 0 0 0.5 0 0] CT
0.149 GC
2 setlinecap
1 LJ
N
206.65 560 M
206.65 556.745 L
S
GR
GS
[0.5 0 0 0.5 0 0] CT
0.149 GC
2 setlinecap
1 LJ
N
239.2 560 M
239.2 556.745 L
S
GR
GS
[0.5 0 0 0.5 0 0] CT
0.149 GC
2 setlinecap
1 LJ
N
271.75 560 M
271.75 556.745 L
S
GR
GS
[0.5 0 0 0.5 0 0] CT
0.149 GC
2 setlinecap
1 LJ
N
304.3 560 M
304.3 556.745 L
S
GR
GS
[0.5 0 0 0.5 0 0] CT
0.149 GC
2 setlinecap
1 LJ
N
336.85 560 M
336.85 556.745 L
S
GR
GS
[0.5 0 0 0.5 0 0] CT
0.149 GC
2 setlinecap
1 LJ
N
369.4 560 M
369.4 556.745 L
S
GR
GS
[0.5 0 0 0.5 0 0] CT
0.149 GC
2 setlinecap
1 LJ
N
401.95 560 M
401.95 556.745 L
S
GR
GS
[0.5 0 0 0.5 0 0] CT
0.149 GC
2 setlinecap
1 LJ
N
434.5 560 M
434.5 556.745 L
S
GR
GS
[0.5 0 0 0.5 0 0] CT
0.149 GC
2 setlinecap
1 LJ
N
467.05 560 M
467.05 556.745 L
S
GR
GS
[0.5 0 0 0.5 0 0] CT
0.149 GC
2 setlinecap
1 LJ
N
499.6 560 M
499.6 556.745 L
S
GR
GS
[0.5 0 0 0.5 0 0] CT
0.149 GC
2 setlinecap
1 LJ
N
532.15 560 M
532.15 556.745 L
S
GR
GS
[0.5 0 0 0.5 0 0] CT
0.149 GC
2 setlinecap
1 LJ
N
564.7 560 M
564.7 556.745 L
S
GR
GS
[0.5 0 0 0.5 0 0] CT
0.149 GC
2 setlinecap
1 LJ
N
597.25 560 M
597.25 556.745 L
S
GR
GS
[0.5 0 0 0.5 0 0] CT
0.149 GC
2 setlinecap
1 LJ
N
629.8 560 M
629.8 556.745 L
S
GR
GS
[0.5 0 0 0.5 0 0] CT
0.149 GC
2 setlinecap
1 LJ
N
662.35 560 M
662.35 556.745 L
S
GR
GS
[0.5 0 0 0.5 0 0] CT
0.149 GC
2 setlinecap
1 LJ
N
694.9 560 M
694.9 556.745 L
S
GR
GS
[0.5 0 0 0.5 0 0] CT
0.149 GC
2 setlinecap
1 LJ
N
727.45 560 M
727.45 556.745 L
S
GR
GS
[0.5 0 0 0.5 0 0] CT
0.149 GC
2 setlinecap
1 LJ
N
760 560 M
760 556.745 L
S
GR
GS
[0.5 0 0 0.5 0 0] CT
0.149 GC
2 setlinecap
1 LJ
N
109 47 M
109 50.255 L
S
GR
GS
[0.5 0 0 0.5 0 0] CT
0.149 GC
2 setlinecap
1 LJ
N
141.55 47 M
141.55 50.255 L
S
GR
GS
[0.5 0 0 0.5 0 0] CT
0.149 GC
2 setlinecap
1 LJ
N
174.1 47 M
174.1 50.255 L
S
GR
GS
[0.5 0 0 0.5 0 0] CT
0.149 GC
2 setlinecap
1 LJ
N
206.65 47 M
206.65 50.255 L
S
GR
GS
[0.5 0 0 0.5 0 0] CT
0.149 GC
2 setlinecap
1 LJ
N
239.2 47 M
239.2 50.255 L
S
GR
GS
[0.5 0 0 0.5 0 0] CT
0.149 GC
2 setlinecap
1 LJ
N
271.75 47 M
271.75 50.255 L
S
GR
GS
[0.5 0 0 0.5 0 0] CT
0.149 GC
2 setlinecap
1 LJ
N
304.3 47 M
304.3 50.255 L
S
GR
GS
[0.5 0 0 0.5 0 0] CT
0.149 GC
2 setlinecap
1 LJ
N
336.85 47 M
336.85 50.255 L
S
GR
GS
[0.5 0 0 0.5 0 0] CT
0.149 GC
2 setlinecap
1 LJ
N
369.4 47 M
369.4 50.255 L
S
GR
GS
[0.5 0 0 0.5 0 0] CT
0.149 GC
2 setlinecap
1 LJ
N
401.95 47 M
401.95 50.255 L
S
GR
GS
[0.5 0 0 0.5 0 0] CT
0.149 GC
2 setlinecap
1 LJ
N
434.5 47 M
434.5 50.255 L
S
GR
GS
[0.5 0 0 0.5 0 0] CT
0.149 GC
2 setlinecap
1 LJ
N
467.05 47 M
467.05 50.255 L
S
GR
GS
[0.5 0 0 0.5 0 0] CT
0.149 GC
2 setlinecap
1 LJ
N
499.6 47 M
499.6 50.255 L
S
GR
GS
[0.5 0 0 0.5 0 0] CT
0.149 GC
2 setlinecap
1 LJ
N
532.15 47 M
532.15 50.255 L
S
GR
GS
[0.5 0 0 0.5 0 0] CT
0.149 GC
2 setlinecap
1 LJ
N
564.7 47 M
564.7 50.255 L
S
GR
GS
[0.5 0 0 0.5 0 0] CT
0.149 GC
2 setlinecap
1 LJ
N
597.25 47 M
597.25 50.255 L
S
GR
GS
[0.5 0 0 0.5 0 0] CT
0.149 GC
2 setlinecap
1 LJ
N
629.8 47 M
629.8 50.255 L
S
GR
GS
[0.5 0 0 0.5 0 0] CT
0.149 GC
2 setlinecap
1 LJ
N
662.35 47 M
662.35 50.255 L
S
GR
GS
[0.5 0 0 0.5 0 0] CT
0.149 GC
2 setlinecap
1 LJ
N
694.9 47 M
694.9 50.255 L
S
GR
GS
[0.5 0 0 0.5 0 0] CT
0.149 GC
2 setlinecap
1 LJ
N
727.45 47 M
727.45 50.255 L
S
GR
GS
[0.5 0 0 0.5 0 0] CT
0.149 GC
2 setlinecap
1 LJ
N
760 47 M
760 50.255 L
S
GR
GS
[0.5 0 0 0.5 42.5 297.5] CT
0.149 GC
/Helvetica 20 F
GS
[1 0 0 1 0 0] CT
0 0 moveto 
1 -1 scale
(10) t 
GR
GR
GS
[0.5 0 0 0.5 54 292.5] CT
0.149 GC
/Helvetica 16 F
GS
[1 0 0 1 0 0] CT
0 0 moveto 
1 -1 scale
(-20) t 
GR
GR
GS
[0.5 0 0 0.5 124 297.5] CT
0.149 GC
/Helvetica 20 F
GS
[1 0 0 1 0 0] CT
0 0 moveto 
1 -1 scale
(10) t 
GR
GR
GS
[0.5 0 0 0.5 135.5 292.5] CT
0.149 GC
/Helvetica 16 F
GS
[1 0 0 1 0 0] CT
0 0 moveto 
1 -1 scale
(-15) t 
GR
GR
GS
[0.5 0 0 0.5 205.5 297.5] CT
0.149 GC
/Helvetica 20 F
GS
[1 0 0 1 0 0] CT
0 0 moveto 
1 -1 scale
(10) t 
GR
GR
GS
[0.5 0 0 0.5 217 292.5] CT
0.149 GC
/Helvetica 16 F
GS
[1 0 0 1 0 0] CT
0 0 moveto 
1 -1 scale
(-10) t 
GR
GR
GS
[0.5 0 0 0.5 289 297.5] CT
0.149 GC
/Helvetica 20 F
GS
[1 0 0 1 0 0] CT
0 0 moveto 
1 -1 scale
(10) t 
GR
GR
GS
[0.5 0 0 0.5 300.5 292.5] CT
0.149 GC
/Helvetica 16 F
GS
[1 0 0 1 0 0] CT
0 0 moveto 
1 -1 scale
(-5) t 
GR
GR
GS
[0.5 0 0 0.5 372 297.5] CT
0.149 GC
/Helvetica 20 F
GS
[1 0 0 1 0 0] CT
0 0 moveto 
1 -1 scale
(10) t 
GR
GR
GS
[0.5 0 0 0.5 383.5 292.5] CT
0.149 GC
/Helvetica 16 F
GS
[1 0 0 1 0 0] CT
0 0 moveto 
1 -1 scale
(0) t 
GR
GR
GS
[0.5 0 0 0.5 217.25015 301] CT
0.149 GC
/Helvetica 22 F
GS
[1 0 0 1 0 0] CT
-74 23 moveto 
1 -1 scale
(Passo Discreto) t 
GR
GR
GS
[0.5 0 0 0.5 0 0] CT
0.149 GC
2 setlinecap
1 LJ
N
109 560 M
109 47 L
S
GR
GS
[0.5 0 0 0.5 0 0] CT
0.149 GC
2 setlinecap
1 LJ
N
760 560 M
760 47 L
S
GR
GS
[0.5 0 0 0.5 0 0] CT
0.149 GC
2 setlinecap
1 LJ
N
109 560 M
115.51 560 L
S
GR
GS
[0.5 0 0 0.5 0 0] CT
0.149 GC
2 setlinecap
1 LJ
N
109 457.4 M
115.51 457.4 L
S
GR
GS
[0.5 0 0 0.5 0 0] CT
0.149 GC
2 setlinecap
1 LJ
N
109 354.8 M
115.51 354.8 L
S
GR
GS
[0.5 0 0 0.5 0 0] CT
0.149 GC
2 setlinecap
1 LJ
N
109 252.2 M
115.51 252.2 L
S
GR
GS
[0.5 0 0 0.5 0 0] CT
0.149 GC
2 setlinecap
1 LJ
N
109 149.6 M
115.51 149.6 L
S
GR
GS
[0.5 0 0 0.5 0 0] CT
0.149 GC
2 setlinecap
1 LJ
N
109 47 M
115.51 47 L
S
GR
GS
[0.5 0 0 0.5 0 0] CT
0.149 GC
2 setlinecap
1 LJ
N
760 560 M
753.49 560 L
S
GR
GS
[0.5 0 0 0.5 0 0] CT
0.149 GC
2 setlinecap
1 LJ
N
760 457.4 M
753.49 457.4 L
S
GR
GS
[0.5 0 0 0.5 0 0] CT
0.149 GC
2 setlinecap
1 LJ
N
760 354.8 M
753.49 354.8 L
S
GR
GS
[0.5 0 0 0.5 0 0] CT
0.149 GC
2 setlinecap
1 LJ
N
760 252.2 M
753.49 252.2 L
S
GR
GS
[0.5 0 0 0.5 0 0] CT
0.149 GC
2 setlinecap
1 LJ
N
760 149.6 M
753.49 149.6 L
S
GR
GS
[0.5 0 0 0.5 0 0] CT
0.149 GC
2 setlinecap
1 LJ
N
760 47 M
753.49 47 L
S
GR
GS
[0.5 0 0 0.5 0 0] CT
0.149 GC
2 setlinecap
1 LJ
N
109 560 M
112.255 560 L
S
GR
GS
[0.5 0 0 0.5 0 0] CT
0.149 GC
2 setlinecap
1 LJ
N
109 539.48 M
112.255 539.48 L
S
GR
GS
[0.5 0 0 0.5 0 0] CT
0.149 GC
2 setlinecap
1 LJ
N
109 518.96 M
112.255 518.96 L
S
GR
GS
[0.5 0 0 0.5 0 0] CT
0.149 GC
2 setlinecap
1 LJ
N
109 498.44 M
112.255 498.44 L
S
GR
GS
[0.5 0 0 0.5 0 0] CT
0.149 GC
2 setlinecap
1 LJ
N
109 477.92 M
112.255 477.92 L
S
GR
GS
[0.5 0 0 0.5 0 0] CT
0.149 GC
2 setlinecap
1 LJ
N
109 457.4 M
112.255 457.4 L
S
GR
GS
[0.5 0 0 0.5 0 0] CT
0.149 GC
2 setlinecap
1 LJ
N
109 436.88 M
112.255 436.88 L
S
GR
GS
[0.5 0 0 0.5 0 0] CT
0.149 GC
2 setlinecap
1 LJ
N
109 416.36 M
112.255 416.36 L
S
GR
GS
[0.5 0 0 0.5 0 0] CT
0.149 GC
2 setlinecap
1 LJ
N
109 395.84 M
112.255 395.84 L
S
GR
GS
[0.5 0 0 0.5 0 0] CT
0.149 GC
2 setlinecap
1 LJ
N
109 375.32 M
112.255 375.32 L
S
GR
GS
[0.5 0 0 0.5 0 0] CT
0.149 GC
2 setlinecap
1 LJ
N
109 354.8 M
112.255 354.8 L
S
GR
GS
[0.5 0 0 0.5 0 0] CT
0.149 GC
2 setlinecap
1 LJ
N
109 334.28 M
112.255 334.28 L
S
GR
GS
[0.5 0 0 0.5 0 0] CT
0.149 GC
2 setlinecap
1 LJ
N
109 313.76 M
112.255 313.76 L
S
GR
GS
[0.5 0 0 0.5 0 0] CT
0.149 GC
2 setlinecap
1 LJ
N
109 293.24 M
112.255 293.24 L
S
GR
GS
[0.5 0 0 0.5 0 0] CT
0.149 GC
2 setlinecap
1 LJ
N
109 272.72 M
112.255 272.72 L
S
GR
GS
[0.5 0 0 0.5 0 0] CT
0.149 GC
2 setlinecap
1 LJ
N
109 252.2 M
112.255 252.2 L
S
GR
GS
[0.5 0 0 0.5 0 0] CT
0.149 GC
2 setlinecap
1 LJ
N
109 231.68 M
112.255 231.68 L
S
GR
GS
[0.5 0 0 0.5 0 0] CT
0.149 GC
2 setlinecap
1 LJ
N
109 211.16 M
112.255 211.16 L
S
GR
GS
[0.5 0 0 0.5 0 0] CT
0.149 GC
2 setlinecap
1 LJ
N
109 190.64 M
112.255 190.64 L
S
GR
GS
[0.5 0 0 0.5 0 0] CT
0.149 GC
2 setlinecap
1 LJ
N
109 170.12 M
112.255 170.12 L
S
GR
GS
[0.5 0 0 0.5 0 0] CT
0.149 GC
2 setlinecap
1 LJ
N
109 149.6 M
112.255 149.6 L
S
GR
GS
[0.5 0 0 0.5 0 0] CT
0.149 GC
2 setlinecap
1 LJ
N
109 129.08 M
112.255 129.08 L
S
GR
GS
[0.5 0 0 0.5 0 0] CT
0.149 GC
2 setlinecap
1 LJ
N
109 108.56 M
112.255 108.56 L
S
GR
GS
[0.5 0 0 0.5 0 0] CT
0.149 GC
2 setlinecap
1 LJ
N
109 88.04 M
112.255 88.04 L
S
GR
GS
[0.5 0 0 0.5 0 0] CT
0.149 GC
2 setlinecap
1 LJ
N
109 67.52 M
112.255 67.52 L
S
GR
GS
[0.5 0 0 0.5 0 0] CT
0.149 GC
2 setlinecap
1 LJ
N
109 47 M
112.255 47 L
S
GR
GS
[0.5 0 0 0.5 0 0] CT
0.149 GC
2 setlinecap
1 LJ
N
760 560 M
756.745 560 L
S
GR
GS
[0.5 0 0 0.5 0 0] CT
0.149 GC
2 setlinecap
1 LJ
N
760 539.48 M
756.745 539.48 L
S
GR
GS
[0.5 0 0 0.5 0 0] CT
0.149 GC
2 setlinecap
1 LJ
N
760 518.96 M
756.745 518.96 L
S
GR
GS
[0.5 0 0 0.5 0 0] CT
0.149 GC
2 setlinecap
1 LJ
N
760 498.44 M
756.745 498.44 L
S
GR
GS
[0.5 0 0 0.5 0 0] CT
0.149 GC
2 setlinecap
1 LJ
N
760 477.92 M
756.745 477.92 L
S
GR
GS
[0.5 0 0 0.5 0 0] CT
0.149 GC
2 setlinecap
1 LJ
N
760 457.4 M
756.745 457.4 L
S
GR
GS
[0.5 0 0 0.5 0 0] CT
0.149 GC
2 setlinecap
1 LJ
N
760 436.88 M
756.745 436.88 L
S
GR
GS
[0.5 0 0 0.5 0 0] CT
0.149 GC
2 setlinecap
1 LJ
N
760 416.36 M
756.745 416.36 L
S
GR
GS
[0.5 0 0 0.5 0 0] CT
0.149 GC
2 setlinecap
1 LJ
N
760 395.84 M
756.745 395.84 L
S
GR
GS
[0.5 0 0 0.5 0 0] CT
0.149 GC
2 setlinecap
1 LJ
N
760 375.32 M
756.745 375.32 L
S
GR
GS
[0.5 0 0 0.5 0 0] CT
0.149 GC
2 setlinecap
1 LJ
N
760 354.8 M
756.745 354.8 L
S
GR
GS
[0.5 0 0 0.5 0 0] CT
0.149 GC
2 setlinecap
1 LJ
N
760 334.28 M
756.745 334.28 L
S
GR
GS
[0.5 0 0 0.5 0 0] CT
0.149 GC
2 setlinecap
1 LJ
N
760 313.76 M
756.745 313.76 L
S
GR
GS
[0.5 0 0 0.5 0 0] CT
0.149 GC
2 setlinecap
1 LJ
N
760 293.24 M
756.745 293.24 L
S
GR
GS
[0.5 0 0 0.5 0 0] CT
0.149 GC
2 setlinecap
1 LJ
N
760 272.72 M
756.745 272.72 L
S
GR
GS
[0.5 0 0 0.5 0 0] CT
0.149 GC
2 setlinecap
1 LJ
N
760 252.2 M
756.745 252.2 L
S
GR
GS
[0.5 0 0 0.5 0 0] CT
0.149 GC
2 setlinecap
1 LJ
N
760 231.68 M
756.745 231.68 L
S
GR
GS
[0.5 0 0 0.5 0 0] CT
0.149 GC
2 setlinecap
1 LJ
N
760 211.16 M
756.745 211.16 L
S
GR
GS
[0.5 0 0 0.5 0 0] CT
0.149 GC
2 setlinecap
1 LJ
N
760 190.64 M
756.745 190.64 L
S
GR
GS
[0.5 0 0 0.5 0 0] CT
0.149 GC
2 setlinecap
1 LJ
N
760 170.12 M
756.745 170.12 L
S
GR
GS
[0.5 0 0 0.5 0 0] CT
0.149 GC
2 setlinecap
1 LJ
N
760 149.6 M
756.745 149.6 L
S
GR
GS
[0.5 0 0 0.5 0 0] CT
0.149 GC
2 setlinecap
1 LJ
N
760 129.08 M
756.745 129.08 L
S
GR
GS
[0.5 0 0 0.5 0 0] CT
0.149 GC
2 setlinecap
1 LJ
N
760 108.56 M
756.745 108.56 L
S
GR
GS
[0.5 0 0 0.5 0 0] CT
0.149 GC
2 setlinecap
1 LJ
N
760 88.04 M
756.745 88.04 L
S
GR
GS
[0.5 0 0 0.5 0 0] CT
0.149 GC
2 setlinecap
1 LJ
N
760 67.52 M
756.745 67.52 L
S
GR
GS
[0.5 0 0 0.5 0 0] CT
0.149 GC
2 setlinecap
1 LJ
N
760 47 M
756.745 47 L
S
GR
GS
[0.5 0 0 0.5 27 285.5] CT
0.149 GC
/Helvetica 20 F
GS
[1 0 0 1 0 0] CT
0 0 moveto 
1 -1 scale
(10) t 
GR
GR
GS
[0.5 0 0 0.5 38.5 280.5] CT
0.149 GC
/Helvetica 16 F
GS
[1 0 0 1 0 0] CT
0 0 moveto 
1 -1 scale
(-25) t 
GR
GR
GS
[0.5 0 0 0.5 27 234] CT
0.149 GC
/Helvetica 20 F
GS
[1 0 0 1 0 0] CT
0 0 moveto 
1 -1 scale
(10) t 
GR
GR
GS
[0.5 0 0 0.5 38.5 229] CT
0.149 GC
/Helvetica 16 F
GS
[1 0 0 1 0 0] CT
0 0 moveto 
1 -1 scale
(-20) t 
GR
GR
GS
[0.5 0 0 0.5 27 183] CT
0.149 GC
/Helvetica 20 F
GS
[1 0 0 1 0 0] CT
0 0 moveto 
1 -1 scale
(10) t 
GR
GR
GS
[0.5 0 0 0.5 38.5 178] CT
0.149 GC
/Helvetica 16 F
GS
[1 0 0 1 0 0] CT
0 0 moveto 
1 -1 scale
(-15) t 
GR
GR
GS
[0.5 0 0 0.5 27 131.5] CT
0.149 GC
/Helvetica 20 F
GS
[1 0 0 1 0 0] CT
0 0 moveto 
1 -1 scale
(10) t 
GR
GR
GS
[0.5 0 0 0.5 38.5 126.5] CT
0.149 GC
/Helvetica 16 F
GS
[1 0 0 1 0 0] CT
0 0 moveto 
1 -1 scale
(-10) t 
GR
GR
GS
[0.5 0 0 0.5 31.5 80.5] CT
0.149 GC
/Helvetica 20 F
GS
[1 0 0 1 0 0] CT
0 0 moveto 
1 -1 scale
(10) t 
GR
GR
GS
[0.5 0 0 0.5 43 75.5] CT
0.149 GC
/Helvetica 16 F
GS
[1 0 0 1 0 0] CT
0 0 moveto 
1 -1 scale
(-5) t 
GR
GR
GS
[0.5 0 0 0.5 34.5 29] CT
0.149 GC
/Helvetica 20 F
GS
[1 0 0 1 0 0] CT
0 0 moveto 
1 -1 scale
(10) t 
GR
GR
GS
[0.5 0 0 0.5 46 24] CT
0.149 GC
/Helvetica 16 F
GS
[1 0 0 1 0 0] CT
0 0 moveto 
1 -1 scale
(0) t 
GR
GR
GS
[0 -0.5 0.5 0 24 151.74988] CT
0.149 GC
/Helvetica 22 F
GS
[1 0 0 1 0 0] CT
-31 -5 moveto 
1 -1 scale
(Errore) t 
GR
GR
GS
[0.5 0 0 0.5 81 19.5] CT
/Helvetica-Bold 22 F
GS
[1 0 0 1 0 0] CT
0 0 moveto 
1 -1 scale
(Passo Complesso vs Differenze Finite   f\(x\)=x) t 
GR
GR
GS
[0.5 0 0 0.5 318.5 14] CT
/Helvetica-Bold 17.6 F
GS
[1 0 0 1 0 0] CT
0 0 moveto 
1 -1 scale
(4) t 
GR
GR
GS
[0.5 0 0 0.5 324 19.5] CT
/Helvetica-Bold 22 F
GS
[1 0 0 1 0 0] CT
0 0 moveto 
1 -1 scale
(sin\(x\)) t 
GR
GR
GS
[0.5 0 0 0.5 0 0] CT
1 LJ
2.4 LW
N
727.45 368.211 M
714.931 368.211 L
702.412 368.211 L
689.892 368.211 L
677.373 368.211 L
664.854 368.211 L
652.335 368.211 L
639.815 368.211 L
627.296 368.211 L
614.777 368.211 L
602.258 368.211 L
589.738 368.211 L
577.219 368.211 L
564.7 368.211 L
552.181 368.211 L
539.662 368.211 L
527.142 368.211 L
514.623 368.211 L
502.104 368.211 L
489.585 368.211 L
477.065 368.211 L
464.546 368.211 L
452.027 368.211 L
439.508 368.211 L
426.988 368.211 L
414.469 368.211 L
401.95 368.211 L
389.431 368.211 L
376.912 368.211 L
364.392 368.211 L
351.873 368.211 L
339.354 368.211 L
326.835 368.211 L
314.315 368.211 L
301.796 368.211 L
289.277 368.211 L
276.758 368.211 L
264.238 368.211 L
251.719 368.211 L
250.477 368.211 L
S
GR
GS
[0.5 0 0 0.5 0 0] CT
0.851 0.325 0.098 RC
1 LJ
2.4 LW
N
727.45 64.677 M
714.931 73.535 L
702.412 81.83 L
689.892 89.889 L
677.373 97.85 L
664.854 105.771 L
652.335 113.675 L
639.815 121.572 L
627.296 129.466 L
614.777 137.359 L
602.258 145.252 L
589.738 153.145 L
577.219 161.037 L
564.7 168.929 L
552.181 176.822 L
539.662 184.716 L
527.142 192.624 L
514.623 200.43 L
502.104 208.134 L
489.585 215.358 L
477.065 215.827 L
464.546 207.249 L
452.027 233.944 L
439.508 193.267 L
426.988 185.802 L
414.469 191.742 L
401.95 192.399 L
389.431 160.556 L
376.912 151.992 L
364.392 146.719 L
351.873 146.281 L
339.354 132.45 L
326.835 118.71 L
314.315 127.26 L
301.796 103.622 L
289.277 105.887 L
276.758 94.425 L
264.238 83.234 L
251.719 76.386 L
250.477 85.491 L
S
GR
GS
[0.5 0 0 0.5 0 0] CT
0.929 0.694 0.125 RC
1 LJ
2.4 LW
N
727.45 81.226 M
714.931 97.017 L
702.412 112.803 L
689.892 128.588 L
677.373 144.372 L
664.854 160.157 L
652.335 175.942 L
639.815 191.726 L
627.296 207.511 L
614.777 223.296 L
602.258 239.073 L
589.738 254.761 L
577.219 272.45 L
564.7 279.67 L
552.181 267.731 L
539.662 259.502 L
527.142 272.921 L
514.623 246.408 L
502.104 237.354 L
489.585 243.883 L
477.065 257.349 L
464.546 214.055 L
452.027 233.944 L
439.508 202.72 L
426.988 196.123 L
414.469 191.742 L
401.95 192.399 L
389.431 171.87 L
376.912 158.785 L
364.392 157.928 L
351.873 146.281 L
339.354 157.457 L
326.835 125.83 L
314.315 127.26 L
301.796 111.677 L
289.277 105.887 L
276.758 94.425 L
264.238 100.787 L
251.719 78.302 L
250.477 93.369 L
S
GR
GS
[0.5 0 0 0.5 0 0] CT
0.494 0.184 0.557 RC
1 LJ
2.4 LW
N
727.45 81.242 M
714.931 97.02 L
702.412 112.803 L
689.892 128.588 L
677.373 144.372 L
664.854 160.157 L
652.335 175.942 L
639.815 191.726 L
627.296 207.511 L
614.777 223.296 L
602.258 239.08 L
589.738 254.865 L
577.219 270.649 L
564.7 286.434 L
552.181 302.218 L
539.662 318.003 L
527.142 333.805 L
514.623 349.68 L
502.104 364.598 L
489.585 368.211 L
477.065 368.211 L
464.546 368.211 L
452.027 368.211 L
439.508 368.211 L
426.988 368.211 L
414.469 368.211 L
401.95 368.211 L
389.431 368.211 L
376.912 368.211 L
364.392 368.211 L
351.873 368.211 L
339.354 368.211 L
326.835 368.211 L
314.315 368.211 L
301.796 368.211 L
289.277 368.211 L
276.758 368.211 L
264.238 368.211 L
251.719 368.211 L
250.477 368.211 L
S
GR
GS
[0.5 0 0 0.5 0 0] CT
0.467 0.675 0.188 RC
1 LJ
2.4 LW
N
727.45 47 M
714.931 54.892 L
702.412 62.785 L
689.892 70.677 L
677.373 78.569 L
664.854 86.462 L
652.335 94.354 L
639.815 102.246 L
627.296 110.138 L
614.777 118.031 L
602.258 125.923 L
589.738 133.815 L
577.219 141.708 L
564.7 149.6 L
552.181 157.492 L
539.662 165.385 L
527.142 173.277 L
514.623 181.169 L
502.104 189.062 L
489.585 196.954 L
477.065 204.846 L
464.546 212.738 L
452.027 220.631 L
439.508 228.523 L
426.988 236.415 L
414.469 244.308 L
401.95 252.2 L
389.431 260.092 L
376.912 267.985 L
364.392 275.877 L
351.873 283.769 L
339.354 291.662 L
326.835 299.554 L
314.315 307.446 L
301.796 315.338 L
289.277 323.231 L
276.758 331.123 L
264.238 339.015 L
251.719 346.908 L
250.477 347.691 L
S
GR
GS
[0.5 0 0 0.5 0 0] CT
0.302 0.745 0.933 RC
1 LJ
2.4 LW
N
727.45 67.52 M
714.931 83.305 L
702.412 99.089 L
689.892 114.874 L
677.373 130.658 L
664.854 146.443 L
652.335 162.228 L
639.815 178.012 L
627.296 193.797 L
614.777 209.582 L
602.258 225.366 L
589.738 241.151 L
577.219 256.935 L
564.7 272.72 L
552.181 288.505 L
539.662 304.289 L
527.142 320.074 L
514.623 335.858 L
502.104 351.643 L
489.585 367.428 L
477.065 383.212 L
464.546 398.997 L
452.027 414.782 L
439.508 430.566 L
426.988 446.351 L
414.469 462.135 L
401.95 477.92 L
389.431 493.705 L
376.912 509.489 L
S
GR
GS
[0.5 0 0 0.5 0 0] CT
1 GC
N
518 540 M
518 392 L
740 392 L
740 540 L
cp
f
GR
GS
[0.5 0 0 0.5 294.17078 203.26227] CT
/Helvetica 18 F
GS
[1 0 0 1 0 0] CT
0 7.5 moveto 
1 -1 scale
(Eps Macchina) t 
GR
GR
GS
[0.5 0 0 0.5 0 0] CT
1 LJ
2.4 LW
N
523.987 406.525 M
583.852 406.525 L
S
GR
GS
[0.5 0 0 0.5 294.17078 215.15736] CT
/Helvetica 18 F
GS
[1 0 0 1 0 0] CT
0 7.5 moveto 
1 -1 scale
(Diff Finite 1) t 
GR
GR
GS
[0.5 0 0 0.5 0 0] CT
0.851 0.325 0.098 RC
1 LJ
2.4 LW
N
523.987 430.315 M
583.852 430.315 L
S
GR
GS
[0.5 0 0 0.5 294.17078 227.05244] CT
/Helvetica 18 F
GS
[1 0 0 1 0 0] CT
0 7.5 moveto 
1 -1 scale
(Diff Finite 2) t 
GR
GR
GS
[0.5 0 0 0.5 0 0] CT
0.929 0.694 0.125 RC
1 LJ
2.4 LW
N
523.987 454.105 M
583.852 454.105 L
S
GR
GS
[0.5 0 0 0.5 294.17078 238.94754] CT
/Helvetica 18 F
GS
[1 0 0 1 0 0] CT
0 7.5 moveto 
1 -1 scale
(Passo Complesso) t 
GR
GR
GS
[0.5 0 0 0.5 0 0] CT
0.494 0.184 0.557 RC
1 LJ
2.4 LW
N
523.987 477.895 M
583.852 477.895 L
S
GR
GS
[0.5 0 0 0.5 294.17078 250.84264] CT
/Helvetica 18 F
GS
[1 0 0 1 0 0] CT
0 7.5 moveto 
1 -1 scale
(Grado 1) t 
GR
GR
GS
[0.5 0 0 0.5 0 0] CT
0.467 0.675 0.188 RC
1 LJ
2.4 LW
N
523.987 501.685 M
583.852 501.685 L
S
GR
GS
[0.5 0 0 0.5 294.17078 262.73773] CT
/Helvetica 18 F
GS
[1 0 0 1 0 0] CT
0 7.5 moveto 
1 -1 scale
(Grado 2) t 
GR
GR
GS
[0.5 0 0 0.5 0 0] CT
0.302 0.745 0.933 RC
1 LJ
2.4 LW
N
523.987 525.475 M
583.852 525.475 L
S
GR
GS
[0.5 0 0 0.5 0 0] CT
0.149 GC
10.0 ML
N
518 540 M
518 392 L
740 392 L
740 540 L
cp
S
GR
%%Trailer
%%Pages: 1
%%EOF
