%!PS-Adobe-3.0 EPSF-3.0
%%Creator: (MATLAB, The Mathworks, Inc. Version 9.2.0.556344 \(R2017a\). Operating System: Windows 8)
%%Title: C:/Users/nicol/Desktop/ComplDIFF.eps
%%CreationDate: 2017-06-12T17:15:03
%%Pages: (atend)
%%BoundingBox: 0 0 420 315
%%LanguageLevel: 3
%%EndComments
%%BeginProlog
%%BeginResource: procset (Apache XML Graphics Std ProcSet) 1.2 0
%%Version: 1.2 0
%%Copyright: (Copyright 2001-2003,2010 The Apache Software Foundation. License terms: http://www.apache.org/licenses/LICENSE-2.0)
/bd{bind def}bind def
/ld{load def}bd
/GR/grestore ld
/M/moveto ld
/LJ/setlinejoin ld
/C/curveto ld
/f/fill ld
/LW/setlinewidth ld
/GC/setgray ld
/t/show ld
/N/newpath ld
/CT/concat ld
/cp/closepath ld
/S/stroke ld
/L/lineto ld
/CC/setcmykcolor ld
/A/ashow ld
/GS/gsave ld
/RC/setrgbcolor ld
/RM/rmoveto ld
/ML/setmiterlimit ld
/re {4 2 roll M
1 index 0 rlineto
0 exch rlineto
neg 0 rlineto
cp } bd
/_ctm matrix def
/_tm matrix def
/BT { _ctm currentmatrix pop matrix _tm copy pop 0 0 moveto } bd
/ET { _ctm setmatrix } bd
/iTm { _ctm setmatrix _tm concat } bd
/Tm { _tm astore pop iTm 0 0 moveto } bd
/ux 0.0 def
/uy 0.0 def
/F {
  /Tp exch def
  /Tf exch def
  Tf findfont Tp scalefont setfont
  /cf Tf def  /cs Tp def
} bd
/ULS {currentpoint /uy exch def /ux exch def} bd
/ULE {
  /Tcx currentpoint pop def
  gsave
  newpath
  cf findfont cs scalefont dup
  /FontMatrix get 0 get /Ts exch def /FontInfo get dup
  /UnderlinePosition get Ts mul /To exch def
  /UnderlineThickness get Ts mul /Tt exch def
  ux uy To add moveto  Tcx uy To add lineto
  Tt setlinewidth stroke
  grestore
} bd
/OLE {
  /Tcx currentpoint pop def
  gsave
  newpath
  cf findfont cs scalefont dup
  /FontMatrix get 0 get /Ts exch def /FontInfo get dup
  /UnderlinePosition get Ts mul /To exch def
  /UnderlineThickness get Ts mul /Tt exch def
  ux uy To add cs add moveto Tcx uy To add cs add lineto
  Tt setlinewidth stroke
  grestore
} bd
/SOE {
  /Tcx currentpoint pop def
  gsave
  newpath
  cf findfont cs scalefont dup
  /FontMatrix get 0 get /Ts exch def /FontInfo get dup
  /UnderlinePosition get Ts mul /To exch def
  /UnderlineThickness get Ts mul /Tt exch def
  ux uy To add cs 10 mul 26 idiv add moveto Tcx uy To add cs 10 mul 26 idiv add lineto
  Tt setlinewidth stroke
  grestore
} bd
/QT {
/Y22 exch store
/X22 exch store
/Y21 exch store
/X21 exch store
currentpoint
/Y21 load 2 mul add 3 div exch
/X21 load 2 mul add 3 div exch
/X21 load 2 mul /X22 load add 3 div
/Y21 load 2 mul /Y22 load add 3 div
/X22 load /Y22 load curveto
} bd
/SSPD {
dup length /d exch dict def
{
/v exch def
/k exch def
currentpagedevice k known {
/cpdv currentpagedevice k get def
v cpdv ne {
/upd false def
/nullv v type /nulltype eq def
/nullcpdv cpdv type /nulltype eq def
nullv nullcpdv or
{
/upd true def
} {
/sametype v type cpdv type eq def
sametype {
v type /arraytype eq {
/vlen v length def
/cpdvlen cpdv length def
vlen cpdvlen eq {
0 1 vlen 1 sub {
/i exch def
/obj v i get def
/cpdobj cpdv i get def
obj cpdobj ne {
/upd true def
exit
} if
} for
} {
/upd true def
} ifelse
} {
v type /dicttype eq {
v {
/dv exch def
/dk exch def
/cpddv cpdv dk get def
dv cpddv ne {
/upd true def
exit
} if
} forall
} {
/upd true def
} ifelse
} ifelse
} if
} ifelse
upd true eq {
d k v put
} if
} if
} if
} forall
d length 0 gt {
d setpagedevice
} if
} bd
/RE { % /NewFontName [NewEncodingArray] /FontName RE -
  findfont dup length dict begin
  {
    1 index /FID ne
    {def} {pop pop} ifelse
  } forall
  /Encoding exch def
  /FontName 1 index def
  currentdict definefont pop
  end
} bind def
%%EndResource
%%BeginResource: procset (Apache XML Graphics EPS ProcSet) 1.0 0
%%Version: 1.0 0
%%Copyright: (Copyright 2002-2003 The Apache Software Foundation. License terms: http://www.apache.org/licenses/LICENSE-2.0)
/BeginEPSF { %def
/b4_Inc_state save def         % Save state for cleanup
/dict_count countdictstack def % Count objects on dict stack
/op_count count 1 sub def      % Count objects on operand stack
userdict begin                 % Push userdict on dict stack
/showpage { } def              % Redefine showpage, { } = null proc
0 setgray 0 setlinecap         % Prepare graphics state
1 setlinewidth 0 setlinejoin
10 setmiterlimit [ ] 0 setdash newpath
/languagelevel where           % If level not equal to 1 then
{pop languagelevel             % set strokeadjust and
1 ne                           % overprint to their defaults.
{false setstrokeadjust false setoverprint
} if
} if
} bd
/EndEPSF { %def
count op_count sub {pop} repeat            % Clean up stacks
countdictstack dict_count sub {end} repeat
b4_Inc_state restore
} bd
%%EndResource
%FOPBeginFontDict
%%IncludeResource: font Courier-Bold
%%IncludeResource: font Helvetica
%%IncludeResource: font Courier-BoldOblique
%%IncludeResource: font Courier-Oblique
%%IncludeResource: font Times-Roman
%%IncludeResource: font Helvetica-BoldOblique
%%IncludeResource: font Helvetica-Bold
%%IncludeResource: font Helvetica-Oblique
%%IncludeResource: font Times-BoldItalic
%%IncludeResource: font Courier
%%IncludeResource: font Times-Italic
%%IncludeResource: font Times-Bold
%%IncludeResource: font Symbol
%%IncludeResource: font ZapfDingbats
%FOPEndFontDict
%%BeginResource: encoding WinAnsiEncoding
/WinAnsiEncoding [
/.notdef /.notdef /.notdef /.notdef /.notdef
/.notdef /.notdef /.notdef /.notdef /.notdef
/.notdef /.notdef /.notdef /.notdef /.notdef
/.notdef /.notdef /.notdef /.notdef /.notdef
/.notdef /.notdef /.notdef /.notdef /.notdef
/.notdef /.notdef /.notdef /.notdef /.notdef
/.notdef /.notdef /space /exclam /quotedbl
/numbersign /dollar /percent /ampersand /quotesingle
/parenleft /parenright /asterisk /plus /comma
/hyphen /period /slash /zero /one
/two /three /four /five /six
/seven /eight /nine /colon /semicolon
/less /equal /greater /question /at
/A /B /C /D /E
/F /G /H /I /J
/K /L /M /N /O
/P /Q /R /S /T
/U /V /W /X /Y
/Z /bracketleft /backslash /bracketright /asciicircum
/underscore /quoteleft /a /b /c
/d /e /f /g /h
/i /j /k /l /m
/n /o /p /q /r
/s /t /u /v /w
/x /y /z /braceleft /bar
/braceright /asciitilde /bullet /Euro /bullet
/quotesinglbase /florin /quotedblbase /ellipsis /dagger
/daggerdbl /circumflex /perthousand /Scaron /guilsinglleft
/OE /bullet /Zcaron /bullet /bullet
/quoteleft /quoteright /quotedblleft /quotedblright /bullet
/endash /emdash /asciitilde /trademark /scaron
/guilsinglright /oe /bullet /zcaron /Ydieresis
/space /exclamdown /cent /sterling /currency
/yen /brokenbar /section /dieresis /copyright
/ordfeminine /guillemotleft /logicalnot /sfthyphen /registered
/macron /degree /plusminus /twosuperior /threesuperior
/acute /mu /paragraph /middot /cedilla
/onesuperior /ordmasculine /guillemotright /onequarter /onehalf
/threequarters /questiondown /Agrave /Aacute /Acircumflex
/Atilde /Adieresis /Aring /AE /Ccedilla
/Egrave /Eacute /Ecircumflex /Edieresis /Igrave
/Iacute /Icircumflex /Idieresis /Eth /Ntilde
/Ograve /Oacute /Ocircumflex /Otilde /Odieresis
/multiply /Oslash /Ugrave /Uacute /Ucircumflex
/Udieresis /Yacute /Thorn /germandbls /agrave
/aacute /acircumflex /atilde /adieresis /aring
/ae /ccedilla /egrave /eacute /ecircumflex
/edieresis /igrave /iacute /icircumflex /idieresis
/eth /ntilde /ograve /oacute /ocircumflex
/otilde /odieresis /divide /oslash /ugrave
/uacute /ucircumflex /udieresis /yacute /thorn
/ydieresis
] def
%%EndResource
%FOPBeginFontReencode
/Courier-Bold findfont
dup length dict begin
  {1 index /FID ne {def} {pop pop} ifelse} forall
  /Encoding WinAnsiEncoding def
  currentdict
end
/Courier-Bold exch definefont pop
/Helvetica findfont
dup length dict begin
  {1 index /FID ne {def} {pop pop} ifelse} forall
  /Encoding WinAnsiEncoding def
  currentdict
end
/Helvetica exch definefont pop
/Courier-BoldOblique findfont
dup length dict begin
  {1 index /FID ne {def} {pop pop} ifelse} forall
  /Encoding WinAnsiEncoding def
  currentdict
end
/Courier-BoldOblique exch definefont pop
/Courier-Oblique findfont
dup length dict begin
  {1 index /FID ne {def} {pop pop} ifelse} forall
  /Encoding WinAnsiEncoding def
  currentdict
end
/Courier-Oblique exch definefont pop
/Times-Roman findfont
dup length dict begin
  {1 index /FID ne {def} {pop pop} ifelse} forall
  /Encoding WinAnsiEncoding def
  currentdict
end
/Times-Roman exch definefont pop
/Helvetica-BoldOblique findfont
dup length dict begin
  {1 index /FID ne {def} {pop pop} ifelse} forall
  /Encoding WinAnsiEncoding def
  currentdict
end
/Helvetica-BoldOblique exch definefont pop
/Helvetica-Bold findfont
dup length dict begin
  {1 index /FID ne {def} {pop pop} ifelse} forall
  /Encoding WinAnsiEncoding def
  currentdict
end
/Helvetica-Bold exch definefont pop
/Helvetica-Oblique findfont
dup length dict begin
  {1 index /FID ne {def} {pop pop} ifelse} forall
  /Encoding WinAnsiEncoding def
  currentdict
end
/Helvetica-Oblique exch definefont pop
/Times-BoldItalic findfont
dup length dict begin
  {1 index /FID ne {def} {pop pop} ifelse} forall
  /Encoding WinAnsiEncoding def
  currentdict
end
/Times-BoldItalic exch definefont pop
/Courier findfont
dup length dict begin
  {1 index /FID ne {def} {pop pop} ifelse} forall
  /Encoding WinAnsiEncoding def
  currentdict
end
/Courier exch definefont pop
/Times-Italic findfont
dup length dict begin
  {1 index /FID ne {def} {pop pop} ifelse} forall
  /Encoding WinAnsiEncoding def
  currentdict
end
/Times-Italic exch definefont pop
/Times-Bold findfont
dup length dict begin
  {1 index /FID ne {def} {pop pop} ifelse} forall
  /Encoding WinAnsiEncoding def
  currentdict
end
/Times-Bold exch definefont pop
%FOPEndFontReencode
%%EndProlog
%%Page: 1 1
%%PageBoundingBox: 0 0 420 315
%%BeginPageSetup
[1 0 0 -1 0 315] CT
%%EndPageSetup
GS
[0.5 0 0 0.5 0 0] CT
1 GC
N
0 0 840 630 re
f
GR
GS
[0.5 0 0 0.5 0 0] CT
1 GC
N
0 0 840 630 re
f
GR
GS
[0.5 0 0 0.5 0 0] CT
1 GC
N
109 560 M
760 560 L
760 47 L
109 47 L
cp
f
GR
GS
[0.5 0 0 0.5 0 0] CT
0.775 GC
[1 3] 0 setdash
2 LJ
N
115.55 560 M
115.55 47 L
S
GR
GS
[0.5 0 0 0.5 0 0] CT
0.775 GC
[1 3] 0 setdash
2 LJ
N
148.1 560 M
148.1 47 L
S
GR
GS
[0.5 0 0 0.5 0 0] CT
0.775 GC
[1 3] 0 setdash
2 LJ
N
180.65 560 M
180.65 47 L
S
GR
GS
[0.5 0 0 0.5 0 0] CT
0.775 GC
[1 3] 0 setdash
2 LJ
N
213.2 560 M
213.2 47 L
S
GR
GS
[0.5 0 0 0.5 0 0] CT
0.775 GC
[1 3] 0 setdash
2 LJ
N
278.3 560 M
278.3 47 L
S
GR
GS
[0.5 0 0 0.5 0 0] CT
0.775 GC
[1 3] 0 setdash
2 LJ
N
310.85 560 M
310.85 47 L
S
GR
GS
[0.5 0 0 0.5 0 0] CT
0.775 GC
[1 3] 0 setdash
2 LJ
N
343.4 560 M
343.4 47 L
S
GR
GS
[0.5 0 0 0.5 0 0] CT
0.775 GC
[1 3] 0 setdash
2 LJ
N
375.95 560 M
375.95 47 L
S
GR
GS
[0.5 0 0 0.5 0 0] CT
0.775 GC
[1 3] 0 setdash
2 LJ
N
441.05 560 M
441.05 47 L
S
GR
GS
[0.5 0 0 0.5 0 0] CT
0.775 GC
[1 3] 0 setdash
2 LJ
N
473.6 560 M
473.6 47 L
S
GR
GS
[0.5 0 0 0.5 0 0] CT
0.775 GC
[1 3] 0 setdash
2 LJ
N
506.15 560 M
506.15 47 L
S
GR
GS
[0.5 0 0 0.5 0 0] CT
0.775 GC
[1 3] 0 setdash
2 LJ
N
538.7 560 M
538.7 47 L
S
GR
GS
[0.5 0 0 0.5 0 0] CT
0.775 GC
[1 3] 0 setdash
2 LJ
N
603.8 560 M
603.8 47 L
S
GR
GS
[0.5 0 0 0.5 0 0] CT
0.775 GC
[1 3] 0 setdash
2 LJ
N
636.35 560 M
636.35 47 L
S
GR
GS
[0.5 0 0 0.5 0 0] CT
0.775 GC
[1 3] 0 setdash
2 LJ
N
668.9 560 M
668.9 47 L
S
GR
GS
[0.5 0 0 0.5 0 0] CT
0.775 GC
[1 3] 0 setdash
2 LJ
N
701.45 560 M
701.45 47 L
S
GR
GS
[0.5 0 0 0.5 0 0] CT
0.873 GC
1 LJ
N
245.75 560 M
245.75 47 L
S
GR
GS
[0.5 0 0 0.5 0 0] CT
0.873 GC
1 LJ
N
408.5 560 M
408.5 47 L
S
GR
GS
[0.5 0 0 0.5 0 0] CT
0.873 GC
1 LJ
N
571.25 560 M
571.25 47 L
S
GR
GS
[0.5 0 0 0.5 0 0] CT
0.873 GC
1 LJ
N
734 560 M
734 47 L
S
GR
GS
[0.5 0 0 0.5 0 0] CT
0.775 GC
[1 3] 0 setdash
2 LJ
N
760 558.48 M
109 558.48 L
S
GR
GS
[0.5 0 0 0.5 0 0] CT
0.775 GC
[1 3] 0 setdash
2 LJ
N
760 537.96 M
109 537.96 L
S
GR
GS
[0.5 0 0 0.5 0 0] CT
0.775 GC
[1 3] 0 setdash
2 LJ
N
760 517.44 M
109 517.44 L
S
GR
GS
[0.5 0 0 0.5 0 0] CT
0.775 GC
[1 3] 0 setdash
2 LJ
N
760 496.92 M
109 496.92 L
S
GR
GS
[0.5 0 0 0.5 0 0] CT
0.775 GC
[1 3] 0 setdash
2 LJ
N
760 455.88 M
109 455.88 L
S
GR
GS
[0.5 0 0 0.5 0 0] CT
0.775 GC
[1 3] 0 setdash
2 LJ
N
760 435.36 M
109 435.36 L
S
GR
GS
[0.5 0 0 0.5 0 0] CT
0.775 GC
[1 3] 0 setdash
2 LJ
N
760 414.84 M
109 414.84 L
S
GR
GS
[0.5 0 0 0.5 0 0] CT
0.775 GC
[1 3] 0 setdash
2 LJ
N
760 394.32 M
109 394.32 L
S
GR
GS
[0.5 0 0 0.5 0 0] CT
0.775 GC
[1 3] 0 setdash
2 LJ
N
760 353.28 M
109 353.28 L
S
GR
GS
[0.5 0 0 0.5 0 0] CT
0.775 GC
[1 3] 0 setdash
2 LJ
N
760 332.76 M
109 332.76 L
S
GR
GS
[0.5 0 0 0.5 0 0] CT
0.775 GC
[1 3] 0 setdash
2 LJ
N
760 312.24 M
109 312.24 L
S
GR
GS
[0.5 0 0 0.5 0 0] CT
0.775 GC
[1 3] 0 setdash
2 LJ
N
760 291.72 M
109 291.72 L
S
GR
GS
[0.5 0 0 0.5 0 0] CT
0.775 GC
[1 3] 0 setdash
2 LJ
N
760 250.68 M
109 250.68 L
S
GR
GS
[0.5 0 0 0.5 0 0] CT
0.775 GC
[1 3] 0 setdash
2 LJ
N
760 230.16 M
109 230.16 L
S
GR
GS
[0.5 0 0 0.5 0 0] CT
0.775 GC
[1 3] 0 setdash
2 LJ
N
760 209.64 M
109 209.64 L
S
GR
GS
[0.5 0 0 0.5 0 0] CT
0.775 GC
[1 3] 0 setdash
2 LJ
N
760 189.12 M
109 189.12 L
S
GR
GS
[0.5 0 0 0.5 0 0] CT
0.775 GC
[1 3] 0 setdash
2 LJ
N
760 148.08 M
109 148.08 L
S
GR
GS
[0.5 0 0 0.5 0 0] CT
0.775 GC
[1 3] 0 setdash
2 LJ
N
760 127.56 M
109 127.56 L
S
GR
GS
[0.5 0 0 0.5 0 0] CT
0.775 GC
[1 3] 0 setdash
2 LJ
N
760 107.04 M
109 107.04 L
S
GR
GS
[0.5 0 0 0.5 0 0] CT
0.775 GC
[1 3] 0 setdash
2 LJ
N
760 86.52 M
109 86.52 L
S
GR
GS
[0.5 0 0 0.5 0 0] CT
0.873 GC
1 LJ
N
760 476.4 M
109 476.4 L
S
GR
GS
[0.5 0 0 0.5 0 0] CT
0.873 GC
1 LJ
N
760 373.8 M
109 373.8 L
S
GR
GS
[0.5 0 0 0.5 0 0] CT
0.873 GC
1 LJ
N
760 271.2 M
109 271.2 L
S
GR
GS
[0.5 0 0 0.5 0 0] CT
0.873 GC
1 LJ
N
760 168.6 M
109 168.6 L
S
GR
GS
[0.5 0 0 0.5 0 0] CT
0.873 GC
1 LJ
N
760 66 M
109 66 L
S
GR
GS
[0.5 0 0 0.5 0 0] CT
0.149 GC
2 setlinecap
1 LJ
N
109 560 M
760 560 L
S
GR
GS
[0.5 0 0 0.5 0 0] CT
0.149 GC
2 setlinecap
1 LJ
N
109 47 M
760 47 L
S
GR
GS
[0.5 0 0 0.5 0 0] CT
0.149 GC
2 setlinecap
1 LJ
N
245.75 560 M
245.75 553.49 L
S
GR
GS
[0.5 0 0 0.5 0 0] CT
0.149 GC
2 setlinecap
1 LJ
N
408.5 560 M
408.5 553.49 L
S
GR
GS
[0.5 0 0 0.5 0 0] CT
0.149 GC
2 setlinecap
1 LJ
N
571.25 560 M
571.25 553.49 L
S
GR
GS
[0.5 0 0 0.5 0 0] CT
0.149 GC
2 setlinecap
1 LJ
N
734 560 M
734 553.49 L
S
GR
GS
[0.5 0 0 0.5 0 0] CT
0.149 GC
2 setlinecap
1 LJ
N
245.75 47 M
245.75 53.51 L
S
GR
GS
[0.5 0 0 0.5 0 0] CT
0.149 GC
2 setlinecap
1 LJ
N
408.5 47 M
408.5 53.51 L
S
GR
GS
[0.5 0 0 0.5 0 0] CT
0.149 GC
2 setlinecap
1 LJ
N
571.25 47 M
571.25 53.51 L
S
GR
GS
[0.5 0 0 0.5 0 0] CT
0.149 GC
2 setlinecap
1 LJ
N
734 47 M
734 53.51 L
S
GR
GS
[0.5 0 0 0.5 0 0] CT
0.149 GC
2 setlinecap
1 LJ
N
115.55 560 M
115.55 556.745 L
S
GR
GS
[0.5 0 0 0.5 0 0] CT
0.149 GC
2 setlinecap
1 LJ
N
148.1 560 M
148.1 556.745 L
S
GR
GS
[0.5 0 0 0.5 0 0] CT
0.149 GC
2 setlinecap
1 LJ
N
180.65 560 M
180.65 556.745 L
S
GR
GS
[0.5 0 0 0.5 0 0] CT
0.149 GC
2 setlinecap
1 LJ
N
213.2 560 M
213.2 556.745 L
S
GR
GS
[0.5 0 0 0.5 0 0] CT
0.149 GC
2 setlinecap
1 LJ
N
245.75 560 M
245.75 556.745 L
S
GR
GS
[0.5 0 0 0.5 0 0] CT
0.149 GC
2 setlinecap
1 LJ
N
278.3 560 M
278.3 556.745 L
S
GR
GS
[0.5 0 0 0.5 0 0] CT
0.149 GC
2 setlinecap
1 LJ
N
310.85 560 M
310.85 556.745 L
S
GR
GS
[0.5 0 0 0.5 0 0] CT
0.149 GC
2 setlinecap
1 LJ
N
343.4 560 M
343.4 556.745 L
S
GR
GS
[0.5 0 0 0.5 0 0] CT
0.149 GC
2 setlinecap
1 LJ
N
375.95 560 M
375.95 556.745 L
S
GR
GS
[0.5 0 0 0.5 0 0] CT
0.149 GC
2 setlinecap
1 LJ
N
408.5 560 M
408.5 556.745 L
S
GR
GS
[0.5 0 0 0.5 0 0] CT
0.149 GC
2 setlinecap
1 LJ
N
441.05 560 M
441.05 556.745 L
S
GR
GS
[0.5 0 0 0.5 0 0] CT
0.149 GC
2 setlinecap
1 LJ
N
473.6 560 M
473.6 556.745 L
S
GR
GS
[0.5 0 0 0.5 0 0] CT
0.149 GC
2 setlinecap
1 LJ
N
506.15 560 M
506.15 556.745 L
S
GR
GS
[0.5 0 0 0.5 0 0] CT
0.149 GC
2 setlinecap
1 LJ
N
538.7 560 M
538.7 556.745 L
S
GR
GS
[0.5 0 0 0.5 0 0] CT
0.149 GC
2 setlinecap
1 LJ
N
571.25 560 M
571.25 556.745 L
S
GR
GS
[0.5 0 0 0.5 0 0] CT
0.149 GC
2 setlinecap
1 LJ
N
603.8 560 M
603.8 556.745 L
S
GR
GS
[0.5 0 0 0.5 0 0] CT
0.149 GC
2 setlinecap
1 LJ
N
636.35 560 M
636.35 556.745 L
S
GR
GS
[0.5 0 0 0.5 0 0] CT
0.149 GC
2 setlinecap
1 LJ
N
668.9 560 M
668.9 556.745 L
S
GR
GS
[0.5 0 0 0.5 0 0] CT
0.149 GC
2 setlinecap
1 LJ
N
701.45 560 M
701.45 556.745 L
S
GR
GS
[0.5 0 0 0.5 0 0] CT
0.149 GC
2 setlinecap
1 LJ
N
734 560 M
734 556.745 L
S
GR
GS
[0.5 0 0 0.5 0 0] CT
0.149 GC
2 setlinecap
1 LJ
N
115.55 47 M
115.55 50.255 L
S
GR
GS
[0.5 0 0 0.5 0 0] CT
0.149 GC
2 setlinecap
1 LJ
N
148.1 47 M
148.1 50.255 L
S
GR
GS
[0.5 0 0 0.5 0 0] CT
0.149 GC
2 setlinecap
1 LJ
N
180.65 47 M
180.65 50.255 L
S
GR
GS
[0.5 0 0 0.5 0 0] CT
0.149 GC
2 setlinecap
1 LJ
N
213.2 47 M
213.2 50.255 L
S
GR
GS
[0.5 0 0 0.5 0 0] CT
0.149 GC
2 setlinecap
1 LJ
N
245.75 47 M
245.75 50.255 L
S
GR
GS
[0.5 0 0 0.5 0 0] CT
0.149 GC
2 setlinecap
1 LJ
N
278.3 47 M
278.3 50.255 L
S
GR
GS
[0.5 0 0 0.5 0 0] CT
0.149 GC
2 setlinecap
1 LJ
N
310.85 47 M
310.85 50.255 L
S
GR
GS
[0.5 0 0 0.5 0 0] CT
0.149 GC
2 setlinecap
1 LJ
N
343.4 47 M
343.4 50.255 L
S
GR
GS
[0.5 0 0 0.5 0 0] CT
0.149 GC
2 setlinecap
1 LJ
N
375.95 47 M
375.95 50.255 L
S
GR
GS
[0.5 0 0 0.5 0 0] CT
0.149 GC
2 setlinecap
1 LJ
N
408.5 47 M
408.5 50.255 L
S
GR
GS
[0.5 0 0 0.5 0 0] CT
0.149 GC
2 setlinecap
1 LJ
N
441.05 47 M
441.05 50.255 L
S
GR
GS
[0.5 0 0 0.5 0 0] CT
0.149 GC
2 setlinecap
1 LJ
N
473.6 47 M
473.6 50.255 L
S
GR
GS
[0.5 0 0 0.5 0 0] CT
0.149 GC
2 setlinecap
1 LJ
N
506.15 47 M
506.15 50.255 L
S
GR
GS
[0.5 0 0 0.5 0 0] CT
0.149 GC
2 setlinecap
1 LJ
N
538.7 47 M
538.7 50.255 L
S
GR
GS
[0.5 0 0 0.5 0 0] CT
0.149 GC
2 setlinecap
1 LJ
N
571.25 47 M
571.25 50.255 L
S
GR
GS
[0.5 0 0 0.5 0 0] CT
0.149 GC
2 setlinecap
1 LJ
N
603.8 47 M
603.8 50.255 L
S
GR
GS
[0.5 0 0 0.5 0 0] CT
0.149 GC
2 setlinecap
1 LJ
N
636.35 47 M
636.35 50.255 L
S
GR
GS
[0.5 0 0 0.5 0 0] CT
0.149 GC
2 setlinecap
1 LJ
N
668.9 47 M
668.9 50.255 L
S
GR
GS
[0.5 0 0 0.5 0 0] CT
0.149 GC
2 setlinecap
1 LJ
N
701.45 47 M
701.45 50.255 L
S
GR
GS
[0.5 0 0 0.5 0 0] CT
0.149 GC
2 setlinecap
1 LJ
N
734 47 M
734 50.255 L
S
GR
GS
[0.5 0 0 0.5 111 297.5] CT
0.149 GC
/Helvetica 20 F
GS
[1 0 0 1 0 0] CT
0 0 moveto 
1 -1 scale
(10) t 
GR
GR
GS
[0.5 0 0 0.5 122.5 292.5] CT
0.149 GC
/Helvetica 16 F
GS
[1 0 0 1 0 0] CT
0 0 moveto 
1 -1 scale
(-15) t 
GR
GR
GS
[0.5 0 0 0.5 192.5 297.5] CT
0.149 GC
/Helvetica 20 F
GS
[1 0 0 1 0 0] CT
0 0 moveto 
1 -1 scale
(10) t 
GR
GR
GS
[0.5 0 0 0.5 204 292.5] CT
0.149 GC
/Helvetica 16 F
GS
[1 0 0 1 0 0] CT
0 0 moveto 
1 -1 scale
(-10) t 
GR
GR
GS
[0.5 0 0 0.5 276 297.5] CT
0.149 GC
/Helvetica 20 F
GS
[1 0 0 1 0 0] CT
0 0 moveto 
1 -1 scale
(10) t 
GR
GR
GS
[0.5 0 0 0.5 287.5 292.5] CT
0.149 GC
/Helvetica 16 F
GS
[1 0 0 1 0 0] CT
0 0 moveto 
1 -1 scale
(-5) t 
GR
GR
GS
[0.5 0 0 0.5 359 297.5] CT
0.149 GC
/Helvetica 20 F
GS
[1 0 0 1 0 0] CT
0 0 moveto 
1 -1 scale
(10) t 
GR
GR
GS
[0.5 0 0 0.5 370.5 292.5] CT
0.149 GC
/Helvetica 16 F
GS
[1 0 0 1 0 0] CT
0 0 moveto 
1 -1 scale
(0) t 
GR
GR
GS
[0.5 0 0 0.5 217.25015 301] CT
0.149 GC
/Helvetica 22 F
GS
[1 0 0 1 0 0] CT
-74 23 moveto 
1 -1 scale
(Passo Discreto) t 
GR
GR
GS
[0.5 0 0 0.5 0 0] CT
0.149 GC
2 setlinecap
1 LJ
N
109 560 M
109 47 L
S
GR
GS
[0.5 0 0 0.5 0 0] CT
0.149 GC
2 setlinecap
1 LJ
N
760 560 M
760 47 L
S
GR
GS
[0.5 0 0 0.5 0 0] CT
0.149 GC
2 setlinecap
1 LJ
N
109 476.4 M
115.51 476.4 L
S
GR
GS
[0.5 0 0 0.5 0 0] CT
0.149 GC
2 setlinecap
1 LJ
N
109 373.8 M
115.51 373.8 L
S
GR
GS
[0.5 0 0 0.5 0 0] CT
0.149 GC
2 setlinecap
1 LJ
N
109 271.2 M
115.51 271.2 L
S
GR
GS
[0.5 0 0 0.5 0 0] CT
0.149 GC
2 setlinecap
1 LJ
N
109 168.6 M
115.51 168.6 L
S
GR
GS
[0.5 0 0 0.5 0 0] CT
0.149 GC
2 setlinecap
1 LJ
N
109 66 M
115.51 66 L
S
GR
GS
[0.5 0 0 0.5 0 0] CT
0.149 GC
2 setlinecap
1 LJ
N
760 476.4 M
753.49 476.4 L
S
GR
GS
[0.5 0 0 0.5 0 0] CT
0.149 GC
2 setlinecap
1 LJ
N
760 373.8 M
753.49 373.8 L
S
GR
GS
[0.5 0 0 0.5 0 0] CT
0.149 GC
2 setlinecap
1 LJ
N
760 271.2 M
753.49 271.2 L
S
GR
GS
[0.5 0 0 0.5 0 0] CT
0.149 GC
2 setlinecap
1 LJ
N
760 168.6 M
753.49 168.6 L
S
GR
GS
[0.5 0 0 0.5 0 0] CT
0.149 GC
2 setlinecap
1 LJ
N
760 66 M
753.49 66 L
S
GR
GS
[0.5 0 0 0.5 0 0] CT
0.149 GC
2 setlinecap
1 LJ
N
109 558.48 M
112.255 558.48 L
S
GR
GS
[0.5 0 0 0.5 0 0] CT
0.149 GC
2 setlinecap
1 LJ
N
109 537.96 M
112.255 537.96 L
S
GR
GS
[0.5 0 0 0.5 0 0] CT
0.149 GC
2 setlinecap
1 LJ
N
109 517.44 M
112.255 517.44 L
S
GR
GS
[0.5 0 0 0.5 0 0] CT
0.149 GC
2 setlinecap
1 LJ
N
109 496.92 M
112.255 496.92 L
S
GR
GS
[0.5 0 0 0.5 0 0] CT
0.149 GC
2 setlinecap
1 LJ
N
109 476.4 M
112.255 476.4 L
S
GR
GS
[0.5 0 0 0.5 0 0] CT
0.149 GC
2 setlinecap
1 LJ
N
109 455.88 M
112.255 455.88 L
S
GR
GS
[0.5 0 0 0.5 0 0] CT
0.149 GC
2 setlinecap
1 LJ
N
109 435.36 M
112.255 435.36 L
S
GR
GS
[0.5 0 0 0.5 0 0] CT
0.149 GC
2 setlinecap
1 LJ
N
109 414.84 M
112.255 414.84 L
S
GR
GS
[0.5 0 0 0.5 0 0] CT
0.149 GC
2 setlinecap
1 LJ
N
109 394.32 M
112.255 394.32 L
S
GR
GS
[0.5 0 0 0.5 0 0] CT
0.149 GC
2 setlinecap
1 LJ
N
109 373.8 M
112.255 373.8 L
S
GR
GS
[0.5 0 0 0.5 0 0] CT
0.149 GC
2 setlinecap
1 LJ
N
109 353.28 M
112.255 353.28 L
S
GR
GS
[0.5 0 0 0.5 0 0] CT
0.149 GC
2 setlinecap
1 LJ
N
109 332.76 M
112.255 332.76 L
S
GR
GS
[0.5 0 0 0.5 0 0] CT
0.149 GC
2 setlinecap
1 LJ
N
109 312.24 M
112.255 312.24 L
S
GR
GS
[0.5 0 0 0.5 0 0] CT
0.149 GC
2 setlinecap
1 LJ
N
109 291.72 M
112.255 291.72 L
S
GR
GS
[0.5 0 0 0.5 0 0] CT
0.149 GC
2 setlinecap
1 LJ
N
109 271.2 M
112.255 271.2 L
S
GR
GS
[0.5 0 0 0.5 0 0] CT
0.149 GC
2 setlinecap
1 LJ
N
109 250.68 M
112.255 250.68 L
S
GR
GS
[0.5 0 0 0.5 0 0] CT
0.149 GC
2 setlinecap
1 LJ
N
109 230.16 M
112.255 230.16 L
S
GR
GS
[0.5 0 0 0.5 0 0] CT
0.149 GC
2 setlinecap
1 LJ
N
109 209.64 M
112.255 209.64 L
S
GR
GS
[0.5 0 0 0.5 0 0] CT
0.149 GC
2 setlinecap
1 LJ
N
109 189.12 M
112.255 189.12 L
S
GR
GS
[0.5 0 0 0.5 0 0] CT
0.149 GC
2 setlinecap
1 LJ
N
109 168.6 M
112.255 168.6 L
S
GR
GS
[0.5 0 0 0.5 0 0] CT
0.149 GC
2 setlinecap
1 LJ
N
109 148.08 M
112.255 148.08 L
S
GR
GS
[0.5 0 0 0.5 0 0] CT
0.149 GC
2 setlinecap
1 LJ
N
109 127.56 M
112.255 127.56 L
S
GR
GS
[0.5 0 0 0.5 0 0] CT
0.149 GC
2 setlinecap
1 LJ
N
109 107.04 M
112.255 107.04 L
S
GR
GS
[0.5 0 0 0.5 0 0] CT
0.149 GC
2 setlinecap
1 LJ
N
109 86.52 M
112.255 86.52 L
S
GR
GS
[0.5 0 0 0.5 0 0] CT
0.149 GC
2 setlinecap
1 LJ
N
109 66 M
112.255 66 L
S
GR
GS
[0.5 0 0 0.5 0 0] CT
0.149 GC
2 setlinecap
1 LJ
N
760 558.48 M
756.745 558.48 L
S
GR
GS
[0.5 0 0 0.5 0 0] CT
0.149 GC
2 setlinecap
1 LJ
N
760 537.96 M
756.745 537.96 L
S
GR
GS
[0.5 0 0 0.5 0 0] CT
0.149 GC
2 setlinecap
1 LJ
N
760 517.44 M
756.745 517.44 L
S
GR
GS
[0.5 0 0 0.5 0 0] CT
0.149 GC
2 setlinecap
1 LJ
N
760 496.92 M
756.745 496.92 L
S
GR
GS
[0.5 0 0 0.5 0 0] CT
0.149 GC
2 setlinecap
1 LJ
N
760 476.4 M
756.745 476.4 L
S
GR
GS
[0.5 0 0 0.5 0 0] CT
0.149 GC
2 setlinecap
1 LJ
N
760 455.88 M
756.745 455.88 L
S
GR
GS
[0.5 0 0 0.5 0 0] CT
0.149 GC
2 setlinecap
1 LJ
N
760 435.36 M
756.745 435.36 L
S
GR
GS
[0.5 0 0 0.5 0 0] CT
0.149 GC
2 setlinecap
1 LJ
N
760 414.84 M
756.745 414.84 L
S
GR
GS
[0.5 0 0 0.5 0 0] CT
0.149 GC
2 setlinecap
1 LJ
N
760 394.32 M
756.745 394.32 L
S
GR
GS
[0.5 0 0 0.5 0 0] CT
0.149 GC
2 setlinecap
1 LJ
N
760 373.8 M
756.745 373.8 L
S
GR
GS
[0.5 0 0 0.5 0 0] CT
0.149 GC
2 setlinecap
1 LJ
N
760 353.28 M
756.745 353.28 L
S
GR
GS
[0.5 0 0 0.5 0 0] CT
0.149 GC
2 setlinecap
1 LJ
N
760 332.76 M
756.745 332.76 L
S
GR
GS
[0.5 0 0 0.5 0 0] CT
0.149 GC
2 setlinecap
1 LJ
N
760 312.24 M
756.745 312.24 L
S
GR
GS
[0.5 0 0 0.5 0 0] CT
0.149 GC
2 setlinecap
1 LJ
N
760 291.72 M
756.745 291.72 L
S
GR
GS
[0.5 0 0 0.5 0 0] CT
0.149 GC
2 setlinecap
1 LJ
N
760 271.2 M
756.745 271.2 L
S
GR
GS
[0.5 0 0 0.5 0 0] CT
0.149 GC
2 setlinecap
1 LJ
N
760 250.68 M
756.745 250.68 L
S
GR
GS
[0.5 0 0 0.5 0 0] CT
0.149 GC
2 setlinecap
1 LJ
N
760 230.16 M
756.745 230.16 L
S
GR
GS
[0.5 0 0 0.5 0 0] CT
0.149 GC
2 setlinecap
1 LJ
N
760 209.64 M
756.745 209.64 L
S
GR
GS
[0.5 0 0 0.5 0 0] CT
0.149 GC
2 setlinecap
1 LJ
N
760 189.12 M
756.745 189.12 L
S
GR
GS
[0.5 0 0 0.5 0 0] CT
0.149 GC
2 setlinecap
1 LJ
N
760 168.6 M
756.745 168.6 L
S
GR
GS
[0.5 0 0 0.5 0 0] CT
0.149 GC
2 setlinecap
1 LJ
N
760 148.08 M
756.745 148.08 L
S
GR
GS
[0.5 0 0 0.5 0 0] CT
0.149 GC
2 setlinecap
1 LJ
N
760 127.56 M
756.745 127.56 L
S
GR
GS
[0.5 0 0 0.5 0 0] CT
0.149 GC
2 setlinecap
1 LJ
N
760 107.04 M
756.745 107.04 L
S
GR
GS
[0.5 0 0 0.5 0 0] CT
0.149 GC
2 setlinecap
1 LJ
N
760 86.52 M
756.745 86.52 L
S
GR
GS
[0.5 0 0 0.5 0 0] CT
0.149 GC
2 setlinecap
1 LJ
N
760 66 M
756.745 66 L
S
GR
GS
[0.5 0 0 0.5 27 243.5] CT
0.149 GC
/Helvetica 20 F
GS
[1 0 0 1 0 0] CT
0 0 moveto 
1 -1 scale
(10) t 
GR
GR
GS
[0.5 0 0 0.5 38.5 238.5] CT
0.149 GC
/Helvetica 16 F
GS
[1 0 0 1 0 0] CT
0 0 moveto 
1 -1 scale
(-20) t 
GR
GR
GS
[0.5 0 0 0.5 27 192.5] CT
0.149 GC
/Helvetica 20 F
GS
[1 0 0 1 0 0] CT
0 0 moveto 
1 -1 scale
(10) t 
GR
GR
GS
[0.5 0 0 0.5 38.5 187.5] CT
0.149 GC
/Helvetica 16 F
GS
[1 0 0 1 0 0] CT
0 0 moveto 
1 -1 scale
(-15) t 
GR
GR
GS
[0.5 0 0 0.5 27 141] CT
0.149 GC
/Helvetica 20 F
GS
[1 0 0 1 0 0] CT
0 0 moveto 
1 -1 scale
(10) t 
GR
GR
GS
[0.5 0 0 0.5 38.5 136] CT
0.149 GC
/Helvetica 16 F
GS
[1 0 0 1 0 0] CT
0 0 moveto 
1 -1 scale
(-10) t 
GR
GR
GS
[0.5 0 0 0.5 31.5 90] CT
0.149 GC
/Helvetica 20 F
GS
[1 0 0 1 0 0] CT
0 0 moveto 
1 -1 scale
(10) t 
GR
GR
GS
[0.5 0 0 0.5 43 85] CT
0.149 GC
/Helvetica 16 F
GS
[1 0 0 1 0 0] CT
0 0 moveto 
1 -1 scale
(-5) t 
GR
GR
GS
[0.5 0 0 0.5 34.5 38.5] CT
0.149 GC
/Helvetica 20 F
GS
[1 0 0 1 0 0] CT
0 0 moveto 
1 -1 scale
(10) t 
GR
GR
GS
[0.5 0 0 0.5 46 33.5] CT
0.149 GC
/Helvetica 16 F
GS
[1 0 0 1 0 0] CT
0 0 moveto 
1 -1 scale
(0) t 
GR
GR
GS
[0 -0.5 0.5 0 24 151.74988] CT
0.149 GC
/Helvetica 22 F
GS
[1 0 0 1 0 0] CT
-31 -5 moveto 
1 -1 scale
(Errore) t 
GR
GR
GS
[0.5 0 0 0.5 81 19.5] CT
/Helvetica-Bold 22 F
GS
[1 0 0 1 0 0] CT
0 0 moveto 
1 -1 scale
(Passo Complesso vs Differenze Finite   f\(x\)=x) t 
GR
GR
GS
[0.5 0 0 0.5 318.5 14] CT
/Helvetica-Bold 17.6 F
GS
[1 0 0 1 0 0] CT
0 0 moveto 
1 -1 scale
(4) t 
GR
GR
GS
[0.5 0 0 0.5 324 19.5] CT
/Helvetica-Bold 22 F
GS
[1 0 0 1 0 0] CT
0 0 moveto 
1 -1 scale
(sin\(x\)) t 
GR
GR
GS
[0.5 0 0 0.5 0 0] CT
0 0.447 0.741 RC
1 LJ
2.4 LW
N
701.45 387.211 M
688.931 387.211 L
676.412 387.211 L
663.892 387.211 L
651.373 387.211 L
638.854 387.211 L
626.335 387.211 L
613.815 387.211 L
601.296 387.211 L
588.777 387.211 L
576.258 387.211 L
563.738 387.211 L
551.219 387.211 L
538.7 387.211 L
526.181 387.211 L
513.662 387.211 L
501.142 387.211 L
488.623 387.211 L
476.104 387.211 L
463.585 387.211 L
451.065 387.211 L
438.546 387.211 L
426.027 387.211 L
413.508 387.211 L
400.988 387.211 L
388.469 387.211 L
375.95 387.211 L
363.431 387.211 L
350.912 387.211 L
338.392 387.211 L
325.873 387.211 L
313.354 387.211 L
300.835 387.211 L
288.315 387.211 L
275.796 387.211 L
263.277 387.211 L
250.758 387.211 L
238.238 387.211 L
225.719 387.211 L
224.477 387.211 L
S
GR
GS
[0.5 0 0 0.5 0 0] CT
0.851 0.325 0.098 RC
1 LJ
2.4 LW
N
701.45 83.677 M
688.931 92.535 L
676.412 100.83 L
663.892 108.889 L
651.373 116.85 L
638.854 124.771 L
626.335 132.675 L
613.815 140.572 L
601.296 148.466 L
588.777 156.359 L
576.258 164.252 L
563.738 172.145 L
551.219 180.037 L
538.7 187.929 L
526.181 195.822 L
513.662 203.716 L
501.142 211.624 L
488.623 219.43 L
476.104 227.134 L
463.585 234.358 L
451.065 234.827 L
438.546 226.249 L
426.027 252.944 L
413.508 212.267 L
400.988 204.802 L
388.469 210.742 L
375.95 211.399 L
363.431 179.556 L
350.912 170.992 L
338.392 165.719 L
325.873 165.281 L
313.354 151.45 L
300.835 137.71 L
288.315 146.26 L
275.796 122.622 L
263.277 124.887 L
250.758 113.425 L
238.238 102.234 L
225.719 95.386 L
224.477 104.491 L
S
GR
GS
[0.5 0 0 0.5 0 0] CT
0.929 0.694 0.125 RC
1 LJ
2.4 LW
N
701.45 100.242 M
688.931 116.02 L
676.412 131.803 L
663.892 147.588 L
651.373 163.372 L
638.854 179.157 L
626.335 194.942 L
613.815 210.726 L
601.296 226.511 L
588.777 242.296 L
576.258 258.08 L
563.738 273.865 L
551.219 289.649 L
538.7 305.434 L
526.181 321.218 L
513.662 337.003 L
501.142 352.805 L
488.623 368.68 L
476.104 383.598 L
463.585 387.211 L
451.065 387.211 L
438.546 387.211 L
426.027 387.211 L
413.508 387.211 L
400.988 387.211 L
388.469 387.211 L
375.95 387.211 L
363.431 387.211 L
350.912 387.211 L
338.392 387.211 L
325.873 387.211 L
313.354 387.211 L
300.835 387.211 L
288.315 387.211 L
275.796 387.211 L
263.277 387.211 L
250.758 387.211 L
238.238 387.211 L
225.719 387.211 L
224.477 387.211 L
S
GR
GS
[0.5 0 0 0.5 0 0] CT
0.494 0.184 0.557 RC
1 LJ
2.4 LW
N
701.45 66 M
688.931 73.892 L
676.412 81.785 L
663.892 89.677 L
651.373 97.569 L
638.854 105.462 L
626.335 113.354 L
613.815 121.246 L
601.296 129.138 L
588.777 137.031 L
576.258 144.923 L
563.738 152.815 L
551.219 160.708 L
538.7 168.6 L
526.181 176.492 L
513.662 184.385 L
501.142 192.277 L
488.623 200.169 L
476.104 208.062 L
463.585 215.954 L
451.065 223.846 L
438.546 231.738 L
426.027 239.631 L
413.508 247.523 L
400.988 255.415 L
388.469 263.308 L
375.95 271.2 L
363.431 279.092 L
350.912 286.985 L
338.392 294.877 L
325.873 302.769 L
313.354 310.662 L
300.835 318.554 L
288.315 326.446 L
275.796 334.338 L
263.277 342.231 L
250.758 350.123 L
238.238 358.015 L
225.719 365.908 L
224.477 366.691 L
S
GR
GS
[0.5 0 0 0.5 0 0] CT
0.467 0.675 0.188 RC
1 LJ
2.4 LW
N
701.45 86.52 M
688.931 102.305 L
676.412 118.089 L
663.892 133.874 L
651.373 149.658 L
638.854 165.443 L
626.335 181.228 L
613.815 197.012 L
601.296 212.797 L
588.777 228.582 L
576.258 244.366 L
563.738 260.151 L
551.219 275.935 L
538.7 291.72 L
526.181 307.505 L
513.662 323.289 L
501.142 339.074 L
488.623 354.858 L
476.104 370.643 L
463.585 386.428 L
451.065 402.212 L
438.546 417.997 L
426.027 433.782 L
413.508 449.566 L
400.988 465.351 L
388.469 481.135 L
375.95 496.92 L
363.431 512.705 L
350.912 528.489 L
S
GR
GS
[0.5 0 0 0.5 0 0] CT
1 GC
N
518 540 M
518 416 L
740 416 L
740 540 L
cp
f
GR
GS
[0.5 0 0 0.5 294.17078 215.25] CT
/Helvetica 18 F
GS
[1 0 0 1 0 0] CT
0 7.5 moveto 
1 -1 scale
(Eps Macchina) t 
GR
GR
GS
[0.5 0 0 0.5 0 0] CT
0 0.447 0.741 RC
1 LJ
2.4 LW
N
523.987 430.5 M
583.852 430.5 L
S
GR
GS
[0.5 0 0 0.5 294.17078 227.125] CT
/Helvetica 18 F
GS
[1 0 0 1 0 0] CT
0 7.5 moveto 
1 -1 scale
(Diff Finite) t 
GR
GR
GS
[0.5 0 0 0.5 0 0] CT
0.851 0.325 0.098 RC
1 LJ
2.4 LW
N
523.987 454.25 M
583.852 454.25 L
S
GR
GS
[0.5 0 0 0.5 294.17078 239] CT
/Helvetica 18 F
GS
[1 0 0 1 0 0] CT
0 7.5 moveto 
1 -1 scale
(Passo Complesso) t 
GR
GR
GS
[0.5 0 0 0.5 0 0] CT
0.929 0.694 0.125 RC
1 LJ
2.4 LW
N
523.987 478 M
583.852 478 L
S
GR
GS
[0.5 0 0 0.5 294.17078 250.875] CT
/Helvetica 18 F
GS
[1 0 0 1 0 0] CT
0 7.5 moveto 
1 -1 scale
(Grado 1) t 
GR
GR
GS
[0.5 0 0 0.5 0 0] CT
0.494 0.184 0.557 RC
1 LJ
2.4 LW
N
523.987 501.75 M
583.852 501.75 L
S
GR
GS
[0.5 0 0 0.5 294.17078 262.75] CT
/Helvetica 18 F
GS
[1 0 0 1 0 0] CT
0 7.5 moveto 
1 -1 scale
(Grado 2) t 
GR
GR
GS
[0.5 0 0 0.5 0 0] CT
0.467 0.675 0.188 RC
1 LJ
2.4 LW
N
523.987 525.5 M
583.852 525.5 L
S
GR
GS
[0.5 0 0 0.5 0 0] CT
0.149 GC
10.0 ML
N
518 540 M
518 416 L
740 416 L
740 540 L
cp
S
GR
%%Trailer
%%Pages: 1
%%EOF
