%!PS-Adobe-3.0 EPSF-3.0
%%Creator: (MATLAB, The Mathworks, Inc. Version 9.2.0.556344 \(R2017a\). Operating System: Windows 8)
%%Title: D:/WorkInProgress/Latex/Tesi/Pictures/LevyFinita3.eps
%%CreationDate: 2017-06-10T15:02:37
%%Pages: (atend)
%%BoundingBox: 0 0 374 236
%%LanguageLevel: 3
%%EndComments
%%BeginProlog
%%BeginResource: procset (Apache XML Graphics Std ProcSet) 1.2 0
%%Version: 1.2 0
%%Copyright: (Copyright 2001-2003,2010 The Apache Software Foundation. License terms: http://www.apache.org/licenses/LICENSE-2.0)
/bd{bind def}bind def
/ld{load def}bd
/GR/grestore ld
/M/moveto ld
/LJ/setlinejoin ld
/C/curveto ld
/f/fill ld
/LW/setlinewidth ld
/GC/setgray ld
/t/show ld
/N/newpath ld
/CT/concat ld
/cp/closepath ld
/S/stroke ld
/L/lineto ld
/CC/setcmykcolor ld
/A/ashow ld
/GS/gsave ld
/RC/setrgbcolor ld
/RM/rmoveto ld
/ML/setmiterlimit ld
/re {4 2 roll M
1 index 0 rlineto
0 exch rlineto
neg 0 rlineto
cp } bd
/_ctm matrix def
/_tm matrix def
/BT { _ctm currentmatrix pop matrix _tm copy pop 0 0 moveto } bd
/ET { _ctm setmatrix } bd
/iTm { _ctm setmatrix _tm concat } bd
/Tm { _tm astore pop iTm 0 0 moveto } bd
/ux 0.0 def
/uy 0.0 def
/F {
  /Tp exch def
  /Tf exch def
  Tf findfont Tp scalefont setfont
  /cf Tf def  /cs Tp def
} bd
/ULS {currentpoint /uy exch def /ux exch def} bd
/ULE {
  /Tcx currentpoint pop def
  gsave
  newpath
  cf findfont cs scalefont dup
  /FontMatrix get 0 get /Ts exch def /FontInfo get dup
  /UnderlinePosition get Ts mul /To exch def
  /UnderlineThickness get Ts mul /Tt exch def
  ux uy To add moveto  Tcx uy To add lineto
  Tt setlinewidth stroke
  grestore
} bd
/OLE {
  /Tcx currentpoint pop def
  gsave
  newpath
  cf findfont cs scalefont dup
  /FontMatrix get 0 get /Ts exch def /FontInfo get dup
  /UnderlinePosition get Ts mul /To exch def
  /UnderlineThickness get Ts mul /Tt exch def
  ux uy To add cs add moveto Tcx uy To add cs add lineto
  Tt setlinewidth stroke
  grestore
} bd
/SOE {
  /Tcx currentpoint pop def
  gsave
  newpath
  cf findfont cs scalefont dup
  /FontMatrix get 0 get /Ts exch def /FontInfo get dup
  /UnderlinePosition get Ts mul /To exch def
  /UnderlineThickness get Ts mul /Tt exch def
  ux uy To add cs 10 mul 26 idiv add moveto Tcx uy To add cs 10 mul 26 idiv add lineto
  Tt setlinewidth stroke
  grestore
} bd
/QT {
/Y22 exch store
/X22 exch store
/Y21 exch store
/X21 exch store
currentpoint
/Y21 load 2 mul add 3 div exch
/X21 load 2 mul add 3 div exch
/X21 load 2 mul /X22 load add 3 div
/Y21 load 2 mul /Y22 load add 3 div
/X22 load /Y22 load curveto
} bd
/SSPD {
dup length /d exch dict def
{
/v exch def
/k exch def
currentpagedevice k known {
/cpdv currentpagedevice k get def
v cpdv ne {
/upd false def
/nullv v type /nulltype eq def
/nullcpdv cpdv type /nulltype eq def
nullv nullcpdv or
{
/upd true def
} {
/sametype v type cpdv type eq def
sametype {
v type /arraytype eq {
/vlen v length def
/cpdvlen cpdv length def
vlen cpdvlen eq {
0 1 vlen 1 sub {
/i exch def
/obj v i get def
/cpdobj cpdv i get def
obj cpdobj ne {
/upd true def
exit
} if
} for
} {
/upd true def
} ifelse
} {
v type /dicttype eq {
v {
/dv exch def
/dk exch def
/cpddv cpdv dk get def
dv cpddv ne {
/upd true def
exit
} if
} forall
} {
/upd true def
} ifelse
} ifelse
} if
} ifelse
upd true eq {
d k v put
} if
} if
} if
} forall
d length 0 gt {
d setpagedevice
} if
} bd
/RE { % /NewFontName [NewEncodingArray] /FontName RE -
  findfont dup length dict begin
  {
    1 index /FID ne
    {def} {pop pop} ifelse
  } forall
  /Encoding exch def
  /FontName 1 index def
  currentdict definefont pop
  end
} bind def
%%EndResource
%%BeginResource: procset (Apache XML Graphics EPS ProcSet) 1.0 0
%%Version: 1.0 0
%%Copyright: (Copyright 2002-2003 The Apache Software Foundation. License terms: http://www.apache.org/licenses/LICENSE-2.0)
/BeginEPSF { %def
/b4_Inc_state save def         % Save state for cleanup
/dict_count countdictstack def % Count objects on dict stack
/op_count count 1 sub def      % Count objects on operand stack
userdict begin                 % Push userdict on dict stack
/showpage { } def              % Redefine showpage, { } = null proc
0 setgray 0 setlinecap         % Prepare graphics state
1 setlinewidth 0 setlinejoin
10 setmiterlimit [ ] 0 setdash newpath
/languagelevel where           % If level not equal to 1 then
{pop languagelevel             % set strokeadjust and
1 ne                           % overprint to their defaults.
{false setstrokeadjust false setoverprint
} if
} if
} bd
/EndEPSF { %def
count op_count sub {pop} repeat            % Clean up stacks
countdictstack dict_count sub {end} repeat
b4_Inc_state restore
} bd
%%EndResource
%FOPBeginFontDict
%%IncludeResource: font Courier-Bold
%%IncludeResource: font Helvetica
%%IncludeResource: font Courier-BoldOblique
%%IncludeResource: font Courier-Oblique
%%IncludeResource: font Times-Roman
%%IncludeResource: font Helvetica-BoldOblique
%%IncludeResource: font Helvetica-Bold
%%IncludeResource: font Helvetica-Oblique
%%IncludeResource: font Times-BoldItalic
%%IncludeResource: font Courier
%%IncludeResource: font Times-Italic
%%IncludeResource: font Times-Bold
%%IncludeResource: font Symbol
%%IncludeResource: font ZapfDingbats
%FOPEndFontDict
%%BeginResource: encoding WinAnsiEncoding
/WinAnsiEncoding [
/.notdef /.notdef /.notdef /.notdef /.notdef
/.notdef /.notdef /.notdef /.notdef /.notdef
/.notdef /.notdef /.notdef /.notdef /.notdef
/.notdef /.notdef /.notdef /.notdef /.notdef
/.notdef /.notdef /.notdef /.notdef /.notdef
/.notdef /.notdef /.notdef /.notdef /.notdef
/.notdef /.notdef /space /exclam /quotedbl
/numbersign /dollar /percent /ampersand /quotesingle
/parenleft /parenright /asterisk /plus /comma
/hyphen /period /slash /zero /one
/two /three /four /five /six
/seven /eight /nine /colon /semicolon
/less /equal /greater /question /at
/A /B /C /D /E
/F /G /H /I /J
/K /L /M /N /O
/P /Q /R /S /T
/U /V /W /X /Y
/Z /bracketleft /backslash /bracketright /asciicircum
/underscore /quoteleft /a /b /c
/d /e /f /g /h
/i /j /k /l /m
/n /o /p /q /r
/s /t /u /v /w
/x /y /z /braceleft /bar
/braceright /asciitilde /bullet /Euro /bullet
/quotesinglbase /florin /quotedblbase /ellipsis /dagger
/daggerdbl /circumflex /perthousand /Scaron /guilsinglleft
/OE /bullet /Zcaron /bullet /bullet
/quoteleft /quoteright /quotedblleft /quotedblright /bullet
/endash /emdash /asciitilde /trademark /scaron
/guilsinglright /oe /bullet /zcaron /Ydieresis
/space /exclamdown /cent /sterling /currency
/yen /brokenbar /section /dieresis /copyright
/ordfeminine /guillemotleft /logicalnot /sfthyphen /registered
/macron /degree /plusminus /twosuperior /threesuperior
/acute /mu /paragraph /middot /cedilla
/onesuperior /ordmasculine /guillemotright /onequarter /onehalf
/threequarters /questiondown /Agrave /Aacute /Acircumflex
/Atilde /Adieresis /Aring /AE /Ccedilla
/Egrave /Eacute /Ecircumflex /Edieresis /Igrave
/Iacute /Icircumflex /Idieresis /Eth /Ntilde
/Ograve /Oacute /Ocircumflex /Otilde /Odieresis
/multiply /Oslash /Ugrave /Uacute /Ucircumflex
/Udieresis /Yacute /Thorn /germandbls /agrave
/aacute /acircumflex /atilde /adieresis /aring
/ae /ccedilla /egrave /eacute /ecircumflex
/edieresis /igrave /iacute /icircumflex /idieresis
/eth /ntilde /ograve /oacute /ocircumflex
/otilde /odieresis /divide /oslash /ugrave
/uacute /ucircumflex /udieresis /yacute /thorn
/ydieresis
] def
%%EndResource
%FOPBeginFontReencode
/Courier-Bold findfont
dup length dict begin
  {1 index /FID ne {def} {pop pop} ifelse} forall
  /Encoding WinAnsiEncoding def
  currentdict
end
/Courier-Bold exch definefont pop
/Helvetica findfont
dup length dict begin
  {1 index /FID ne {def} {pop pop} ifelse} forall
  /Encoding WinAnsiEncoding def
  currentdict
end
/Helvetica exch definefont pop
/Courier-BoldOblique findfont
dup length dict begin
  {1 index /FID ne {def} {pop pop} ifelse} forall
  /Encoding WinAnsiEncoding def
  currentdict
end
/Courier-BoldOblique exch definefont pop
/Courier-Oblique findfont
dup length dict begin
  {1 index /FID ne {def} {pop pop} ifelse} forall
  /Encoding WinAnsiEncoding def
  currentdict
end
/Courier-Oblique exch definefont pop
/Times-Roman findfont
dup length dict begin
  {1 index /FID ne {def} {pop pop} ifelse} forall
  /Encoding WinAnsiEncoding def
  currentdict
end
/Times-Roman exch definefont pop
/Helvetica-BoldOblique findfont
dup length dict begin
  {1 index /FID ne {def} {pop pop} ifelse} forall
  /Encoding WinAnsiEncoding def
  currentdict
end
/Helvetica-BoldOblique exch definefont pop
/Helvetica-Bold findfont
dup length dict begin
  {1 index /FID ne {def} {pop pop} ifelse} forall
  /Encoding WinAnsiEncoding def
  currentdict
end
/Helvetica-Bold exch definefont pop
/Helvetica-Oblique findfont
dup length dict begin
  {1 index /FID ne {def} {pop pop} ifelse} forall
  /Encoding WinAnsiEncoding def
  currentdict
end
/Helvetica-Oblique exch definefont pop
/Times-BoldItalic findfont
dup length dict begin
  {1 index /FID ne {def} {pop pop} ifelse} forall
  /Encoding WinAnsiEncoding def
  currentdict
end
/Times-BoldItalic exch definefont pop
/Courier findfont
dup length dict begin
  {1 index /FID ne {def} {pop pop} ifelse} forall
  /Encoding WinAnsiEncoding def
  currentdict
end
/Courier exch definefont pop
/Times-Italic findfont
dup length dict begin
  {1 index /FID ne {def} {pop pop} ifelse} forall
  /Encoding WinAnsiEncoding def
  currentdict
end
/Times-Italic exch definefont pop
/Times-Bold findfont
dup length dict begin
  {1 index /FID ne {def} {pop pop} ifelse} forall
  /Encoding WinAnsiEncoding def
  currentdict
end
/Times-Bold exch definefont pop
%FOPEndFontReencode
%%EndProlog
%%Page: 1 1
%%PageBoundingBox: 0 0 374 236
%%BeginPageSetup
[1 0 0 -1 0 236] CT
%%EndPageSetup
GS
[0.5 0 0 0.5 0 0.5] CT
1 GC
N
0 0 748 471 re
f
GR
GS
[0.5 0 0 0.5 0 0.5] CT
1 GC
N
0 0 748 471 re
f
GR
GS
[0.5 0 0 0.5 0 0.5] CT
1 GC
N
97 407 M
677 407 L
677 35 L
97 35 L
cp
f
GR
GS
[0.5 0 0 0.5 0 0.5] CT
0.873 GC
1 LJ
N
97 407 M
97 35 L
S
GR
GS
[0.5 0 0 0.5 0 0.5] CT
0.873 GC
1 LJ
N
242 407 M
242 35 L
S
GR
GS
[0.5 0 0 0.5 0 0.5] CT
0.873 GC
1 LJ
N
387 407 M
387 35 L
S
GR
GS
[0.5 0 0 0.5 0 0.5] CT
0.873 GC
1 LJ
N
532 407 M
532 35 L
S
GR
GS
[0.5 0 0 0.5 0 0.5] CT
0.873 GC
1 LJ
N
677 407 M
677 35 L
S
GR
GS
[0.5 0 0 0.5 0 0.5] CT
0.873 GC
1 LJ
N
677 407 M
97 407 L
S
GR
GS
[0.5 0 0 0.5 0 0.5] CT
0.873 GC
1 LJ
N
677 332.6 M
97 332.6 L
S
GR
GS
[0.5 0 0 0.5 0 0.5] CT
0.873 GC
1 LJ
N
677 258.2 M
97 258.2 L
S
GR
GS
[0.5 0 0 0.5 0 0.5] CT
0.873 GC
1 LJ
N
677 183.8 M
97 183.8 L
S
GR
GS
[0.5 0 0 0.5 0 0.5] CT
0.873 GC
1 LJ
N
677 109.4 M
97 109.4 L
S
GR
GS
[0.5 0 0 0.5 0 0.5] CT
0.873 GC
1 LJ
N
677 35 M
97 35 L
S
GR
GS
[0.5 0 0 0.5 0 0.5] CT
0.149 GC
2 setlinecap
1 LJ
N
97 407 M
677 407 L
S
GR
GS
[0.5 0 0 0.5 0 0.5] CT
0.149 GC
2 setlinecap
1 LJ
N
97 35 M
677 35 L
S
GR
GS
[0.5 0 0 0.5 0 0.5] CT
0.149 GC
2 setlinecap
1 LJ
N
97 407 M
97 401.2 L
S
GR
GS
[0.5 0 0 0.5 0 0.5] CT
0.149 GC
2 setlinecap
1 LJ
N
242 407 M
242 401.2 L
S
GR
GS
[0.5 0 0 0.5 0 0.5] CT
0.149 GC
2 setlinecap
1 LJ
N
387 407 M
387 401.2 L
S
GR
GS
[0.5 0 0 0.5 0 0.5] CT
0.149 GC
2 setlinecap
1 LJ
N
532 407 M
532 401.2 L
S
GR
GS
[0.5 0 0 0.5 0 0.5] CT
0.149 GC
2 setlinecap
1 LJ
N
677 407 M
677 401.2 L
S
GR
GS
[0.5 0 0 0.5 0 0.5] CT
0.149 GC
2 setlinecap
1 LJ
N
97 35 M
97 40.8 L
S
GR
GS
[0.5 0 0 0.5 0 0.5] CT
0.149 GC
2 setlinecap
1 LJ
N
242 35 M
242 40.8 L
S
GR
GS
[0.5 0 0 0.5 0 0.5] CT
0.149 GC
2 setlinecap
1 LJ
N
387 35 M
387 40.8 L
S
GR
GS
[0.5 0 0 0.5 0 0.5] CT
0.149 GC
2 setlinecap
1 LJ
N
532 35 M
532 40.8 L
S
GR
GS
[0.5 0 0 0.5 0 0.5] CT
0.149 GC
2 setlinecap
1 LJ
N
677 35 M
677 40.8 L
S
GR
GS
[0.5 0 0 0.5 48.5 208] CT
0.149 GC
/Helvetica 20 F
GS
[1 0 0 1 0 0] CT
-6 21 moveto 
1 -1 scale
(0) t 
GR
GR
GS
[0.5 0 0 0.5 121 208] CT
0.149 GC
/Helvetica 20 F
GS
[1 0 0 1 0 0] CT
-14 21 moveto 
1 -1 scale
(0.5) t 
GR
GR
GS
[0.5 0 0 0.5 193.5 208] CT
0.149 GC
/Helvetica 20 F
GS
[1 0 0 1 0 0] CT
-6 21 moveto 
1 -1 scale
(1) t 
GR
GR
GS
[0.5 0 0 0.5 266 208] CT
0.149 GC
/Helvetica 20 F
GS
[1 0 0 1 0 0] CT
-14 21 moveto 
1 -1 scale
(1.5) t 
GR
GR
GS
[0.5 0 0 0.5 338.5 208] CT
0.149 GC
/Helvetica 20 F
GS
[1 0 0 1 0 0] CT
-6 21 moveto 
1 -1 scale
(2) t 
GR
GR
GS
[0.5 0 0 0.5 193.50014 222] CT
0.149 GC
/Helvetica 22 F
GS
[1 0 0 1 0 0] CT
-83 23 moveto 
1 -1 scale
(Time To Maturity) t 
GR
GR
GS
[0.5 0 0 0.5 0 0.5] CT
0.149 GC
2 setlinecap
1 LJ
N
97 407 M
97 35 L
S
GR
GS
[0.5 0 0 0.5 0 0.5] CT
0.149 GC
2 setlinecap
1 LJ
N
677 407 M
677 35 L
S
GR
GS
[0.5 0 0 0.5 0 0.5] CT
0.149 GC
2 setlinecap
1 LJ
N
97 407 M
102.8 407 L
S
GR
GS
[0.5 0 0 0.5 0 0.5] CT
0.149 GC
2 setlinecap
1 LJ
N
97 332.6 M
102.8 332.6 L
S
GR
GS
[0.5 0 0 0.5 0 0.5] CT
0.149 GC
2 setlinecap
1 LJ
N
97 258.2 M
102.8 258.2 L
S
GR
GS
[0.5 0 0 0.5 0 0.5] CT
0.149 GC
2 setlinecap
1 LJ
N
97 183.8 M
102.8 183.8 L
S
GR
GS
[0.5 0 0 0.5 0 0.5] CT
0.149 GC
2 setlinecap
1 LJ
N
97 109.4 M
102.8 109.4 L
S
GR
GS
[0.5 0 0 0.5 0 0.5] CT
0.149 GC
2 setlinecap
1 LJ
N
97 35 M
102.8 35 L
S
GR
GS
[0.5 0 0 0.5 0 0.5] CT
0.149 GC
2 setlinecap
1 LJ
N
677 407 M
671.2 407 L
S
GR
GS
[0.5 0 0 0.5 0 0.5] CT
0.149 GC
2 setlinecap
1 LJ
N
677 332.6 M
671.2 332.6 L
S
GR
GS
[0.5 0 0 0.5 0 0.5] CT
0.149 GC
2 setlinecap
1 LJ
N
677 258.2 M
671.2 258.2 L
S
GR
GS
[0.5 0 0 0.5 0 0.5] CT
0.149 GC
2 setlinecap
1 LJ
N
677 183.8 M
671.2 183.8 L
S
GR
GS
[0.5 0 0 0.5 0 0.5] CT
0.149 GC
2 setlinecap
1 LJ
N
677 109.4 M
671.2 109.4 L
S
GR
GS
[0.5 0 0 0.5 0 0.5] CT
0.149 GC
2 setlinecap
1 LJ
N
677 35 M
671.2 35 L
S
GR
GS
[0.5 0 0 0.5 44.5 204] CT
0.149 GC
/Helvetica 20 F
GS
[1 0 0 1 0 0] CT
-12 8 moveto 
1 -1 scale
(0) t 
GR
GR
GS
[0.5 0 0 0.5 44.5 166.8] CT
0.149 GC
/Helvetica 20 F
GS
[1 0 0 1 0 0] CT
-23 8 moveto 
1 -1 scale
(50) t 
GR
GR
GS
[0.5 0 0 0.5 44.5 129.60001] CT
0.149 GC
/Helvetica 20 F
GS
[1 0 0 1 0 0] CT
-34 8 moveto 
1 -1 scale
(100) t 
GR
GR
GS
[0.5 0 0 0.5 44.5 92.4] CT
0.149 GC
/Helvetica 20 F
GS
[1 0 0 1 0 0] CT
-34 8 moveto 
1 -1 scale
(150) t 
GR
GR
GS
[0.5 0 0 0.5 44.5 55.2] CT
0.149 GC
/Helvetica 20 F
GS
[1 0 0 1 0 0] CT
-34 8 moveto 
1 -1 scale
(200) t 
GR
GR
GS
[0.5 0 0 0.5 44.5 18] CT
0.149 GC
/Helvetica 20 F
GS
[1 0 0 1 0 0] CT
-34 8 moveto 
1 -1 scale
(250) t 
GR
GR
GS
[0 -0.5 0.5 0 24.5 110.99991] CT
0.149 GC
/Helvetica 22 F
GS
[1 0 0 1 0 0] CT
-56 -5 moveto 
1 -1 scale
(Stock Price) t 
GR
GR
GS
[0.5 0 0 0.5 193.50018 16.625] CT
/Helvetica-Bold 22 F
GS
[1 0 0 1 0 0] CT
-111 -5 moveto 
1 -1 scale
(Levy ad Attivit\340 finita) t 
GR
GR
GS
[0.5 0 0 0.5 0 0.5] CT
0 0.447 0.741 RC
1 LJ
N
97 258.2 M
98.933 256.147 L
100.867 259.131 L
102.8 259.046 L
104.733 255.407 L
106.667 255.45 L
108.6 249.713 L
110.533 249.141 L
112.467 248.223 L
114.4 248.837 L
116.333 252.897 L
118.267 252.368 L
120.2 250.024 L
122.133 252.613 L
124.067 250.427 L
126 246.801 L
127.933 249.361 L
129.867 255.744 L
131.8 253.35 L
133.733 255.266 L
135.667 256.615 L
137.6 257.566 L
139.533 262.388 L
141.467 261.413 L
143.4 262.335 L
145.333 264.956 L
147.267 266.216 L
149.2 268.967 L
151.133 267.676 L
153.067 269.371 L
155 269.112 L
156.933 267.905 L
158.867 268.203 L
160.8 206.992 L
162.733 208.335 L
164.667 206.817 L
166.6 187.915 L
168.533 186.435 L
170.467 191.101 L
172.4 187.863 L
174.333 181.566 L
176.267 190.261 L
178.2 187.763 L
180.133 190.512 L
182.067 190.177 L
184 191.656 L
185.933 189.678 L
187.867 195.931 L
189.8 199.994 L
191.733 197.877 L
193.667 198.176 L
195.6 196.405 L
197.533 200.623 L
199.467 196.243 L
201.4 192.26 L
203.333 187.068 L
205.267 185.812 L
207.2 183.447 L
209.133 179.67 L
211.067 182.435 L
213 184.577 L
214.933 178.689 L
216.867 177.065 L
218.8 177.087 L
220.733 173.155 L
222.667 175.284 L
224.6 174.568 L
226.533 174.502 L
228.467 171.342 L
230.4 170.985 L
232.333 179.943 L
234.267 175.864 L
236.2 168.414 L
238.133 168.945 L
240.067 166.295 L
242 163.534 L
243.933 169.971 L
245.867 168.837 L
247.8 169.003 L
249.733 174.103 L
251.667 174.946 L
253.6 176.456 L
255.533 179.664 L
257.467 175.538 L
259.4 180.384 L
261.333 175.283 L
263.267 172.524 L
265.2 168.787 L
267.133 172.399 L
269.067 173.096 L
271 170.827 L
272.933 176.866 L
274.867 175.952 L
276.8 182.136 L
278.733 171.351 L
280.667 107.804 L
282.6 111.131 L
284.533 118.2 L
286.467 124.87 L
288.4 124.491 L
290.333 119.375 L
292.267 111.112 L
294.2 105.042 L
296.133 109.741 L
298.067 119.472 L
300 124.932 L
301.933 121.733 L
303.867 124.119 L
305.8 123.052 L
307.733 119.672 L
309.667 119.153 L
311.6 121.446 L
313.533 120.686 L
315.467 127.867 L
317.4 130.682 L
319.333 126.87 L
321.267 119.913 L
323.2 118.229 L
325.133 117.017 L
327.067 116.682 L
329 119.455 L
330.933 119.883 L
332.867 116.624 L
334.8 120.232 L
336.733 124.02 L
338.667 119.876 L
340.6 119.541 L
342.533 116.576 L
344.467 115.232 L
346.4 115.868 L
348.333 119.498 L
350.267 118.289 L
352.2 111.171 L
354.133 109.262 L
356.067 93.358 L
358 92.782 L
359.933 91.245 L
361.867 86.657 L
363.8 90.419 L
365.733 91.682 L
367.667 99.181 L
369.6 93.141 L
371.533 97.828 L
373.467 102.576 L
375.4 108.529 L
377.333 107.716 L
379.267 104.785 L
381.2 109.111 L
383.133 103.027 L
385.067 110.638 L
387 108.302 L
388.933 116.01 L
390.867 117.134 L
392.8 113.309 L
394.733 109.515 L
396.667 104.068 L
398.6 106.511 L
400.533 111.746 L
402.467 111.63 L
404.4 104.222 L
406.333 103.122 L
408.267 103.291 L
410.2 104.515 L
412.133 97.669 L
414.067 101.734 L
416 92.878 L
417.933 88.494 L
419.867 91.411 L
421.8 95.257 L
423.733 97.094 L
425.667 99.521 L
427.6 101.79 L
429.533 103.123 L
431.467 95.768 L
433.4 105.98 L
435.333 104.312 L
437.267 101.89 L
439.2 99.382 L
441.133 103.022 L
443.067 99.416 L
445 102.333 L
446.933 97.573 L
448.867 97.973 L
450.8 92.955 L
452.733 95.592 L
454.667 96.39 L
456.6 103.671 L
458.533 102.901 L
460.467 103.859 L
462.4 105.275 L
464.333 100.727 L
466.267 102.802 L
468.2 104.927 L
470.133 105.144 L
472.067 109.269 L
474 112.971 L
475.933 105.834 L
477.867 106.532 L
479.8 108.371 L
481.733 122.386 L
483.667 124.402 L
485.6 122.808 L
487.533 116.586 L
489.467 119.616 L
491.4 114.319 L
493.333 114.628 L
495.267 116.549 L
497.2 114.204 L
499.133 114.834 L
501.067 120.907 L
503 108.996 L
504.933 108.385 L
506.867 110.453 L
508.8 111.002 L
510.733 105.942 L
512.667 103.013 L
514.6 100.295 L
516.533 96.137 L
518.467 97.123 L
520.4 95.952 L
522.333 99.583 L
524.267 112.74 L
526.2 115.77 L
528.133 112.435 L
530.067 109.428 L
532 113.341 L
533.933 117.955 L
535.867 118.962 L
537.8 124.6 L
539.733 129.032 L
541.667 127.238 L
543.6 125.601 L
545.533 123.142 L
547.467 124.809 L
549.4 121.887 L
551.333 121.934 L
553.267 120.737 L
555.2 118.053 L
557.133 112.882 L
559.067 110.438 L
561 110.958 L
562.933 110.948 L
564.867 117.972 L
566.8 120.338 L
568.733 123.37 L
570.667 124.18 L
572.6 125.425 L
574.533 130.148 L
576.467 135.284 L
578.4 138.478 L
580.333 148.035 L
582.267 144.578 L
584.2 143.406 L
586.133 144.598 L
588.067 138.64 L
590 134.768 L
591.933 126.755 L
593.867 124.55 L
595.8 132.332 L
597.733 125.179 L
599.667 125.61 L
601.6 123.699 L
S
GR
GS
[0.5 0 0 0.5 0 0.5] CT
0.851 0.325 0.098 RC
1 LJ
N
97 258.2 M
98.933 263.185 L
100.867 259.895 L
102.8 258.628 L
104.733 256.886 L
106.667 259.091 L
108.6 252.932 L
110.533 247.572 L
112.467 250.539 L
114.4 254.624 L
116.333 252.681 L
118.267 252.334 L
120.2 253.548 L
122.133 254.007 L
124.067 254.145 L
126 254.006 L
127.933 251.448 L
129.867 252.992 L
131.8 253.665 L
133.733 256.602 L
135.667 258.729 L
137.6 260.456 L
139.533 261.978 L
141.467 262.567 L
143.4 262.261 L
145.333 261.219 L
147.267 258.802 L
149.2 259.263 L
151.133 261.355 L
153.067 263.63 L
155 261.475 L
156.933 263.055 L
158.867 267.024 L
160.8 264.728 L
162.733 262.057 L
164.667 259.69 L
166.6 262.757 L
168.533 261.046 L
170.467 262.903 L
172.4 269.501 L
174.333 273.139 L
176.267 270.79 L
178.2 271.044 L
180.133 269.195 L
182.067 270.317 L
184 269.584 L
185.933 271.395 L
187.867 271.252 L
189.8 270.146 L
191.733 273.914 L
193.667 270.119 L
195.6 267.757 L
197.533 267.157 L
199.467 267.123 L
201.4 269.96 L
203.333 269.898 L
205.267 267.059 L
207.2 265.261 L
209.133 267.102 L
211.067 267.215 L
213 267.872 L
214.933 271.03 L
216.867 270.213 L
218.8 268.894 L
220.733 268.035 L
222.667 268.575 L
224.6 265.545 L
226.533 263.735 L
228.467 263.097 L
230.4 258.658 L
232.333 260.156 L
234.267 264.49 L
236.2 263.843 L
238.133 268.689 L
240.067 265.799 L
242 263.17 L
243.933 266.462 L
245.867 265.839 L
247.8 266.91 L
249.733 266.919 L
251.667 263.898 L
253.6 262.777 L
255.533 264.18 L
257.467 261.717 L
259.4 267.307 L
261.333 271.467 L
263.267 272.262 L
265.2 271.085 L
267.133 267.877 L
269.067 265.775 L
271 265.245 L
272.933 267.885 L
274.867 267.535 L
276.8 252.243 L
278.733 253.049 L
280.667 251.318 L
282.6 247.861 L
284.533 247.366 L
286.467 247.004 L
288.4 249.833 L
290.333 249.61 L
292.267 250.207 L
294.2 250.671 L
296.133 249.716 L
298.067 248.261 L
300 247.776 L
301.933 250.41 L
303.867 252.588 L
305.8 254.619 L
307.733 253.214 L
309.667 254.941 L
311.6 250.966 L
313.533 248.955 L
315.467 247.897 L
317.4 247.395 L
319.333 246.122 L
321.267 242.858 L
323.2 244.62 L
325.133 243.311 L
327.067 241.24 L
329 243.302 L
330.933 247.541 L
332.867 246.808 L
334.8 249.487 L
336.733 252.476 L
338.667 251.102 L
340.6 250.869 L
342.533 248.466 L
344.467 249.186 L
346.4 244.5 L
348.333 246.111 L
350.267 244.054 L
352.2 238.054 L
354.133 234.458 L
356.067 242.148 L
358 234.4 L
359.933 234.731 L
361.867 234.57 L
363.8 234.798 L
365.733 235.386 L
367.667 242.639 L
369.6 245.042 L
371.533 244.411 L
373.467 243.931 L
375.4 243.99 L
377.333 244.031 L
379.267 243.194 L
381.2 266.306 L
383.133 265.964 L
385.067 265.936 L
387 263.762 L
388.933 264.226 L
390.867 262.685 L
392.8 265.397 L
394.733 266.63 L
396.667 265.278 L
398.6 264.882 L
400.533 266.315 L
402.467 264.251 L
404.4 266.803 L
406.333 262.69 L
408.267 265.523 L
410.2 263.538 L
412.133 262.634 L
414.067 262.722 L
416 260.286 L
417.933 258.329 L
419.867 255.623 L
421.8 252.243 L
423.733 255.233 L
425.667 250.566 L
427.6 250.548 L
429.533 252.731 L
431.467 250.884 L
433.4 253.776 L
435.333 251.79 L
437.267 251.765 L
439.2 257.401 L
441.133 258.443 L
443.067 257.834 L
445 257.656 L
446.933 255.094 L
448.867 254.939 L
450.8 257.217 L
452.733 257.983 L
454.667 256.873 L
456.6 255.788 L
458.533 255.693 L
460.467 256.766 L
462.4 253.826 L
464.333 253.57 L
466.267 250.718 L
468.2 249.363 L
470.133 247.051 L
472.067 246.842 L
474 244.2 L
475.933 244.827 L
477.867 242.733 L
479.8 246.639 L
481.733 248.625 L
483.667 245.375 L
485.6 244.749 L
487.533 245.457 L
489.467 242.316 L
491.4 241.491 L
493.333 243.101 L
495.267 242.238 L
497.2 242.594 L
499.133 237.138 L
501.067 237.989 L
503 238.554 L
504.933 239.833 L
506.867 243.373 L
508.8 247.911 L
510.733 251.218 L
512.667 248.834 L
514.6 249.665 L
516.533 248.349 L
518.467 247.979 L
520.4 251.989 L
522.333 250.112 L
524.267 250.77 L
526.2 248.226 L
528.133 247.135 L
530.067 250.75 L
532 247.228 L
533.933 247.061 L
535.867 244.904 L
537.8 245.289 L
539.733 249.146 L
541.667 245.811 L
543.6 246.767 L
545.533 243.574 L
547.467 246.282 L
549.4 249.779 L
551.333 250.134 L
553.267 249.691 L
555.2 246.822 L
557.133 245.186 L
559.067 243.538 L
561 246.497 L
562.933 245.824 L
564.867 246.032 L
566.8 244.724 L
568.733 243.562 L
570.667 241.963 L
572.6 240.033 L
574.533 240.93 L
576.467 238.919 L
578.4 241.448 L
580.333 239.515 L
582.267 240.93 L
584.2 237.1 L
586.133 235.8 L
588.067 233.404 L
590 231.348 L
591.933 231.297 L
593.867 229.084 L
595.8 229.434 L
597.733 225.99 L
599.667 217.058 L
601.6 214.644 L
603.533 216.612 L
605.467 217.77 L
607.4 215.949 L
609.333 214.548 L
611.267 213.352 L
613.2 207.624 L
615.133 209.719 L
617.067 211.337 L
619 213.522 L
620.933 213.888 L
622.867 208.977 L
624.8 203.446 L
626.733 207.944 L
628.667 212.323 L
630.6 211.506 L
632.533 216.727 L
634.467 219.249 L
636.4 215.261 L
638.333 211.087 L
640.267 216.469 L
642.2 218.478 L
644.133 213.94 L
646.067 203.701 L
648 208.158 L
S
GR
GS
[0.5 0 0 0.5 0 0.5] CT
0.929 0.694 0.125 RC
1 LJ
N
97 258.2 M
98.933 256.403 L
100.867 258.061 L
102.8 258.127 L
104.733 258.805 L
106.667 259.266 L
108.6 266.56 L
110.533 264.967 L
112.467 263.548 L
114.4 262.495 L
116.333 259.899 L
118.267 258.247 L
120.2 260.765 L
122.133 265.142 L
124.067 265.75 L
126 261.181 L
127.933 267.402 L
129.867 264.633 L
131.8 265.6 L
133.733 265.49 L
135.667 265.928 L
137.6 265.899 L
139.533 270.006 L
141.467 271.924 L
143.4 269.722 L
145.333 267.707 L
147.267 267.09 L
149.2 267.214 L
151.133 267.479 L
153.067 266.899 L
155 263.582 L
156.933 264.611 L
158.867 268.601 L
160.8 272.334 L
162.733 271.74 L
164.667 271.623 L
166.6 271.411 L
168.533 273.561 L
170.467 273.947 L
172.4 272.036 L
174.333 272.584 L
176.267 275.132 L
178.2 274.829 L
180.133 274.945 L
182.067 276.904 L
184 275.82 L
185.933 274.338 L
187.867 277.742 L
189.8 276.16 L
191.733 272.547 L
193.667 273.114 L
195.6 271.535 L
197.533 268.735 L
199.467 266.689 L
201.4 264.706 L
203.333 260.968 L
205.267 263.446 L
207.2 260.589 L
209.133 259.668 L
211.067 262.836 L
213 260.314 L
214.933 262.194 L
216.867 267.85 L
218.8 268.286 L
220.733 267.777 L
222.667 268.467 L
224.6 268.456 L
226.533 270.055 L
228.467 269.524 L
230.4 271.599 L
232.333 272.11 L
234.267 271.021 L
236.2 272.727 L
238.133 271.903 L
240.067 270.633 L
242 269.682 L
243.933 270.308 L
245.867 272.507 L
247.8 270.056 L
249.733 272.681 L
251.667 267.818 L
253.6 269.057 L
255.533 267.766 L
257.467 268.783 L
259.4 271.415 L
261.333 270.431 L
263.267 268.005 L
265.2 265.87 L
267.133 266.607 L
269.067 266.01 L
271 264.986 L
272.933 270.056 L
274.867 269.817 L
276.8 268.632 L
278.733 269.113 L
280.667 270.664 L
282.6 269.663 L
284.533 272.413 L
286.467 273.239 L
288.4 275.542 L
290.333 273.797 L
292.267 278.995 L
294.2 281.717 L
296.133 280.892 L
298.067 280.603 L
300 280.663 L
301.933 284.044 L
303.867 283.425 L
305.8 284.057 L
307.733 283.908 L
309.667 283.056 L
311.6 281.366 L
313.533 278.014 L
315.467 276.254 L
317.4 275.238 L
319.333 274.845 L
321.267 274.611 L
323.2 277.909 L
325.133 277.292 L
327.067 271.844 L
329 269.631 L
330.933 273.818 L
332.867 277.583 L
334.8 276.457 L
336.733 276.376 L
338.667 278.363 L
340.6 279.819 L
342.533 280.137 L
344.467 280.809 L
346.4 279.388 L
348.333 282.323 L
350.267 281.668 L
352.2 279.562 L
354.133 278.187 L
356.067 280.215 L
358 281.574 L
359.933 280.359 L
361.867 282.81 L
363.8 285.389 L
365.733 286.894 L
367.667 287.365 L
369.6 287.654 L
371.533 291.079 L
373.467 294.917 L
375.4 292.676 L
377.333 293.104 L
379.267 293.603 L
381.2 290.402 L
383.133 289.929 L
385.067 291.219 L
387 291.024 L
388.933 290.645 L
390.867 289.639 L
392.8 289.722 L
394.733 289.773 L
396.667 287.673 L
398.6 284.384 L
400.533 284.268 L
402.467 284.135 L
404.4 284.477 L
406.333 283.894 L
408.267 282.608 L
410.2 284.485 L
412.133 282.448 L
414.067 278.471 L
416 277.881 L
417.933 276.823 L
419.867 277.29 L
421.8 277.404 L
423.733 279.666 L
425.667 275.858 L
427.6 277.684 L
429.533 280.626 L
431.467 282.168 L
433.4 284.516 L
435.333 282.013 L
437.267 284.818 L
439.2 287.764 L
441.133 288.948 L
443.067 289.055 L
445 290.235 L
446.933 289.91 L
448.867 292.93 L
450.8 293.466 L
452.733 292.161 L
454.667 290.208 L
456.6 291.438 L
458.533 292.526 L
460.467 294.542 L
462.4 297.593 L
464.333 297.579 L
466.267 296.776 L
468.2 296.81 L
470.133 296.073 L
472.067 298.398 L
474 299.741 L
475.933 298.264 L
477.867 297.85 L
479.8 298.233 L
481.733 299.018 L
483.667 297.788 L
485.6 302.025 L
487.533 302.741 L
489.467 303.317 L
491.4 302.596 L
493.333 302.144 L
495.267 300.814 L
497.2 302.471 L
499.133 302.253 L
501.067 300.232 L
503 301.314 L
504.933 301.035 L
506.867 300.79 L
508.8 301.199 L
510.733 300.739 L
512.667 298.168 L
514.6 296.993 L
516.533 298.503 L
518.467 298.076 L
520.4 297.602 L
522.333 297.687 L
524.267 299.693 L
526.2 298.522 L
528.133 298.41 L
530.067 300.138 L
532 300.461 L
533.933 302.308 L
535.867 303.181 L
537.8 303.875 L
539.733 306.947 L
541.667 308.891 L
543.6 308.509 L
545.533 306.087 L
547.467 308.642 L
549.4 306.972 L
551.333 308.838 L
553.267 307.775 L
555.2 308.85 L
557.133 309.093 L
559.067 306.967 L
561 307.724 L
562.933 306.8 L
564.867 307.996 L
566.8 307.83 L
568.733 306.639 L
570.667 309.228 L
572.6 311.882 L
574.533 310.42 L
576.467 311.443 L
578.4 307.604 L
S
GR
GS
[0.5 0 0 0.5 0 0.5] CT
0 0.447 0.741 RC
1 LJ
N
601.6 123.699 M
677 113.283 L
S
GR
GS
[0.5 0 0 0.5 0 0.5] CT
0 0.447 0.741 RC
1 LJ
N
601.6 123.699 M
677 122.211 L
S
GR
GS
[0.5 0 0 0.5 0 0.5] CT
0 0.447 0.741 RC
1 LJ
N
601.6 123.699 M
677 131.139 L
S
GR
GS
[0.5 0 0 0.5 0 0.5] CT
0.851 0.325 0.098 RC
1 LJ
N
648 208.158 M
677 200.718 L
S
GR
GS
[0.5 0 0 0.5 0 0.5] CT
0.851 0.325 0.098 RC
1 LJ
N
648 208.158 M
677 205.182 L
S
GR
GS
[0.5 0 0 0.5 0 0.5] CT
0.851 0.325 0.098 RC
1 LJ
N
648 208.158 M
677 212.622 L
S
GR
GS
[0.5 0 0 0.5 0 0.5] CT
0.929 0.694 0.125 RC
1 LJ
N
578.4 307.604 M
677 294.212 L
S
GR
GS
[0.5 0 0 0.5 0 0.5] CT
0.929 0.694 0.125 RC
1 LJ
N
578.4 307.604 M
677 306.116 L
S
GR
GS
[0.5 0 0 0.5 0 0.5] CT
0.929 0.694 0.125 RC
1 LJ
N
578.4 307.604 M
677 319.508 L
S
GR
GS
[0.5 0 0 0.5 0 0.5] CT
0 0.447 0.741 RC
1 LJ
N
601.6 123.699 M
677 108.819 L
S
GR
GS
[0.5 0 0 0.5 0 0.5] CT
0 0.447 0.741 RC
1 LJ
N
601.6 123.699 M
677 123.699 L
S
GR
GS
[0.5 0 0 0.5 0 0.5] CT
0 0.447 0.741 RC
1 LJ
N
601.6 123.699 M
677 135.603 L
S
GR
GS
[0.5 0 0 0.5 0 0.5] CT
0.851 0.325 0.098 RC
1 LJ
N
648 208.158 M
677 203.694 L
S
GR
GS
[0.5 0 0 0.5 0 0.5] CT
0.851 0.325 0.098 RC
1 LJ
N
648 208.158 M
677 206.67 L
S
GR
GS
[0.5 0 0 0.5 0 0.5] CT
0.851 0.325 0.098 RC
1 LJ
N
648 208.158 M
677 214.11 L
S
GR
GS
[0.5 0 0 0.5 0 0.5] CT
0.929 0.694 0.125 RC
1 LJ
N
578.4 307.604 M
677 297.188 L
S
GR
GS
[0.5 0 0 0.5 0 0.5] CT
0.929 0.694 0.125 RC
1 LJ
N
578.4 307.604 M
677 307.604 L
S
GR
GS
[0.5 0 0 0.5 0 0.5] CT
0.929 0.694 0.125 RC
1 LJ
N
578.4 307.604 M
677 315.044 L
S
GR
GS
[0.5 0 0 0.5 0 0.5] CT
0 0.447 0.741 RC
1 LJ
N
601.6 347.48 M
601.6 322.615 L
601.6 297.751 L
601.6 272.886 L
601.6 248.022 L
601.6 223.157 L
601.6 198.292 L
601.6 173.428 L
601.6 148.563 L
601.6 123.699 L
S
GR
GS
[0.5 0 0 0.5 0 0.5] CT
0.851 0.325 0.098 RC
1 LJ
N
648 347.48 M
648 332 L
648 316.52 L
648 301.039 L
648 285.559 L
648 270.079 L
648 254.598 L
648 239.118 L
648 223.638 L
648 208.158 L
S
GR
GS
[0.5 0 0 0.5 0 0.5] CT
0.929 0.694 0.125 RC
1 LJ
N
578.4 347.48 M
578.4 343.049 L
578.4 338.619 L
578.4 334.188 L
578.4 329.757 L
578.4 325.327 L
578.4 320.896 L
578.4 316.465 L
578.4 312.035 L
578.4 307.604 L
S
GR
GS
[0.5 0 0 0.5 290.5 220.5] CT
N
3.109 -0.297 M
3.109 -0.438 3.141 -0.516 QT
5.25 -7.391 L
3.438 -7.391 L
2.703 -7.391 2.07 -6.93 QT
1.438 -6.469 1.016 -5.766 QT
0.984 -5.688 0.906 -5.688 QT
0.672 -5.688 L
0.484 -5.688 0.484 -5.875 QT
0.484 -5.922 0.516 -6 QT
1.172 -7.109 1.922 -7.867 QT
2.672 -8.625 3.609 -8.625 QT
9.734 -8.625 L
9.953 -8.625 10.102 -8.477 QT
10.25 -8.328 10.25 -8.109 QT
10.25 -7.828 10.039 -7.609 QT
9.828 -7.391 9.516 -7.391 QT
5.906 -7.391 L
4.563 -0.484 L
4.484 -0.156 4.266 0.055 QT
4.047 0.266 3.719 0.266 QT
3.469 0.266 3.289 0.102 QT
3.109 -0.063 3.109 -0.297 QT
cp
f
GR
GS
[0.5 0 0 0.5 295 225.5] CT
/Helvetica 16 F
GS
[1 0 0 1 0 0] CT
0 0 moveto 
1 -1 scale
(1) t 
GR
GR
GS
[0.5 0 0 0.5 302.5 219.5] CT
N
/f1768733076{3.109 -0.297 M
3.109 -0.438 3.141 -0.516 QT
5.25 -7.391 L
3.438 -7.391 L
2.703 -7.391 2.07 -6.93 QT
1.438 -6.469 1.016 -5.766 QT
0.984 -5.688 0.906 -5.688 QT
0.672 -5.688 L
0.484 -5.688 0.484 -5.875 QT
0.484 -5.922 0.516 -6 QT
1.172 -7.109 1.922 -7.867 QT
2.672 -8.625 3.609 -8.625 QT
9.734 -8.625 L
9.953 -8.625 10.102 -8.477 QT
10.25 -8.328 10.25 -8.109 QT
10.25 -7.828 10.039 -7.609 QT
9.828 -7.391 9.516 -7.391 QT
5.906 -7.391 L
4.563 -0.484 L
4.484 -0.156 4.266 0.055 QT
4.047 0.266 3.719 0.266 QT
3.469 0.266 3.289 0.102 QT
3.109 -0.063 3.109 -0.297 QT
cp}def
f1768733076
f
GR
GS
[0.5 0 0 0.5 307 224.5] CT
/Helvetica 16 F
GS
[1 0 0 1 0 0] CT
0 0 moveto 
1 -1 scale
(2) t 
GR
GR
GS
[0.5 0 0 0.5 326 219] CT
N
f1768733076
f
GR
GS
[0.5 0 0 0.5 330.5 224] CT
/Helvetica 16 F
GS
[1 0 0 1 0 0] CT
0 0 moveto 
1 -1 scale
(3) t 
GR
GR
%%Trailer
%%Pages: 1
%%EOF
