%!PS-Adobe-3.0 EPSF-3.0
%%Creator: (MATLAB, The Mathworks, Inc. Version 9.2.0.556344 \(R2017a\). Operating System: Windows 8)
%%Title: D:/WorkInProgress/Latex/Tesi/Pictures/LevyFinita.eps
%%CreationDate: 2017-06-10T14:23:37
%%Pages: (atend)
%%BoundingBox: 0 0 420 315
%%LanguageLevel: 3
%%EndComments
%%BeginProlog
%%BeginResource: procset (Apache XML Graphics Std ProcSet) 1.2 0
%%Version: 1.2 0
%%Copyright: (Copyright 2001-2003,2010 The Apache Software Foundation. License terms: http://www.apache.org/licenses/LICENSE-2.0)
/bd{bind def}bind def
/ld{load def}bd
/GR/grestore ld
/M/moveto ld
/LJ/setlinejoin ld
/C/curveto ld
/f/fill ld
/LW/setlinewidth ld
/GC/setgray ld
/t/show ld
/N/newpath ld
/CT/concat ld
/cp/closepath ld
/S/stroke ld
/L/lineto ld
/CC/setcmykcolor ld
/A/ashow ld
/GS/gsave ld
/RC/setrgbcolor ld
/RM/rmoveto ld
/ML/setmiterlimit ld
/re {4 2 roll M
1 index 0 rlineto
0 exch rlineto
neg 0 rlineto
cp } bd
/_ctm matrix def
/_tm matrix def
/BT { _ctm currentmatrix pop matrix _tm copy pop 0 0 moveto } bd
/ET { _ctm setmatrix } bd
/iTm { _ctm setmatrix _tm concat } bd
/Tm { _tm astore pop iTm 0 0 moveto } bd
/ux 0.0 def
/uy 0.0 def
/F {
  /Tp exch def
  /Tf exch def
  Tf findfont Tp scalefont setfont
  /cf Tf def  /cs Tp def
} bd
/ULS {currentpoint /uy exch def /ux exch def} bd
/ULE {
  /Tcx currentpoint pop def
  gsave
  newpath
  cf findfont cs scalefont dup
  /FontMatrix get 0 get /Ts exch def /FontInfo get dup
  /UnderlinePosition get Ts mul /To exch def
  /UnderlineThickness get Ts mul /Tt exch def
  ux uy To add moveto  Tcx uy To add lineto
  Tt setlinewidth stroke
  grestore
} bd
/OLE {
  /Tcx currentpoint pop def
  gsave
  newpath
  cf findfont cs scalefont dup
  /FontMatrix get 0 get /Ts exch def /FontInfo get dup
  /UnderlinePosition get Ts mul /To exch def
  /UnderlineThickness get Ts mul /Tt exch def
  ux uy To add cs add moveto Tcx uy To add cs add lineto
  Tt setlinewidth stroke
  grestore
} bd
/SOE {
  /Tcx currentpoint pop def
  gsave
  newpath
  cf findfont cs scalefont dup
  /FontMatrix get 0 get /Ts exch def /FontInfo get dup
  /UnderlinePosition get Ts mul /To exch def
  /UnderlineThickness get Ts mul /Tt exch def
  ux uy To add cs 10 mul 26 idiv add moveto Tcx uy To add cs 10 mul 26 idiv add lineto
  Tt setlinewidth stroke
  grestore
} bd
/QT {
/Y22 exch store
/X22 exch store
/Y21 exch store
/X21 exch store
currentpoint
/Y21 load 2 mul add 3 div exch
/X21 load 2 mul add 3 div exch
/X21 load 2 mul /X22 load add 3 div
/Y21 load 2 mul /Y22 load add 3 div
/X22 load /Y22 load curveto
} bd
/SSPD {
dup length /d exch dict def
{
/v exch def
/k exch def
currentpagedevice k known {
/cpdv currentpagedevice k get def
v cpdv ne {
/upd false def
/nullv v type /nulltype eq def
/nullcpdv cpdv type /nulltype eq def
nullv nullcpdv or
{
/upd true def
} {
/sametype v type cpdv type eq def
sametype {
v type /arraytype eq {
/vlen v length def
/cpdvlen cpdv length def
vlen cpdvlen eq {
0 1 vlen 1 sub {
/i exch def
/obj v i get def
/cpdobj cpdv i get def
obj cpdobj ne {
/upd true def
exit
} if
} for
} {
/upd true def
} ifelse
} {
v type /dicttype eq {
v {
/dv exch def
/dk exch def
/cpddv cpdv dk get def
dv cpddv ne {
/upd true def
exit
} if
} forall
} {
/upd true def
} ifelse
} ifelse
} if
} ifelse
upd true eq {
d k v put
} if
} if
} if
} forall
d length 0 gt {
d setpagedevice
} if
} bd
/RE { % /NewFontName [NewEncodingArray] /FontName RE -
  findfont dup length dict begin
  {
    1 index /FID ne
    {def} {pop pop} ifelse
  } forall
  /Encoding exch def
  /FontName 1 index def
  currentdict definefont pop
  end
} bind def
%%EndResource
%%BeginResource: procset (Apache XML Graphics EPS ProcSet) 1.0 0
%%Version: 1.0 0
%%Copyright: (Copyright 2002-2003 The Apache Software Foundation. License terms: http://www.apache.org/licenses/LICENSE-2.0)
/BeginEPSF { %def
/b4_Inc_state save def         % Save state for cleanup
/dict_count countdictstack def % Count objects on dict stack
/op_count count 1 sub def      % Count objects on operand stack
userdict begin                 % Push userdict on dict stack
/showpage { } def              % Redefine showpage, { } = null proc
0 setgray 0 setlinecap         % Prepare graphics state
1 setlinewidth 0 setlinejoin
10 setmiterlimit [ ] 0 setdash newpath
/languagelevel where           % If level not equal to 1 then
{pop languagelevel             % set strokeadjust and
1 ne                           % overprint to their defaults.
{false setstrokeadjust false setoverprint
} if
} if
} bd
/EndEPSF { %def
count op_count sub {pop} repeat            % Clean up stacks
countdictstack dict_count sub {end} repeat
b4_Inc_state restore
} bd
%%EndResource
%FOPBeginFontDict
%%IncludeResource: font Courier-Bold
%%IncludeResource: font Helvetica
%%IncludeResource: font Courier-BoldOblique
%%IncludeResource: font Courier-Oblique
%%IncludeResource: font Times-Roman
%%IncludeResource: font Helvetica-BoldOblique
%%IncludeResource: font Helvetica-Bold
%%IncludeResource: font Helvetica-Oblique
%%IncludeResource: font Times-BoldItalic
%%IncludeResource: font Courier
%%IncludeResource: font Times-Italic
%%IncludeResource: font Times-Bold
%%IncludeResource: font Symbol
%%IncludeResource: font ZapfDingbats
%FOPEndFontDict
%%BeginResource: encoding WinAnsiEncoding
/WinAnsiEncoding [
/.notdef /.notdef /.notdef /.notdef /.notdef
/.notdef /.notdef /.notdef /.notdef /.notdef
/.notdef /.notdef /.notdef /.notdef /.notdef
/.notdef /.notdef /.notdef /.notdef /.notdef
/.notdef /.notdef /.notdef /.notdef /.notdef
/.notdef /.notdef /.notdef /.notdef /.notdef
/.notdef /.notdef /space /exclam /quotedbl
/numbersign /dollar /percent /ampersand /quotesingle
/parenleft /parenright /asterisk /plus /comma
/hyphen /period /slash /zero /one
/two /three /four /five /six
/seven /eight /nine /colon /semicolon
/less /equal /greater /question /at
/A /B /C /D /E
/F /G /H /I /J
/K /L /M /N /O
/P /Q /R /S /T
/U /V /W /X /Y
/Z /bracketleft /backslash /bracketright /asciicircum
/underscore /quoteleft /a /b /c
/d /e /f /g /h
/i /j /k /l /m
/n /o /p /q /r
/s /t /u /v /w
/x /y /z /braceleft /bar
/braceright /asciitilde /bullet /Euro /bullet
/quotesinglbase /florin /quotedblbase /ellipsis /dagger
/daggerdbl /circumflex /perthousand /Scaron /guilsinglleft
/OE /bullet /Zcaron /bullet /bullet
/quoteleft /quoteright /quotedblleft /quotedblright /bullet
/endash /emdash /asciitilde /trademark /scaron
/guilsinglright /oe /bullet /zcaron /Ydieresis
/space /exclamdown /cent /sterling /currency
/yen /brokenbar /section /dieresis /copyright
/ordfeminine /guillemotleft /logicalnot /sfthyphen /registered
/macron /degree /plusminus /twosuperior /threesuperior
/acute /mu /paragraph /middot /cedilla
/onesuperior /ordmasculine /guillemotright /onequarter /onehalf
/threequarters /questiondown /Agrave /Aacute /Acircumflex
/Atilde /Adieresis /Aring /AE /Ccedilla
/Egrave /Eacute /Ecircumflex /Edieresis /Igrave
/Iacute /Icircumflex /Idieresis /Eth /Ntilde
/Ograve /Oacute /Ocircumflex /Otilde /Odieresis
/multiply /Oslash /Ugrave /Uacute /Ucircumflex
/Udieresis /Yacute /Thorn /germandbls /agrave
/aacute /acircumflex /atilde /adieresis /aring
/ae /ccedilla /egrave /eacute /ecircumflex
/edieresis /igrave /iacute /icircumflex /idieresis
/eth /ntilde /ograve /oacute /ocircumflex
/otilde /odieresis /divide /oslash /ugrave
/uacute /ucircumflex /udieresis /yacute /thorn
/ydieresis
] def
%%EndResource
%FOPBeginFontReencode
/Courier-Bold findfont
dup length dict begin
  {1 index /FID ne {def} {pop pop} ifelse} forall
  /Encoding WinAnsiEncoding def
  currentdict
end
/Courier-Bold exch definefont pop
/Helvetica findfont
dup length dict begin
  {1 index /FID ne {def} {pop pop} ifelse} forall
  /Encoding WinAnsiEncoding def
  currentdict
end
/Helvetica exch definefont pop
/Courier-BoldOblique findfont
dup length dict begin
  {1 index /FID ne {def} {pop pop} ifelse} forall
  /Encoding WinAnsiEncoding def
  currentdict
end
/Courier-BoldOblique exch definefont pop
/Courier-Oblique findfont
dup length dict begin
  {1 index /FID ne {def} {pop pop} ifelse} forall
  /Encoding WinAnsiEncoding def
  currentdict
end
/Courier-Oblique exch definefont pop
/Times-Roman findfont
dup length dict begin
  {1 index /FID ne {def} {pop pop} ifelse} forall
  /Encoding WinAnsiEncoding def
  currentdict
end
/Times-Roman exch definefont pop
/Helvetica-BoldOblique findfont
dup length dict begin
  {1 index /FID ne {def} {pop pop} ifelse} forall
  /Encoding WinAnsiEncoding def
  currentdict
end
/Helvetica-BoldOblique exch definefont pop
/Helvetica-Bold findfont
dup length dict begin
  {1 index /FID ne {def} {pop pop} ifelse} forall
  /Encoding WinAnsiEncoding def
  currentdict
end
/Helvetica-Bold exch definefont pop
/Helvetica-Oblique findfont
dup length dict begin
  {1 index /FID ne {def} {pop pop} ifelse} forall
  /Encoding WinAnsiEncoding def
  currentdict
end
/Helvetica-Oblique exch definefont pop
/Times-BoldItalic findfont
dup length dict begin
  {1 index /FID ne {def} {pop pop} ifelse} forall
  /Encoding WinAnsiEncoding def
  currentdict
end
/Times-BoldItalic exch definefont pop
/Courier findfont
dup length dict begin
  {1 index /FID ne {def} {pop pop} ifelse} forall
  /Encoding WinAnsiEncoding def
  currentdict
end
/Courier exch definefont pop
/Times-Italic findfont
dup length dict begin
  {1 index /FID ne {def} {pop pop} ifelse} forall
  /Encoding WinAnsiEncoding def
  currentdict
end
/Times-Italic exch definefont pop
/Times-Bold findfont
dup length dict begin
  {1 index /FID ne {def} {pop pop} ifelse} forall
  /Encoding WinAnsiEncoding def
  currentdict
end
/Times-Bold exch definefont pop
%FOPEndFontReencode
%%EndProlog
%%Page: 1 1
%%PageBoundingBox: 0 0 420 315
%%BeginPageSetup
[1 0 0 -1 0 315] CT
%%EndPageSetup
GS
[0.5 0 0 0.5 0 0] CT
1 GC
N
0 0 840 630 re
f
GR
GS
[0.5 0 0 0.5 0 0] CT
1 GC
N
0 0 840 630 re
f
GR
GS
[0.5 0 0 0.5 0 0] CT
1 GC
N
109 561 M
760 561 L
760 47 L
109 47 L
cp
f
GR
GS
[0.5 0 0 0.5 0 0] CT
0.873 GC
1 LJ
N
109 561 M
109 47 L
S
GR
GS
[0.5 0 0 0.5 0 0] CT
0.873 GC
1 LJ
N
271.75 561 M
271.75 47 L
S
GR
GS
[0.5 0 0 0.5 0 0] CT
0.873 GC
1 LJ
N
434.5 561 M
434.5 47 L
S
GR
GS
[0.5 0 0 0.5 0 0] CT
0.873 GC
1 LJ
N
597.25 561 M
597.25 47 L
S
GR
GS
[0.5 0 0 0.5 0 0] CT
0.873 GC
1 LJ
N
760 561 M
760 47 L
S
GR
GS
[0.5 0 0 0.5 0 0] CT
0.873 GC
1 LJ
N
760 561 M
109 561 L
S
GR
GS
[0.5 0 0 0.5 0 0] CT
0.873 GC
1 LJ
N
760 503.889 M
109 503.889 L
S
GR
GS
[0.5 0 0 0.5 0 0] CT
0.873 GC
1 LJ
N
760 446.778 M
109 446.778 L
S
GR
GS
[0.5 0 0 0.5 0 0] CT
0.873 GC
1 LJ
N
760 389.667 M
109 389.667 L
S
GR
GS
[0.5 0 0 0.5 0 0] CT
0.873 GC
1 LJ
N
760 332.556 M
109 332.556 L
S
GR
GS
[0.5 0 0 0.5 0 0] CT
0.873 GC
1 LJ
N
760 275.444 M
109 275.444 L
S
GR
GS
[0.5 0 0 0.5 0 0] CT
0.873 GC
1 LJ
N
760 218.333 M
109 218.333 L
S
GR
GS
[0.5 0 0 0.5 0 0] CT
0.873 GC
1 LJ
N
760 161.222 M
109 161.222 L
S
GR
GS
[0.5 0 0 0.5 0 0] CT
0.873 GC
1 LJ
N
760 104.111 M
109 104.111 L
S
GR
GS
[0.5 0 0 0.5 0 0] CT
0.873 GC
1 LJ
N
760 47 M
109 47 L
S
GR
GS
[0.5 0 0 0.5 0 0] CT
0.149 GC
2 setlinecap
1 LJ
N
109 561 M
760 561 L
S
GR
GS
[0.5 0 0 0.5 0 0] CT
0.149 GC
2 setlinecap
1 LJ
N
109 47 M
760 47 L
S
GR
GS
[0.5 0 0 0.5 0 0] CT
0.149 GC
2 setlinecap
1 LJ
N
109 561 M
109 554.49 L
S
GR
GS
[0.5 0 0 0.5 0 0] CT
0.149 GC
2 setlinecap
1 LJ
N
271.75 561 M
271.75 554.49 L
S
GR
GS
[0.5 0 0 0.5 0 0] CT
0.149 GC
2 setlinecap
1 LJ
N
434.5 561 M
434.5 554.49 L
S
GR
GS
[0.5 0 0 0.5 0 0] CT
0.149 GC
2 setlinecap
1 LJ
N
597.25 561 M
597.25 554.49 L
S
GR
GS
[0.5 0 0 0.5 0 0] CT
0.149 GC
2 setlinecap
1 LJ
N
760 561 M
760 554.49 L
S
GR
GS
[0.5 0 0 0.5 0 0] CT
0.149 GC
2 setlinecap
1 LJ
N
109 47 M
109 53.51 L
S
GR
GS
[0.5 0 0 0.5 0 0] CT
0.149 GC
2 setlinecap
1 LJ
N
271.75 47 M
271.75 53.51 L
S
GR
GS
[0.5 0 0 0.5 0 0] CT
0.149 GC
2 setlinecap
1 LJ
N
434.5 47 M
434.5 53.51 L
S
GR
GS
[0.5 0 0 0.5 0 0] CT
0.149 GC
2 setlinecap
1 LJ
N
597.25 47 M
597.25 53.51 L
S
GR
GS
[0.5 0 0 0.5 0 0] CT
0.149 GC
2 setlinecap
1 LJ
N
760 47 M
760 53.51 L
S
GR
GS
[0.5 0 0 0.5 54.5 284.5] CT
0.149 GC
/Helvetica 20 F
GS
[1 0 0 1 0 0] CT
-6 21 moveto 
1 -1 scale
(0) t 
GR
GR
GS
[0.5 0 0 0.5 135.875 284.5] CT
0.149 GC
/Helvetica 20 F
GS
[1 0 0 1 0 0] CT
-14 21 moveto 
1 -1 scale
(0.5) t 
GR
GR
GS
[0.5 0 0 0.5 217.25 284.5] CT
0.149 GC
/Helvetica 20 F
GS
[1 0 0 1 0 0] CT
-6 21 moveto 
1 -1 scale
(1) t 
GR
GR
GS
[0.5 0 0 0.5 298.625 284.5] CT
0.149 GC
/Helvetica 20 F
GS
[1 0 0 1 0 0] CT
-14 21 moveto 
1 -1 scale
(1.5) t 
GR
GR
GS
[0.5 0 0 0.5 380 284.5] CT
0.149 GC
/Helvetica 20 F
GS
[1 0 0 1 0 0] CT
-6 21 moveto 
1 -1 scale
(2) t 
GR
GR
GS
[0.5 0 0 0.5 217.25015 298.5] CT
0.149 GC
/Helvetica 22 F
GS
[1 0 0 1 0 0] CT
-83 23 moveto 
1 -1 scale
(Time To Maturity) t 
GR
GR
GS
[0.5 0 0 0.5 0 0] CT
0.149 GC
2 setlinecap
1 LJ
N
109 561 M
109 47 L
S
GR
GS
[0.5 0 0 0.5 0 0] CT
0.149 GC
2 setlinecap
1 LJ
N
760 561 M
760 47 L
S
GR
GS
[0.5 0 0 0.5 0 0] CT
0.149 GC
2 setlinecap
1 LJ
N
109 561 M
115.51 561 L
S
GR
GS
[0.5 0 0 0.5 0 0] CT
0.149 GC
2 setlinecap
1 LJ
N
109 503.889 M
115.51 503.889 L
S
GR
GS
[0.5 0 0 0.5 0 0] CT
0.149 GC
2 setlinecap
1 LJ
N
109 446.778 M
115.51 446.778 L
S
GR
GS
[0.5 0 0 0.5 0 0] CT
0.149 GC
2 setlinecap
1 LJ
N
109 389.667 M
115.51 389.667 L
S
GR
GS
[0.5 0 0 0.5 0 0] CT
0.149 GC
2 setlinecap
1 LJ
N
109 332.556 M
115.51 332.556 L
S
GR
GS
[0.5 0 0 0.5 0 0] CT
0.149 GC
2 setlinecap
1 LJ
N
109 275.444 M
115.51 275.444 L
S
GR
GS
[0.5 0 0 0.5 0 0] CT
0.149 GC
2 setlinecap
1 LJ
N
109 218.333 M
115.51 218.333 L
S
GR
GS
[0.5 0 0 0.5 0 0] CT
0.149 GC
2 setlinecap
1 LJ
N
109 161.222 M
115.51 161.222 L
S
GR
GS
[0.5 0 0 0.5 0 0] CT
0.149 GC
2 setlinecap
1 LJ
N
109 104.111 M
115.51 104.111 L
S
GR
GS
[0.5 0 0 0.5 0 0] CT
0.149 GC
2 setlinecap
1 LJ
N
109 47 M
115.51 47 L
S
GR
GS
[0.5 0 0 0.5 0 0] CT
0.149 GC
2 setlinecap
1 LJ
N
760 561 M
753.49 561 L
S
GR
GS
[0.5 0 0 0.5 0 0] CT
0.149 GC
2 setlinecap
1 LJ
N
760 503.889 M
753.49 503.889 L
S
GR
GS
[0.5 0 0 0.5 0 0] CT
0.149 GC
2 setlinecap
1 LJ
N
760 446.778 M
753.49 446.778 L
S
GR
GS
[0.5 0 0 0.5 0 0] CT
0.149 GC
2 setlinecap
1 LJ
N
760 389.667 M
753.49 389.667 L
S
GR
GS
[0.5 0 0 0.5 0 0] CT
0.149 GC
2 setlinecap
1 LJ
N
760 332.556 M
753.49 332.556 L
S
GR
GS
[0.5 0 0 0.5 0 0] CT
0.149 GC
2 setlinecap
1 LJ
N
760 275.444 M
753.49 275.444 L
S
GR
GS
[0.5 0 0 0.5 0 0] CT
0.149 GC
2 setlinecap
1 LJ
N
760 218.333 M
753.49 218.333 L
S
GR
GS
[0.5 0 0 0.5 0 0] CT
0.149 GC
2 setlinecap
1 LJ
N
760 161.222 M
753.49 161.222 L
S
GR
GS
[0.5 0 0 0.5 0 0] CT
0.149 GC
2 setlinecap
1 LJ
N
760 104.111 M
753.49 104.111 L
S
GR
GS
[0.5 0 0 0.5 0 0] CT
0.149 GC
2 setlinecap
1 LJ
N
760 47 M
753.49 47 L
S
GR
GS
[0.5 0 0 0.5 50.5 280.5] CT
0.149 GC
/Helvetica 20 F
GS
[1 0 0 1 0 0] CT
-23 8 moveto 
1 -1 scale
(40) t 
GR
GR
GS
[0.5 0 0 0.5 50.5 251.94444] CT
0.149 GC
/Helvetica 20 F
GS
[1 0 0 1 0 0] CT
-23 8 moveto 
1 -1 scale
(60) t 
GR
GR
GS
[0.5 0 0 0.5 50.5 223.38889] CT
0.149 GC
/Helvetica 20 F
GS
[1 0 0 1 0 0] CT
-23 8 moveto 
1 -1 scale
(80) t 
GR
GR
GS
[0.5 0 0 0.5 50.5 194.83333] CT
0.149 GC
/Helvetica 20 F
GS
[1 0 0 1 0 0] CT
-34 8 moveto 
1 -1 scale
(100) t 
GR
GR
GS
[0.5 0 0 0.5 50.5 166.27777] CT
0.149 GC
/Helvetica 20 F
GS
[1 0 0 1 0 0] CT
-34 8 moveto 
1 -1 scale
(120) t 
GR
GR
GS
[0.5 0 0 0.5 50.5 137.72223] CT
0.149 GC
/Helvetica 20 F
GS
[1 0 0 1 0 0] CT
-34 8 moveto 
1 -1 scale
(140) t 
GR
GR
GS
[0.5 0 0 0.5 50.5 109.16666] CT
0.149 GC
/Helvetica 20 F
GS
[1 0 0 1 0 0] CT
-34 8 moveto 
1 -1 scale
(160) t 
GR
GR
GS
[0.5 0 0 0.5 50.5 80.61111] CT
0.149 GC
/Helvetica 20 F
GS
[1 0 0 1 0 0] CT
-34 8 moveto 
1 -1 scale
(180) t 
GR
GR
GS
[0.5 0 0 0.5 50.5 52.05556] CT
0.149 GC
/Helvetica 20 F
GS
[1 0 0 1 0 0] CT
-34 8 moveto 
1 -1 scale
(200) t 
GR
GR
GS
[0.5 0 0 0.5 50.5 23.5] CT
0.149 GC
/Helvetica 20 F
GS
[1 0 0 1 0 0] CT
-34 8 moveto 
1 -1 scale
(220) t 
GR
GR
GS
[0 -0.5 0.5 0 30.5 151.99986] CT
0.149 GC
/Helvetica 22 F
GS
[1 0 0 1 0 0] CT
-56 -5 moveto 
1 -1 scale
(Stock Price) t 
GR
GR
GS
[0.5 0 0 0.5 217.25021 22.12501] CT
/Helvetica-Bold 22 F
GS
[1 0 0 1 0 0] CT
-111 -5 moveto 
1 -1 scale
(Levy ad Attivit\340 finita) t 
GR
GR
GS
[0.5 0 0 0.5 0 0] CT
0 0.447 0.741 RC
1 LJ
N
109 389.667 M
111.17 385.727 L
113.34 391.453 L
115.51 391.291 L
117.68 384.306 L
119.85 384.39 L
122.02 373.38 L
124.19 372.282 L
126.36 370.52 L
128.53 371.699 L
130.7 379.491 L
132.87 378.475 L
135.04 373.976 L
137.21 378.944 L
139.38 374.749 L
141.55 367.791 L
143.72 372.703 L
145.89 384.954 L
148.06 380.36 L
150.23 384.036 L
152.4 386.626 L
154.57 388.449 L
156.74 397.704 L
158.91 395.832 L
161.08 397.601 L
163.25 402.632 L
165.42 405.049 L
167.59 410.329 L
169.76 407.852 L
171.93 411.105 L
174.1 410.608 L
176.27 408.292 L
178.44 408.862 L
180.61 291.395 L
182.78 293.972 L
184.95 291.06 L
187.12 254.787 L
189.29 251.946 L
191.46 260.9 L
193.63 254.687 L
195.8 242.601 L
197.97 259.288 L
200.14 254.495 L
202.31 259.77 L
204.48 259.128 L
206.65 261.966 L
208.82 258.168 L
210.99 270.168 L
213.16 277.965 L
215.33 273.903 L
217.5 274.478 L
219.67 271.079 L
221.84 279.173 L
224.01 270.767 L
226.18 263.124 L
228.35 253.16 L
230.52 250.75 L
232.69 246.212 L
234.86 238.964 L
237.03 244.269 L
239.2 248.38 L
241.37 237.081 L
243.54 233.963 L
245.71 234.007 L
247.88 226.46 L
250.05 230.547 L
252.22 229.171 L
254.39 229.046 L
256.56 222.981 L
258.73 222.297 L
260.9 239.487 L
263.07 231.659 L
265.24 217.363 L
267.41 218.382 L
269.58 213.296 L
271.75 207.996 L
273.92 220.35 L
276.09 218.174 L
278.26 218.493 L
280.43 228.28 L
282.6 229.898 L
284.77 232.795 L
286.94 238.952 L
289.11 231.034 L
291.28 240.333 L
293.45 230.544 L
295.62 225.25 L
297.79 218.078 L
299.96 225.009 L
302.13 226.348 L
304.3 221.993 L
306.47 233.581 L
308.64 231.827 L
310.81 243.695 L
312.98 222.999 L
315.15 101.049 L
317.32 107.432 L
319.49 120.998 L
321.66 133.798 L
323.83 133.072 L
326 123.254 L
328.17 107.396 L
330.34 95.748 L
332.51 104.765 L
334.68 123.44 L
336.85 133.918 L
339.02 127.779 L
341.19 132.358 L
343.36 130.311 L
345.53 123.824 L
347.7 122.827 L
349.87 127.229 L
352.04 125.77 L
354.21 139.551 L
356.38 144.953 L
358.55 137.638 L
360.72 124.285 L
362.89 121.054 L
365.06 118.729 L
367.23 118.085 L
369.4 123.406 L
371.57 124.229 L
373.74 117.974 L
375.91 124.899 L
378.08 132.168 L
380.25 124.215 L
382.42 123.573 L
384.59 117.882 L
386.76 115.302 L
388.93 116.524 L
391.1 123.49 L
393.27 121.169 L
395.44 107.509 L
397.61 103.846 L
399.78 73.326 L
401.95 72.221 L
404.12 69.271 L
406.29 60.467 L
408.46 67.686 L
410.63 70.109 L
412.8 84.5 L
414.97 72.909 L
417.14 81.904 L
419.31 91.015 L
421.48 102.44 L
423.65 100.879 L
425.82 95.256 L
427.99 103.556 L
430.16 91.881 L
432.33 106.488 L
434.5 102.004 L
436.67 116.797 L
438.84 118.953 L
441.01 111.613 L
443.18 104.332 L
445.35 93.879 L
447.52 98.567 L
449.69 108.613 L
451.86 108.39 L
454.03 94.175 L
456.2 92.062 L
458.37 92.388 L
460.54 94.737 L
462.71 81.598 L
464.88 89.4 L
467.05 72.404 L
469.22 63.991 L
471.39 69.59 L
473.56 76.971 L
475.73 80.495 L
477.9 85.152 L
480.07 89.507 L
482.24 92.065 L
484.41 77.951 L
486.58 97.547 L
488.75 94.346 L
490.92 89.698 L
493.09 84.886 L
495.26 91.872 L
497.43 84.951 L
499.6 90.55 L
501.77 81.414 L
503.94 82.182 L
506.11 72.552 L
508.28 77.613 L
510.45 79.145 L
512.62 93.117 L
514.79 91.64 L
516.96 93.477 L
519.13 96.194 L
521.3 87.468 L
523.47 91.449 L
525.64 95.528 L
527.81 95.944 L
529.98 103.859 L
532.15 110.964 L
534.32 97.267 L
536.49 98.608 L
538.66 102.136 L
540.83 129.032 L
543 132.9 L
545.17 129.843 L
547.34 117.901 L
549.51 123.716 L
551.68 113.552 L
553.85 114.145 L
556.02 117.831 L
558.19 113.331 L
560.36 114.539 L
562.53 126.193 L
564.7 103.336 L
566.87 102.163 L
569.04 106.132 L
571.21 107.186 L
573.38 97.474 L
575.55 91.854 L
577.72 86.638 L
579.89 78.66 L
582.06 80.551 L
584.23 78.304 L
586.4 85.272 L
588.57 110.521 L
590.74 116.335 L
592.91 109.935 L
595.08 104.164 L
597.25 111.675 L
599.42 120.528 L
601.59 122.461 L
603.76 133.28 L
605.93 141.785 L
608.1 138.343 L
610.27 135.201 L
612.44 130.482 L
614.61 133.682 L
616.78 128.075 L
618.95 128.165 L
621.12 125.867 L
623.29 120.717 L
625.46 110.793 L
627.63 106.104 L
629.8 107.101 L
631.97 107.081 L
634.14 120.561 L
636.31 125.102 L
638.48 130.92 L
640.65 132.475 L
642.82 134.865 L
644.99 143.928 L
647.16 153.784 L
649.33 159.913 L
651.5 178.254 L
653.67 171.62 L
655.84 169.37 L
658.01 171.658 L
660.18 160.224 L
662.35 152.795 L
664.52 137.416 L
666.69 133.185 L
668.86 148.118 L
671.03 134.393 L
673.2 135.219 L
675.37 131.551 L
S
GR
GS
[0.5 0 0 0.5 0 0] CT
0.851 0.325 0.098 RC
1 LJ
N
109 389.667 M
111.17 399.234 L
113.34 392.919 L
115.51 390.488 L
117.68 387.146 L
119.85 391.377 L
122.02 379.557 L
124.19 369.27 L
126.36 374.965 L
128.53 382.803 L
130.7 379.076 L
132.87 378.41 L
135.04 380.739 L
137.21 381.621 L
139.38 381.885 L
141.55 381.618 L
143.72 376.71 L
145.89 379.672 L
148.06 380.964 L
150.23 386.601 L
152.4 390.681 L
154.57 393.996 L
156.74 396.917 L
158.91 398.047 L
161.08 397.459 L
163.25 395.46 L
165.42 390.821 L
167.59 391.706 L
169.76 395.72 L
171.93 400.087 L
174.1 395.951 L
176.27 398.984 L
178.44 406.601 L
180.61 402.194 L
182.78 397.068 L
184.95 392.526 L
187.12 398.411 L
189.29 395.129 L
191.46 398.691 L
193.63 411.354 L
195.8 418.336 L
197.97 413.828 L
200.14 414.316 L
202.31 410.768 L
204.48 412.92 L
206.65 411.513 L
208.82 414.989 L
210.99 414.714 L
213.16 412.592 L
215.33 419.823 L
217.5 412.54 L
219.67 408.007 L
221.84 406.855 L
224.01 406.791 L
226.18 412.236 L
228.35 412.116 L
230.52 406.668 L
232.69 403.216 L
234.86 406.751 L
237.03 406.967 L
239.2 408.227 L
241.37 414.289 L
243.54 412.72 L
245.71 410.189 L
247.88 408.54 L
250.05 409.577 L
252.22 403.762 L
254.39 400.288 L
256.56 399.064 L
258.73 390.545 L
260.9 393.42 L
263.07 401.738 L
265.24 400.496 L
267.41 409.795 L
269.58 404.25 L
271.75 399.204 L
273.92 405.522 L
276.09 404.326 L
278.26 406.381 L
280.43 406.398 L
282.6 400.602 L
284.77 398.451 L
286.94 401.143 L
289.11 396.416 L
291.28 407.143 L
293.45 415.127 L
295.62 416.653 L
297.79 414.394 L
299.96 408.238 L
302.13 404.203 L
304.3 403.187 L
306.47 408.252 L
308.64 407.581 L
310.81 378.235 L
312.98 379.781 L
315.15 376.459 L
317.32 369.825 L
319.49 368.875 L
321.66 368.182 L
323.83 373.61 L
326 373.182 L
328.17 374.328 L
330.34 375.219 L
332.51 373.384 L
334.68 370.593 L
336.85 369.662 L
339.02 374.717 L
341.19 378.897 L
343.36 382.795 L
345.53 380.099 L
347.7 383.412 L
349.87 375.784 L
352.04 371.925 L
354.21 369.894 L
356.38 368.931 L
358.55 366.488 L
360.72 360.224 L
362.89 363.607 L
365.06 361.094 L
367.23 357.12 L
369.4 361.076 L
371.57 369.211 L
373.74 367.805 L
375.91 372.947 L
378.08 378.682 L
380.25 376.046 L
382.42 375.597 L
384.59 370.986 L
386.76 372.368 L
388.93 363.376 L
391.1 366.467 L
393.27 362.519 L
395.44 351.004 L
397.61 344.105 L
399.78 358.862 L
401.95 343.994 L
404.12 344.629 L
406.29 344.319 L
408.46 344.756 L
410.63 345.885 L
412.8 359.805 L
414.97 364.416 L
417.14 363.204 L
419.31 362.283 L
421.48 362.396 L
423.65 362.476 L
425.82 360.869 L
427.99 405.222 L
430.16 404.566 L
432.33 404.513 L
434.5 400.341 L
436.67 401.231 L
438.84 398.273 L
441.01 403.477 L
443.18 405.845 L
445.35 403.249 L
447.52 402.491 L
449.69 405.24 L
451.86 401.279 L
454.03 406.177 L
456.2 398.284 L
458.37 403.72 L
460.54 399.91 L
462.71 398.176 L
464.88 398.345 L
467.05 393.671 L
469.22 389.915 L
471.39 384.721 L
473.56 378.234 L
475.73 383.973 L
477.9 375.017 L
480.07 374.982 L
482.24 379.171 L
484.41 375.627 L
486.58 381.177 L
488.75 377.366 L
490.92 377.318 L
493.09 388.132 L
495.26 390.133 L
497.43 388.965 L
499.6 388.623 L
501.77 383.706 L
503.94 383.409 L
506.11 387.779 L
508.28 389.25 L
510.45 387.12 L
512.62 385.038 L
514.79 384.855 L
516.96 386.915 L
519.13 381.273 L
521.3 380.781 L
523.47 375.308 L
525.64 372.708 L
527.81 368.272 L
529.98 367.87 L
532.15 362.8 L
534.32 364.003 L
536.49 359.984 L
538.66 367.48 L
540.83 371.292 L
543 365.055 L
545.17 363.854 L
547.34 365.211 L
549.51 359.185 L
551.68 357.6 L
553.85 360.69 L
556.02 359.035 L
558.19 359.717 L
560.36 349.248 L
562.53 350.88 L
564.7 351.965 L
566.87 354.419 L
569.04 361.212 L
571.21 369.921 L
573.38 376.267 L
575.55 371.692 L
577.72 373.287 L
579.89 370.762 L
582.06 370.052 L
584.23 377.747 L
586.4 374.146 L
588.57 375.409 L
590.74 370.527 L
592.91 368.432 L
595.08 375.37 L
597.25 368.611 L
599.42 368.29 L
601.59 364.15 L
603.76 364.889 L
605.93 372.292 L
608.1 365.891 L
610.27 367.727 L
612.44 361.599 L
614.61 366.794 L
616.78 373.507 L
618.95 374.187 L
621.12 373.337 L
623.29 367.833 L
625.46 364.692 L
627.63 361.53 L
629.8 367.208 L
631.97 365.917 L
634.14 366.316 L
636.31 363.805 L
638.48 361.576 L
640.65 358.507 L
642.82 354.803 L
644.99 356.524 L
647.16 352.665 L
649.33 357.518 L
651.5 353.81 L
653.67 356.524 L
655.84 349.176 L
658.01 346.68 L
660.18 342.081 L
662.35 338.136 L
664.52 338.039 L
666.69 333.791 L
668.86 334.464 L
671.03 327.854 L
673.2 310.713 L
675.37 306.08 L
677.54 309.857 L
679.71 312.079 L
681.88 308.584 L
684.05 305.896 L
686.22 303.602 L
688.39 292.608 L
690.56 296.63 L
692.73 299.733 L
694.9 303.926 L
697.07 304.63 L
699.24 295.205 L
701.41 284.591 L
703.58 293.223 L
705.75 301.627 L
707.92 300.059 L
710.09 310.078 L
712.26 314.917 L
714.43 307.264 L
716.6 299.254 L
718.77 309.583 L
720.94 313.438 L
723.11 304.73 L
725.28 285.079 L
727.45 293.633 L
S
GR
GS
[0.5 0 0 0.5 0 0] CT
0.929 0.694 0.125 RC
1 LJ
N
109 389.667 M
111.17 386.218 L
113.34 389.4 L
115.51 389.527 L
117.68 390.827 L
119.85 391.713 L
122.02 405.709 L
124.19 402.654 L
126.36 399.93 L
128.53 397.908 L
130.7 392.926 L
132.87 389.757 L
135.04 394.589 L
137.21 402.988 L
139.38 404.156 L
141.55 395.388 L
143.72 407.325 L
145.89 402.012 L
148.06 403.867 L
150.23 403.657 L
152.4 404.498 L
154.57 404.442 L
156.74 412.323 L
158.91 416.003 L
161.08 411.778 L
163.25 407.911 L
165.42 406.726 L
167.59 406.964 L
169.76 407.473 L
171.93 406.36 L
174.1 399.996 L
176.27 401.97 L
178.44 409.627 L
180.61 416.79 L
182.78 415.65 L
184.95 415.426 L
187.12 415.02 L
189.29 419.146 L
191.46 419.886 L
193.63 416.219 L
195.8 417.27 L
197.97 422.159 L
200.14 421.579 L
202.31 421.801 L
204.48 425.561 L
206.65 423.481 L
208.82 420.637 L
210.99 427.169 L
213.16 424.133 L
215.33 417.199 L
217.5 418.287 L
219.67 415.257 L
221.84 409.883 L
224.01 405.957 L
226.18 402.152 L
228.35 394.979 L
230.52 399.735 L
232.69 394.251 L
234.86 392.485 L
237.03 398.563 L
239.2 393.723 L
241.37 397.331 L
243.54 408.185 L
245.71 409.022 L
247.88 408.046 L
250.05 409.369 L
252.22 409.349 L
254.39 412.417 L
256.56 411.397 L
258.73 415.381 L
260.9 416.36 L
263.07 414.27 L
265.24 417.545 L
267.41 415.963 L
269.58 413.526 L
271.75 411.702 L
273.92 412.903 L
276.09 417.123 L
278.26 412.42 L
280.43 417.456 L
282.6 408.123 L
284.77 410.502 L
286.94 408.024 L
289.11 409.976 L
291.28 415.027 L
293.45 413.139 L
295.62 408.482 L
297.79 404.386 L
299.96 405.8 L
302.13 404.655 L
304.3 402.688 L
306.47 412.42 L
308.64 411.961 L
310.81 409.687 L
312.98 410.609 L
315.15 413.585 L
317.32 411.666 L
319.49 416.942 L
321.66 418.528 L
323.83 422.947 L
326 419.598 L
328.17 429.573 L
330.34 434.797 L
332.51 433.213 L
334.68 432.66 L
336.85 432.775 L
339.02 439.263 L
341.19 438.075 L
343.36 439.288 L
345.53 439.003 L
347.7 437.366 L
349.87 434.124 L
352.04 427.692 L
354.21 424.313 L
356.38 422.364 L
358.55 421.61 L
360.72 421.159 L
362.89 427.49 L
365.06 426.306 L
367.23 415.849 L
369.4 411.603 L
371.57 419.638 L
373.74 426.864 L
375.91 424.702 L
378.08 424.548 L
380.25 428.36 L
382.42 431.155 L
384.59 431.764 L
386.76 433.054 L
388.93 430.327 L
391.1 435.959 L
393.27 434.702 L
395.44 430.662 L
397.61 428.023 L
399.78 431.914 L
401.95 434.523 L
404.12 432.192 L
406.29 436.894 L
408.46 441.844 L
410.63 444.733 L
412.8 445.636 L
414.97 446.19 L
417.14 452.763 L
419.31 460.129 L
421.48 455.828 L
423.65 456.649 L
425.82 457.608 L
427.99 451.465 L
430.16 450.557 L
432.33 453.033 L
434.5 452.658 L
436.67 451.93 L
438.84 450.001 L
441.01 450.158 L
443.18 450.257 L
445.35 446.226 L
447.52 439.916 L
449.69 439.693 L
451.86 439.438 L
454.03 440.094 L
456.2 438.975 L
458.37 436.507 L
460.54 440.109 L
462.71 436.2 L
464.88 428.569 L
467.05 427.436 L
469.22 425.405 L
471.39 426.301 L
473.56 426.52 L
475.73 430.862 L
477.9 423.553 L
480.07 427.057 L
482.24 432.704 L
484.41 435.662 L
486.58 440.168 L
488.75 435.365 L
490.92 440.749 L
493.09 446.401 L
495.26 448.674 L
497.43 448.88 L
499.6 451.144 L
501.77 450.52 L
503.94 456.315 L
506.11 457.345 L
508.28 454.839 L
510.45 451.091 L
512.62 453.453 L
514.79 455.541 L
516.96 459.409 L
519.13 465.265 L
521.3 465.237 L
523.47 463.697 L
525.64 463.762 L
527.81 462.348 L
529.98 466.809 L
532.15 469.386 L
534.32 466.552 L
536.49 465.758 L
538.66 466.493 L
540.83 467.999 L
543 465.639 L
545.17 473.77 L
547.34 475.142 L
549.51 476.248 L
551.68 474.866 L
553.85 473.997 L
556.02 471.446 L
558.19 474.625 L
560.36 474.207 L
562.53 470.328 L
564.7 472.404 L
566.87 471.87 L
569.04 471.399 L
571.21 472.184 L
573.38 471.302 L
575.55 466.368 L
577.72 464.112 L
579.89 467.01 L
582.06 466.191 L
584.23 465.282 L
586.4 465.444 L
588.57 469.293 L
590.74 467.047 L
592.91 466.833 L
595.08 470.148 L
597.25 470.767 L
599.42 474.312 L
601.59 475.988 L
603.76 477.319 L
605.93 483.215 L
608.1 486.945 L
610.27 486.213 L
612.44 481.565 L
614.61 486.468 L
616.78 483.262 L
618.95 486.844 L
621.12 484.805 L
623.29 486.866 L
625.46 487.334 L
627.63 483.254 L
629.8 484.706 L
631.97 482.932 L
634.14 485.228 L
636.31 484.909 L
638.48 482.624 L
640.65 487.592 L
642.82 492.686 L
644.99 489.879 L
647.16 491.842 L
649.33 484.476 L
S
GR
GS
[0.5 0 0 0.5 0 0] CT
0 0.447 0.741 RC
1 LJ
N
675.37 131.551 M
760 111.562 L
S
GR
GS
[0.5 0 0 0.5 0 0] CT
0 0.447 0.741 RC
1 LJ
N
675.37 131.551 M
760 128.695 L
S
GR
GS
[0.5 0 0 0.5 0 0] CT
0 0.447 0.741 RC
1 LJ
N
675.37 131.551 M
760 145.829 L
S
GR
GS
[0.5 0 0 0.5 0 0] CT
0.851 0.325 0.098 RC
1 LJ
N
727.45 293.633 M
760 279.355 L
S
GR
GS
[0.5 0 0 0.5 0 0] CT
0.851 0.325 0.098 RC
1 LJ
N
727.45 293.633 M
760 287.922 L
S
GR
GS
[0.5 0 0 0.5 0 0] CT
0.851 0.325 0.098 RC
1 LJ
N
727.45 293.633 M
760 302.199 L
S
GR
GS
[0.5 0 0 0.5 0 0] CT
0.929 0.694 0.125 RC
1 LJ
N
649.33 484.476 M
760 458.776 L
S
GR
GS
[0.5 0 0 0.5 0 0] CT
0.929 0.694 0.125 RC
1 LJ
N
649.33 484.476 M
760 481.62 L
S
GR
GS
[0.5 0 0 0.5 0 0] CT
0.929 0.694 0.125 RC
1 LJ
N
649.33 484.476 M
760 507.32 L
S
GR
GS
[0.5 0 0 0.5 0 0] CT
0 0.447 0.741 RC
1 LJ
N
675.37 131.551 M
760 102.995 L
S
GR
GS
[0.5 0 0 0.5 0 0] CT
0 0.447 0.741 RC
1 LJ
N
675.37 131.551 M
760 131.551 L
S
GR
GS
[0.5 0 0 0.5 0 0] CT
0 0.447 0.741 RC
1 LJ
N
675.37 131.551 M
760 154.395 L
S
GR
GS
[0.5 0 0 0.5 0 0] CT
0.851 0.325 0.098 RC
1 LJ
N
727.45 293.633 M
760 285.066 L
S
GR
GS
[0.5 0 0 0.5 0 0] CT
0.851 0.325 0.098 RC
1 LJ
N
727.45 293.633 M
760 290.777 L
S
GR
GS
[0.5 0 0 0.5 0 0] CT
0.851 0.325 0.098 RC
1 LJ
N
727.45 293.633 M
760 305.055 L
S
GR
GS
[0.5 0 0 0.5 0 0] CT
0.929 0.694 0.125 RC
1 LJ
N
649.33 484.476 M
760 464.487 L
S
GR
GS
[0.5 0 0 0.5 0 0] CT
0.929 0.694 0.125 RC
1 LJ
N
649.33 484.476 M
760 484.476 L
S
GR
GS
[0.5 0 0 0.5 0 0] CT
0.929 0.694 0.125 RC
1 LJ
N
649.33 484.476 M
760 498.753 L
S
GR
GS
[0.5 0 0 0.5 0 0] CT
0 0.447 0.741 RC
1 LJ
N
675.37 561 M
675.37 513.283 L
675.37 465.567 L
675.37 417.85 L
675.37 370.134 L
675.37 322.417 L
675.37 274.701 L
675.37 226.984 L
675.37 179.268 L
675.37 131.551 L
S
GR
GS
[0.5 0 0 0.5 0 0] CT
0.851 0.325 0.098 RC
1 LJ
N
727.45 561 M
727.45 531.293 L
727.45 501.585 L
727.45 471.878 L
727.45 442.17 L
727.45 412.463 L
727.45 382.755 L
727.45 353.048 L
727.45 323.34 L
727.45 293.633 L
S
GR
GS
[0.5 0 0 0.5 0 0] CT
0.929 0.694 0.125 RC
1 LJ
N
649.33 561 M
649.33 552.497 L
649.33 543.995 L
649.33 535.492 L
649.33 526.989 L
649.33 518.486 L
649.33 509.984 L
649.33 501.481 L
649.33 492.978 L
649.33 484.476 L
S
GR
%%Trailer
%%Pages: 1
%%EOF
