%!PS-Adobe-3.0 EPSF-3.0
%%Creator: (MATLAB, The Mathworks, Inc. Version 9.2.0.556344 \(R2017a\). Operating System: Windows 8)
%%Title: D:/WorkInProgress/Matlab/Thesis/NewPathVIbrato.eps
%%CreationDate: 2017-06-11T20:11:24
%%Pages: (atend)
%%BoundingBox: 0 0 420 315
%%LanguageLevel: 3
%%EndComments
%%BeginProlog
%%BeginResource: procset (Apache XML Graphics Std ProcSet) 1.2 0
%%Version: 1.2 0
%%Copyright: (Copyright 2001-2003,2010 The Apache Software Foundation. License terms: http://www.apache.org/licenses/LICENSE-2.0)
/bd{bind def}bind def
/ld{load def}bd
/GR/grestore ld
/M/moveto ld
/LJ/setlinejoin ld
/C/curveto ld
/f/fill ld
/LW/setlinewidth ld
/GC/setgray ld
/t/show ld
/N/newpath ld
/CT/concat ld
/cp/closepath ld
/S/stroke ld
/L/lineto ld
/CC/setcmykcolor ld
/A/ashow ld
/GS/gsave ld
/RC/setrgbcolor ld
/RM/rmoveto ld
/ML/setmiterlimit ld
/re {4 2 roll M
1 index 0 rlineto
0 exch rlineto
neg 0 rlineto
cp } bd
/_ctm matrix def
/_tm matrix def
/BT { _ctm currentmatrix pop matrix _tm copy pop 0 0 moveto } bd
/ET { _ctm setmatrix } bd
/iTm { _ctm setmatrix _tm concat } bd
/Tm { _tm astore pop iTm 0 0 moveto } bd
/ux 0.0 def
/uy 0.0 def
/F {
  /Tp exch def
  /Tf exch def
  Tf findfont Tp scalefont setfont
  /cf Tf def  /cs Tp def
} bd
/ULS {currentpoint /uy exch def /ux exch def} bd
/ULE {
  /Tcx currentpoint pop def
  gsave
  newpath
  cf findfont cs scalefont dup
  /FontMatrix get 0 get /Ts exch def /FontInfo get dup
  /UnderlinePosition get Ts mul /To exch def
  /UnderlineThickness get Ts mul /Tt exch def
  ux uy To add moveto  Tcx uy To add lineto
  Tt setlinewidth stroke
  grestore
} bd
/OLE {
  /Tcx currentpoint pop def
  gsave
  newpath
  cf findfont cs scalefont dup
  /FontMatrix get 0 get /Ts exch def /FontInfo get dup
  /UnderlinePosition get Ts mul /To exch def
  /UnderlineThickness get Ts mul /Tt exch def
  ux uy To add cs add moveto Tcx uy To add cs add lineto
  Tt setlinewidth stroke
  grestore
} bd
/SOE {
  /Tcx currentpoint pop def
  gsave
  newpath
  cf findfont cs scalefont dup
  /FontMatrix get 0 get /Ts exch def /FontInfo get dup
  /UnderlinePosition get Ts mul /To exch def
  /UnderlineThickness get Ts mul /Tt exch def
  ux uy To add cs 10 mul 26 idiv add moveto Tcx uy To add cs 10 mul 26 idiv add lineto
  Tt setlinewidth stroke
  grestore
} bd
/QT {
/Y22 exch store
/X22 exch store
/Y21 exch store
/X21 exch store
currentpoint
/Y21 load 2 mul add 3 div exch
/X21 load 2 mul add 3 div exch
/X21 load 2 mul /X22 load add 3 div
/Y21 load 2 mul /Y22 load add 3 div
/X22 load /Y22 load curveto
} bd
/SSPD {
dup length /d exch dict def
{
/v exch def
/k exch def
currentpagedevice k known {
/cpdv currentpagedevice k get def
v cpdv ne {
/upd false def
/nullv v type /nulltype eq def
/nullcpdv cpdv type /nulltype eq def
nullv nullcpdv or
{
/upd true def
} {
/sametype v type cpdv type eq def
sametype {
v type /arraytype eq {
/vlen v length def
/cpdvlen cpdv length def
vlen cpdvlen eq {
0 1 vlen 1 sub {
/i exch def
/obj v i get def
/cpdobj cpdv i get def
obj cpdobj ne {
/upd true def
exit
} if
} for
} {
/upd true def
} ifelse
} {
v type /dicttype eq {
v {
/dv exch def
/dk exch def
/cpddv cpdv dk get def
dv cpddv ne {
/upd true def
exit
} if
} forall
} {
/upd true def
} ifelse
} ifelse
} if
} ifelse
upd true eq {
d k v put
} if
} if
} if
} forall
d length 0 gt {
d setpagedevice
} if
} bd
/RE { % /NewFontName [NewEncodingArray] /FontName RE -
  findfont dup length dict begin
  {
    1 index /FID ne
    {def} {pop pop} ifelse
  } forall
  /Encoding exch def
  /FontName 1 index def
  currentdict definefont pop
  end
} bind def
%%EndResource
%%BeginResource: procset (Apache XML Graphics EPS ProcSet) 1.0 0
%%Version: 1.0 0
%%Copyright: (Copyright 2002-2003 The Apache Software Foundation. License terms: http://www.apache.org/licenses/LICENSE-2.0)
/BeginEPSF { %def
/b4_Inc_state save def         % Save state for cleanup
/dict_count countdictstack def % Count objects on dict stack
/op_count count 1 sub def      % Count objects on operand stack
userdict begin                 % Push userdict on dict stack
/showpage { } def              % Redefine showpage, { } = null proc
0 setgray 0 setlinecap         % Prepare graphics state
1 setlinewidth 0 setlinejoin
10 setmiterlimit [ ] 0 setdash newpath
/languagelevel where           % If level not equal to 1 then
{pop languagelevel             % set strokeadjust and
1 ne                           % overprint to their defaults.
{false setstrokeadjust false setoverprint
} if
} if
} bd
/EndEPSF { %def
count op_count sub {pop} repeat            % Clean up stacks
countdictstack dict_count sub {end} repeat
b4_Inc_state restore
} bd
%%EndResource
%FOPBeginFontDict
%%IncludeResource: font Courier-Bold
%%IncludeResource: font Helvetica
%%IncludeResource: font Courier-BoldOblique
%%IncludeResource: font Courier-Oblique
%%IncludeResource: font Times-Roman
%%IncludeResource: font Helvetica-BoldOblique
%%IncludeResource: font Helvetica-Bold
%%IncludeResource: font Helvetica-Oblique
%%IncludeResource: font Times-BoldItalic
%%IncludeResource: font Courier
%%IncludeResource: font Times-Italic
%%IncludeResource: font Times-Bold
%%IncludeResource: font Symbol
%%IncludeResource: font ZapfDingbats
%FOPEndFontDict
%%BeginResource: encoding WinAnsiEncoding
/WinAnsiEncoding [
/.notdef /.notdef /.notdef /.notdef /.notdef
/.notdef /.notdef /.notdef /.notdef /.notdef
/.notdef /.notdef /.notdef /.notdef /.notdef
/.notdef /.notdef /.notdef /.notdef /.notdef
/.notdef /.notdef /.notdef /.notdef /.notdef
/.notdef /.notdef /.notdef /.notdef /.notdef
/.notdef /.notdef /space /exclam /quotedbl
/numbersign /dollar /percent /ampersand /quotesingle
/parenleft /parenright /asterisk /plus /comma
/hyphen /period /slash /zero /one
/two /three /four /five /six
/seven /eight /nine /colon /semicolon
/less /equal /greater /question /at
/A /B /C /D /E
/F /G /H /I /J
/K /L /M /N /O
/P /Q /R /S /T
/U /V /W /X /Y
/Z /bracketleft /backslash /bracketright /asciicircum
/underscore /quoteleft /a /b /c
/d /e /f /g /h
/i /j /k /l /m
/n /o /p /q /r
/s /t /u /v /w
/x /y /z /braceleft /bar
/braceright /asciitilde /bullet /Euro /bullet
/quotesinglbase /florin /quotedblbase /ellipsis /dagger
/daggerdbl /circumflex /perthousand /Scaron /guilsinglleft
/OE /bullet /Zcaron /bullet /bullet
/quoteleft /quoteright /quotedblleft /quotedblright /bullet
/endash /emdash /asciitilde /trademark /scaron
/guilsinglright /oe /bullet /zcaron /Ydieresis
/space /exclamdown /cent /sterling /currency
/yen /brokenbar /section /dieresis /copyright
/ordfeminine /guillemotleft /logicalnot /sfthyphen /registered
/macron /degree /plusminus /twosuperior /threesuperior
/acute /mu /paragraph /middot /cedilla
/onesuperior /ordmasculine /guillemotright /onequarter /onehalf
/threequarters /questiondown /Agrave /Aacute /Acircumflex
/Atilde /Adieresis /Aring /AE /Ccedilla
/Egrave /Eacute /Ecircumflex /Edieresis /Igrave
/Iacute /Icircumflex /Idieresis /Eth /Ntilde
/Ograve /Oacute /Ocircumflex /Otilde /Odieresis
/multiply /Oslash /Ugrave /Uacute /Ucircumflex
/Udieresis /Yacute /Thorn /germandbls /agrave
/aacute /acircumflex /atilde /adieresis /aring
/ae /ccedilla /egrave /eacute /ecircumflex
/edieresis /igrave /iacute /icircumflex /idieresis
/eth /ntilde /ograve /oacute /ocircumflex
/otilde /odieresis /divide /oslash /ugrave
/uacute /ucircumflex /udieresis /yacute /thorn
/ydieresis
] def
%%EndResource
%FOPBeginFontReencode
/Courier-Bold findfont
dup length dict begin
  {1 index /FID ne {def} {pop pop} ifelse} forall
  /Encoding WinAnsiEncoding def
  currentdict
end
/Courier-Bold exch definefont pop
/Helvetica findfont
dup length dict begin
  {1 index /FID ne {def} {pop pop} ifelse} forall
  /Encoding WinAnsiEncoding def
  currentdict
end
/Helvetica exch definefont pop
/Courier-BoldOblique findfont
dup length dict begin
  {1 index /FID ne {def} {pop pop} ifelse} forall
  /Encoding WinAnsiEncoding def
  currentdict
end
/Courier-BoldOblique exch definefont pop
/Courier-Oblique findfont
dup length dict begin
  {1 index /FID ne {def} {pop pop} ifelse} forall
  /Encoding WinAnsiEncoding def
  currentdict
end
/Courier-Oblique exch definefont pop
/Times-Roman findfont
dup length dict begin
  {1 index /FID ne {def} {pop pop} ifelse} forall
  /Encoding WinAnsiEncoding def
  currentdict
end
/Times-Roman exch definefont pop
/Helvetica-BoldOblique findfont
dup length dict begin
  {1 index /FID ne {def} {pop pop} ifelse} forall
  /Encoding WinAnsiEncoding def
  currentdict
end
/Helvetica-BoldOblique exch definefont pop
/Helvetica-Bold findfont
dup length dict begin
  {1 index /FID ne {def} {pop pop} ifelse} forall
  /Encoding WinAnsiEncoding def
  currentdict
end
/Helvetica-Bold exch definefont pop
/Helvetica-Oblique findfont
dup length dict begin
  {1 index /FID ne {def} {pop pop} ifelse} forall
  /Encoding WinAnsiEncoding def
  currentdict
end
/Helvetica-Oblique exch definefont pop
/Times-BoldItalic findfont
dup length dict begin
  {1 index /FID ne {def} {pop pop} ifelse} forall
  /Encoding WinAnsiEncoding def
  currentdict
end
/Times-BoldItalic exch definefont pop
/Courier findfont
dup length dict begin
  {1 index /FID ne {def} {pop pop} ifelse} forall
  /Encoding WinAnsiEncoding def
  currentdict
end
/Courier exch definefont pop
/Times-Italic findfont
dup length dict begin
  {1 index /FID ne {def} {pop pop} ifelse} forall
  /Encoding WinAnsiEncoding def
  currentdict
end
/Times-Italic exch definefont pop
/Times-Bold findfont
dup length dict begin
  {1 index /FID ne {def} {pop pop} ifelse} forall
  /Encoding WinAnsiEncoding def
  currentdict
end
/Times-Bold exch definefont pop
%FOPEndFontReencode
%%EndProlog
%%Page: 1 1
%%PageBoundingBox: 0 0 420 315
%%BeginPageSetup
[1 0 0 -1 0 315] CT
%%EndPageSetup
GS
[0.5 0 0 0.5 0 0] CT
1 GC
N
0 0 840 630 re
f
GR
GS
[0.5 0 0 0.5 0 0] CT
1 GC
N
0 0 840 630 re
f
GR
GS
[0.5 0 0 0.5 0 0] CT
1 GC
N
109 561 M
760 561 L
760 47 L
109 47 L
cp
f
GR
GS
[0.5 0 0 0.5 0 0] CT
0.873 GC
1 LJ
N
109 561 M
109 47 L
S
GR
GS
[0.5 0 0 0.5 0 0] CT
0.873 GC
1 LJ
N
271.75 561 M
271.75 47 L
S
GR
GS
[0.5 0 0 0.5 0 0] CT
0.873 GC
1 LJ
N
434.5 561 M
434.5 47 L
S
GR
GS
[0.5 0 0 0.5 0 0] CT
0.873 GC
1 LJ
N
597.25 561 M
597.25 47 L
S
GR
GS
[0.5 0 0 0.5 0 0] CT
0.873 GC
1 LJ
N
760 561 M
760 47 L
S
GR
GS
[0.5 0 0 0.5 0 0] CT
0.873 GC
1 LJ
N
760 561 M
109 561 L
S
GR
GS
[0.5 0 0 0.5 0 0] CT
0.873 GC
1 LJ
N
760 509.6 M
109 509.6 L
S
GR
GS
[0.5 0 0 0.5 0 0] CT
0.873 GC
1 LJ
N
760 458.2 M
109 458.2 L
S
GR
GS
[0.5 0 0 0.5 0 0] CT
0.873 GC
1 LJ
N
760 406.8 M
109 406.8 L
S
GR
GS
[0.5 0 0 0.5 0 0] CT
0.873 GC
1 LJ
N
760 355.4 M
109 355.4 L
S
GR
GS
[0.5 0 0 0.5 0 0] CT
0.873 GC
1 LJ
N
760 304 M
109 304 L
S
GR
GS
[0.5 0 0 0.5 0 0] CT
0.873 GC
1 LJ
N
760 252.6 M
109 252.6 L
S
GR
GS
[0.5 0 0 0.5 0 0] CT
0.873 GC
1 LJ
N
760 201.2 M
109 201.2 L
S
GR
GS
[0.5 0 0 0.5 0 0] CT
0.873 GC
1 LJ
N
760 149.8 M
109 149.8 L
S
GR
GS
[0.5 0 0 0.5 0 0] CT
0.873 GC
1 LJ
N
760 98.4 M
109 98.4 L
S
GR
GS
[0.5 0 0 0.5 0 0] CT
0.873 GC
1 LJ
N
760 47 M
109 47 L
S
GR
GS
[0.5 0 0 0.5 0 0] CT
0.149 GC
2 setlinecap
1 LJ
N
109 561 M
760 561 L
S
GR
GS
[0.5 0 0 0.5 0 0] CT
0.149 GC
2 setlinecap
1 LJ
N
109 47 M
760 47 L
S
GR
GS
[0.5 0 0 0.5 0 0] CT
0.149 GC
2 setlinecap
1 LJ
N
109 561 M
109 554.49 L
S
GR
GS
[0.5 0 0 0.5 0 0] CT
0.149 GC
2 setlinecap
1 LJ
N
271.75 561 M
271.75 554.49 L
S
GR
GS
[0.5 0 0 0.5 0 0] CT
0.149 GC
2 setlinecap
1 LJ
N
434.5 561 M
434.5 554.49 L
S
GR
GS
[0.5 0 0 0.5 0 0] CT
0.149 GC
2 setlinecap
1 LJ
N
597.25 561 M
597.25 554.49 L
S
GR
GS
[0.5 0 0 0.5 0 0] CT
0.149 GC
2 setlinecap
1 LJ
N
760 561 M
760 554.49 L
S
GR
GS
[0.5 0 0 0.5 0 0] CT
0.149 GC
2 setlinecap
1 LJ
N
109 47 M
109 53.51 L
S
GR
GS
[0.5 0 0 0.5 0 0] CT
0.149 GC
2 setlinecap
1 LJ
N
271.75 47 M
271.75 53.51 L
S
GR
GS
[0.5 0 0 0.5 0 0] CT
0.149 GC
2 setlinecap
1 LJ
N
434.5 47 M
434.5 53.51 L
S
GR
GS
[0.5 0 0 0.5 0 0] CT
0.149 GC
2 setlinecap
1 LJ
N
597.25 47 M
597.25 53.51 L
S
GR
GS
[0.5 0 0 0.5 0 0] CT
0.149 GC
2 setlinecap
1 LJ
N
760 47 M
760 53.51 L
S
GR
GS
[0.5 0 0 0.5 54.5 284.5] CT
0.149 GC
/Helvetica 20 F
GS
[1 0 0 1 0 0] CT
-6 21 moveto 
1 -1 scale
(0) t 
GR
GR
GS
[0.5 0 0 0.5 135.875 284.5] CT
0.149 GC
/Helvetica 20 F
GS
[1 0 0 1 0 0] CT
-14 21 moveto 
1 -1 scale
(0.5) t 
GR
GR
GS
[0.5 0 0 0.5 217.25 284.5] CT
0.149 GC
/Helvetica 20 F
GS
[1 0 0 1 0 0] CT
-6 21 moveto 
1 -1 scale
(1) t 
GR
GR
GS
[0.5 0 0 0.5 298.625 284.5] CT
0.149 GC
/Helvetica 20 F
GS
[1 0 0 1 0 0] CT
-14 21 moveto 
1 -1 scale
(1.5) t 
GR
GR
GS
[0.5 0 0 0.5 380 284.5] CT
0.149 GC
/Helvetica 20 F
GS
[1 0 0 1 0 0] CT
-6 21 moveto 
1 -1 scale
(2) t 
GR
GR
GS
[0.5 0 0 0.5 217.25015 298.5] CT
0.149 GC
/Helvetica 22 F
GS
[1 0 0 1 0 0] CT
-83 23 moveto 
1 -1 scale
(Time To Maturity) t 
GR
GR
GS
[0.5 0 0 0.5 0 0] CT
0.149 GC
2 setlinecap
1 LJ
N
109 561 M
109 47 L
S
GR
GS
[0.5 0 0 0.5 0 0] CT
0.149 GC
2 setlinecap
1 LJ
N
760 561 M
760 47 L
S
GR
GS
[0.5 0 0 0.5 0 0] CT
0.149 GC
2 setlinecap
1 LJ
N
109 561 M
115.51 561 L
S
GR
GS
[0.5 0 0 0.5 0 0] CT
0.149 GC
2 setlinecap
1 LJ
N
109 509.6 M
115.51 509.6 L
S
GR
GS
[0.5 0 0 0.5 0 0] CT
0.149 GC
2 setlinecap
1 LJ
N
109 458.2 M
115.51 458.2 L
S
GR
GS
[0.5 0 0 0.5 0 0] CT
0.149 GC
2 setlinecap
1 LJ
N
109 406.8 M
115.51 406.8 L
S
GR
GS
[0.5 0 0 0.5 0 0] CT
0.149 GC
2 setlinecap
1 LJ
N
109 355.4 M
115.51 355.4 L
S
GR
GS
[0.5 0 0 0.5 0 0] CT
0.149 GC
2 setlinecap
1 LJ
N
109 304 M
115.51 304 L
S
GR
GS
[0.5 0 0 0.5 0 0] CT
0.149 GC
2 setlinecap
1 LJ
N
109 252.6 M
115.51 252.6 L
S
GR
GS
[0.5 0 0 0.5 0 0] CT
0.149 GC
2 setlinecap
1 LJ
N
109 201.2 M
115.51 201.2 L
S
GR
GS
[0.5 0 0 0.5 0 0] CT
0.149 GC
2 setlinecap
1 LJ
N
109 149.8 M
115.51 149.8 L
S
GR
GS
[0.5 0 0 0.5 0 0] CT
0.149 GC
2 setlinecap
1 LJ
N
109 98.4 M
115.51 98.4 L
S
GR
GS
[0.5 0 0 0.5 0 0] CT
0.149 GC
2 setlinecap
1 LJ
N
109 47 M
115.51 47 L
S
GR
GS
[0.5 0 0 0.5 0 0] CT
0.149 GC
2 setlinecap
1 LJ
N
760 561 M
753.49 561 L
S
GR
GS
[0.5 0 0 0.5 0 0] CT
0.149 GC
2 setlinecap
1 LJ
N
760 509.6 M
753.49 509.6 L
S
GR
GS
[0.5 0 0 0.5 0 0] CT
0.149 GC
2 setlinecap
1 LJ
N
760 458.2 M
753.49 458.2 L
S
GR
GS
[0.5 0 0 0.5 0 0] CT
0.149 GC
2 setlinecap
1 LJ
N
760 406.8 M
753.49 406.8 L
S
GR
GS
[0.5 0 0 0.5 0 0] CT
0.149 GC
2 setlinecap
1 LJ
N
760 355.4 M
753.49 355.4 L
S
GR
GS
[0.5 0 0 0.5 0 0] CT
0.149 GC
2 setlinecap
1 LJ
N
760 304 M
753.49 304 L
S
GR
GS
[0.5 0 0 0.5 0 0] CT
0.149 GC
2 setlinecap
1 LJ
N
760 252.6 M
753.49 252.6 L
S
GR
GS
[0.5 0 0 0.5 0 0] CT
0.149 GC
2 setlinecap
1 LJ
N
760 201.2 M
753.49 201.2 L
S
GR
GS
[0.5 0 0 0.5 0 0] CT
0.149 GC
2 setlinecap
1 LJ
N
760 149.8 M
753.49 149.8 L
S
GR
GS
[0.5 0 0 0.5 0 0] CT
0.149 GC
2 setlinecap
1 LJ
N
760 98.4 M
753.49 98.4 L
S
GR
GS
[0.5 0 0 0.5 0 0] CT
0.149 GC
2 setlinecap
1 LJ
N
760 47 M
753.49 47 L
S
GR
GS
[0.5 0 0 0.5 50.5 280.5] CT
0.149 GC
/Helvetica 20 F
GS
[1 0 0 1 0 0] CT
-23 8 moveto 
1 -1 scale
(60) t 
GR
GR
GS
[0.5 0 0 0.5 50.5 254.8] CT
0.149 GC
/Helvetica 20 F
GS
[1 0 0 1 0 0] CT
-23 8 moveto 
1 -1 scale
(65) t 
GR
GR
GS
[0.5 0 0 0.5 50.5 229.10001] CT
0.149 GC
/Helvetica 20 F
GS
[1 0 0 1 0 0] CT
-23 8 moveto 
1 -1 scale
(70) t 
GR
GR
GS
[0.5 0 0 0.5 50.5 203.39999] CT
0.149 GC
/Helvetica 20 F
GS
[1 0 0 1 0 0] CT
-23 8 moveto 
1 -1 scale
(75) t 
GR
GR
GS
[0.5 0 0 0.5 50.5 177.7] CT
0.149 GC
/Helvetica 20 F
GS
[1 0 0 1 0 0] CT
-23 8 moveto 
1 -1 scale
(80) t 
GR
GR
GS
[0.5 0 0 0.5 50.5 152] CT
0.149 GC
/Helvetica 20 F
GS
[1 0 0 1 0 0] CT
-23 8 moveto 
1 -1 scale
(85) t 
GR
GR
GS
[0.5 0 0 0.5 50.5 126.3] CT
0.149 GC
/Helvetica 20 F
GS
[1 0 0 1 0 0] CT
-23 8 moveto 
1 -1 scale
(90) t 
GR
GR
GS
[0.5 0 0 0.5 50.5 100.6] CT
0.149 GC
/Helvetica 20 F
GS
[1 0 0 1 0 0] CT
-23 8 moveto 
1 -1 scale
(95) t 
GR
GR
GS
[0.5 0 0 0.5 50.5 74.9] CT
0.149 GC
/Helvetica 20 F
GS
[1 0 0 1 0 0] CT
-34 8 moveto 
1 -1 scale
(100) t 
GR
GR
GS
[0.5 0 0 0.5 50.5 49.2] CT
0.149 GC
/Helvetica 20 F
GS
[1 0 0 1 0 0] CT
-34 8 moveto 
1 -1 scale
(105) t 
GR
GR
GS
[0.5 0 0 0.5 50.5 23.5] CT
0.149 GC
/Helvetica 20 F
GS
[1 0 0 1 0 0] CT
-34 8 moveto 
1 -1 scale
(110) t 
GR
GR
GS
[0 -0.5 0.5 0 30.5 151.99988] CT
0.149 GC
/Helvetica 22 F
GS
[1 0 0 1 0 0] CT
-56 -5 moveto 
1 -1 scale
(Stock Price) t 
GR
GR
GS
[0.5 0 0 0.5 217.25021 22.125] CT
/Helvetica-Bold 22 F
GS
[1 0 0 1 0 0] CT
-101.5 -5 moveto 
1 -1 scale
(Vibrato MonteCarlo) t 
GR
GR
GS
[0.5 0 0 0.5 0 0] CT
0 0.447 0.741 RC
1 LJ
N
109 149.8 M
111.17 140.65 L
113.34 162.458 L
115.51 174.736 L
117.68 144.939 L
119.85 190.924 L
122.02 223.048 L
124.19 208.145 L
126.36 217.159 L
128.53 236.667 L
130.7 241.278 L
132.87 234.954 L
135.04 222.908 L
137.21 223.347 L
139.38 207.036 L
141.55 205.122 L
143.72 197.899 L
145.89 200.707 L
148.06 205.369 L
150.23 221.518 L
152.4 201.431 L
154.57 193.727 L
156.74 201.206 L
158.91 202.636 L
161.08 216.544 L
163.25 216.1 L
165.42 227.507 L
167.59 234.348 L
169.76 246.853 L
171.93 277.627 L
174.1 273.626 L
176.27 292.186 L
178.44 316.994 L
180.61 318.711 L
182.78 341.418 L
184.95 354.435 L
187.12 364.776 L
189.29 361.241 L
191.46 371.093 L
193.63 372.976 L
195.8 381.207 L
197.97 378.669 L
200.14 373.895 L
202.31 361.182 L
204.48 363.286 L
206.65 360.444 L
208.82 350.197 L
210.99 374.517 L
213.16 366.808 L
215.33 373.097 L
217.5 371.34 L
219.67 358.925 L
221.84 375.539 L
224.01 390.96 L
226.18 408.017 L
228.35 387.288 L
230.52 384.605 L
232.69 386.849 L
234.86 409.733 L
237.03 401.092 L
239.2 397.796 L
241.37 384.208 L
243.54 371.058 L
245.71 359.774 L
247.88 356.356 L
250.05 377.275 L
252.22 389.211 L
254.39 381.447 L
256.56 367.014 L
258.73 370.21 L
260.9 375.111 L
263.07 391.46 L
265.24 389.756 L
267.41 382.645 L
269.58 406.587 L
271.75 414.284 L
273.92 430.936 L
276.09 443.594 L
278.26 463.357 L
280.43 455.219 L
282.6 448.332 L
284.77 463.912 L
286.94 499.129 L
289.11 500.002 L
291.28 513.649 L
293.45 501.004 L
295.62 506.971 L
297.79 501.64 L
299.96 484.386 L
302.13 492.116 L
304.3 490.99 L
306.47 488.334 L
308.64 488.402 L
310.81 496.179 L
312.98 504.589 L
315.15 503.652 L
317.32 497.768 L
319.49 483.274 L
321.66 488.733 L
323.83 488.727 L
326 474.145 L
328.17 483.478 L
330.34 493.288 L
332.51 485.258 L
334.68 492.977 L
336.85 478.23 L
339.02 476.628 L
341.19 470.399 L
343.36 471.415 L
345.53 467.131 L
347.7 479.72 L
349.87 485.39 L
352.04 476.489 L
354.21 470.717 L
356.38 465.978 L
358.55 468.745 L
360.72 491.185 L
362.89 495.648 L
365.06 489.121 L
367.23 481.893 L
369.4 491.597 L
371.57 502.869 L
373.74 506.901 L
375.91 502.736 L
378.08 509.553 L
380.25 504.209 L
382.42 513.48 L
384.59 512.048 L
386.76 509.265 L
388.93 511.755 L
391.1 502.714 L
393.27 503.09 L
395.44 490.316 L
397.61 494.693 L
399.78 486.915 L
401.95 489.767 L
404.12 496.984 L
406.29 490.303 L
408.46 489.306 L
410.63 479.497 L
412.8 473.407 L
414.97 460.154 L
417.14 455.794 L
419.31 440.89 L
421.48 443.022 L
423.65 421.67 L
425.82 426.953 L
427.99 426.042 L
430.16 418.744 L
432.33 420.833 L
434.5 415.69 L
436.67 416.593 L
438.84 419.524 L
441.01 413.779 L
443.18 403.687 L
445.35 411.279 L
447.52 425.951 L
449.69 416.661 L
451.86 406.908 L
454.03 412.731 L
456.2 420.983 L
458.37 427.852 L
460.54 418.294 L
462.71 403.194 L
464.88 403.085 L
467.05 416.082 L
469.22 395.061 L
471.39 382.453 L
473.56 378.789 L
475.73 356.887 L
477.9 349.239 L
480.07 349.374 L
482.24 321.704 L
484.41 319.78 L
486.58 328.045 L
488.75 302.962 L
490.92 296.119 L
493.09 305.354 L
495.26 301.604 L
497.43 312.265 L
499.6 302.722 L
501.77 321.675 L
503.94 312.698 L
506.11 285.479 L
508.28 292.237 L
510.45 299.682 L
512.62 322.469 L
514.79 312.574 L
516.96 296.668 L
519.13 325.163 L
521.3 305.731 L
523.47 297.803 L
525.64 291.533 L
527.81 273.587 L
529.98 277.505 L
532.15 289.845 L
534.32 296.438 L
536.49 295.237 L
538.66 295.14 L
540.83 283.063 L
543 259.622 L
545.17 256.422 L
547.34 242.122 L
549.51 229.15 L
551.68 236.569 L
553.85 227.759 L
556.02 247.57 L
558.19 252.62 L
560.36 281.051 L
562.53 272.869 L
564.7 239.057 L
566.87 214.467 L
569.04 197.285 L
571.21 203.339 L
573.38 201.661 L
575.55 216.694 L
577.72 187.778 L
579.89 183.762 L
582.06 197.893 L
584.23 171.2 L
586.4 171.031 L
588.57 165.216 L
590.74 183.443 L
592.91 179.82 L
595.08 181.166 L
597.25 164.495 L
599.42 157.543 L
601.59 148.8 L
603.76 147.639 L
605.93 163.114 L
608.1 142.856 L
610.27 155.024 L
612.44 150.292 L
614.61 148.634 L
616.78 166.774 L
618.95 159.884 L
621.12 159.853 L
623.29 166.409 L
625.46 172.067 L
627.63 164.339 L
629.8 163.001 L
631.97 190.658 L
634.14 168.001 L
636.31 185.364 L
638.48 180.881 L
640.65 215.545 L
642.82 229.863 L
644.99 240.576 L
647.16 257.526 L
649.33 264.704 L
651.5 244.66 L
S
GR
GS
[0.5 0 0 0.5 0 0] CT
0.851 0.325 0.098 RC
1 LJ
N
109 149.8 M
111.17 170.716 L
113.34 184.934 L
115.51 214.224 L
117.68 224.286 L
119.85 217.828 L
122.02 223.137 L
124.19 249.079 L
126.36 283.807 L
128.53 272.094 L
130.7 252.141 L
132.87 256.743 L
135.04 227.956 L
137.21 245.981 L
139.38 280.017 L
141.55 285.598 L
143.72 285.299 L
145.89 280.305 L
148.06 288.572 L
150.23 290.135 L
152.4 300.816 L
154.57 270.83 L
156.74 289.146 L
158.91 312.856 L
161.08 307.951 L
163.25 319.672 L
165.42 339.478 L
167.59 353.729 L
169.76 329.432 L
171.93 343.801 L
174.1 340.512 L
176.27 340.95 L
178.44 361.301 L
180.61 360.551 L
182.78 369.118 L
184.95 387.594 L
187.12 389.481 L
189.29 383.223 L
191.46 398.355 L
193.63 382.345 L
195.8 399.338 L
197.97 369.683 L
200.14 377.247 L
202.31 404.925 L
204.48 405.758 L
206.65 389.884 L
208.82 396.704 L
210.99 391.128 L
213.16 380.144 L
215.33 376.258 L
217.5 381.823 L
219.67 380.993 L
221.84 394.678 L
224.01 414.475 L
226.18 401.946 L
228.35 391.887 L
230.52 393.107 L
232.69 407.276 L
234.86 397.263 L
237.03 384.691 L
239.2 382.517 L
241.37 385.7 L
243.54 385.864 L
245.71 377.705 L
247.88 367.368 L
250.05 366.128 L
252.22 385.969 L
254.39 394.678 L
256.56 344.552 L
258.73 341.574 L
260.9 340.165 L
263.07 349.175 L
265.24 334.89 L
267.41 356.11 L
269.58 354.49 L
271.75 357.71 L
273.92 358.609 L
276.09 377.051 L
278.26 371.911 L
280.43 367.336 L
282.6 379.032 L
284.77 374.011 L
286.94 370.384 L
289.11 366.675 L
291.28 374.063 L
293.45 385.762 L
295.62 368.109 L
297.79 393.311 L
299.96 392.464 L
302.13 376.59 L
304.3 380.526 L
306.47 380.614 L
308.64 392.981 L
310.81 383.668 L
312.98 398.44 L
315.15 405.184 L
317.32 392.237 L
319.49 405.943 L
321.66 391.548 L
323.83 381.815 L
326 379.242 L
328.17 337.208 L
330.34 326.566 L
332.51 322.037 L
334.68 312.649 L
336.85 292.112 L
339.02 314.869 L
341.19 324.155 L
343.36 337.779 L
345.53 327.971 L
347.7 316.841 L
349.87 315.989 L
352.04 304.251 L
354.21 293.701 L
356.38 304.519 L
358.55 300.808 L
360.72 310.036 L
362.89 307.541 L
365.06 297.691 L
367.23 321.693 L
369.4 323.05 L
371.57 305.006 L
373.74 303.793 L
375.91 285.248 L
378.08 301.737 L
380.25 297.618 L
382.42 304.206 L
384.59 293.895 L
386.76 293.278 L
388.93 301.853 L
391.1 309.472 L
393.27 322.328 L
395.44 312.789 L
397.61 316.953 L
399.78 322.384 L
401.95 328.525 L
404.12 322.042 L
406.29 318.838 L
408.46 312.726 L
410.63 311.442 L
412.8 323.909 L
414.97 329.502 L
417.14 325.15 L
419.31 350.267 L
421.48 338.815 L
423.65 320.556 L
425.82 309.697 L
427.99 332 L
430.16 349.538 L
432.33 365.117 L
434.5 364.501 L
436.67 359.143 L
438.84 366.718 L
441.01 356.817 L
443.18 317.737 L
445.35 329.498 L
447.52 338.269 L
449.69 346.565 L
451.86 356.872 L
454.03 377.895 L
456.2 402.302 L
458.37 386.05 L
460.54 389.216 L
462.71 394.469 L
464.88 400.132 L
467.05 400.604 L
469.22 388.814 L
471.39 395.522 L
473.56 383.524 L
475.73 375.051 L
477.9 361.627 L
480.07 380.702 L
482.24 372.417 L
484.41 373.15 L
486.58 388.972 L
488.75 401.207 L
490.92 424.046 L
493.09 416.564 L
495.26 424.392 L
497.43 444.188 L
499.6 457.968 L
501.77 460.048 L
503.94 466.506 L
506.11 475.196 L
508.28 495.153 L
510.45 491.316 L
512.62 494.219 L
514.79 491.198 L
516.96 471.119 L
519.13 473.286 L
521.3 465.193 L
523.47 480.409 L
525.64 481.291 L
527.81 484.065 L
529.98 472.502 L
532.15 479.436 L
534.32 482.351 L
536.49 485.314 L
538.66 498.587 L
540.83 505.138 L
543 515.815 L
545.17 509.854 L
547.34 524.305 L
549.51 514.202 L
551.68 512.849 L
553.85 509.846 L
556.02 530.009 L
558.19 523.377 L
560.36 518.271 L
562.53 520.325 L
564.7 519.111 L
566.87 523.082 L
569.04 531.161 L
571.21 520.38 L
573.38 543.006 L
575.55 556.022 L
577.72 538.538 L
579.89 549.818 L
582.06 527.143 L
584.23 544.292 L
586.4 526.599 L
588.57 520.314 L
590.74 525.541 L
592.91 522.765 L
595.08 527.236 L
597.25 524.506 L
599.42 521.12 L
601.59 522.732 L
603.76 524.257 L
605.93 510.204 L
608.1 511.041 L
610.27 506.485 L
612.44 490.488 L
614.61 507.373 L
616.78 494.366 L
618.95 495.919 L
621.12 490.612 L
623.29 489.872 L
625.46 490.525 L
627.63 482.79 L
629.8 474.447 L
631.97 461.815 L
634.14 453.33 L
636.31 441.143 L
638.48 448.218 L
640.65 417.411 L
642.82 434.132 L
644.99 426.818 L
647.16 429.751 L
649.33 426.8 L
651.5 421.842 L
S
GR
GS
[0.5 0 0 0.5 0 0] CT
0.929 0.694 0.125 RC
1 LJ
N
109 149.8 M
111.17 128.951 L
113.34 126.386 L
115.51 152.719 L
117.68 142.417 L
119.85 157.595 L
122.02 137.942 L
124.19 168.9 L
126.36 180.199 L
128.53 171.937 L
130.7 183.181 L
132.87 163.431 L
135.04 175.07 L
137.21 198.417 L
139.38 218.169 L
141.55 175.69 L
143.72 177.732 L
145.89 195.612 L
148.06 210.862 L
150.23 203.468 L
152.4 199.833 L
154.57 199.3 L
156.74 176.772 L
158.91 156.202 L
161.08 161.954 L
163.25 180.169 L
165.42 155.044 L
167.59 128.844 L
169.76 126.968 L
171.93 150.445 L
174.1 171.949 L
176.27 137.484 L
178.44 145.807 L
180.61 159.146 L
182.78 181.434 L
184.95 164.289 L
187.12 168.799 L
189.29 178.62 L
191.46 153.536 L
193.63 157.238 L
195.8 166.489 L
197.97 130.367 L
200.14 130.11 L
202.31 116.784 L
204.48 83.514 L
206.65 82.663 L
208.82 87.963 L
210.99 74.725 L
213.16 69.191 L
215.33 54.655 L
217.5 57.021 L
219.67 59.048 L
221.84 60.655 L
224.01 88.158 L
226.18 87.595 L
228.35 109.592 L
230.52 91.83 L
232.69 77.793 L
234.86 92.912 L
237.03 103.424 L
239.2 95.659 L
241.37 82.448 L
243.54 109.451 L
245.71 133.344 L
247.88 152.109 L
250.05 161.868 L
252.22 156.994 L
254.39 163.128 L
256.56 144.095 L
258.73 147.305 L
260.9 134.943 L
263.07 151.761 L
265.24 170.574 L
267.41 167.015 L
269.58 175.753 L
271.75 187.176 L
273.92 183.763 L
276.09 200.273 L
278.26 199.575 L
280.43 212.973 L
282.6 178.182 L
284.77 196.154 L
286.94 222.487 L
289.11 227.715 L
291.28 228.201 L
293.45 226.976 L
295.62 241.576 L
297.79 240.668 L
299.96 224.97 L
302.13 219.305 L
304.3 196.774 L
306.47 196.065 L
308.64 200.78 L
310.81 211.898 L
312.98 218.068 L
315.15 211.996 L
317.32 200.164 L
319.49 205.827 L
321.66 198.232 L
323.83 211.767 L
326 218.757 L
328.17 214.136 L
330.34 229.604 L
332.51 248.621 L
334.68 262.687 L
336.85 244.511 L
339.02 232.433 L
341.19 218.255 L
343.36 249.09 L
345.53 274.386 L
347.7 283.994 L
349.87 282.226 L
352.04 294.872 L
354.21 276.279 L
356.38 319.539 L
358.55 303.481 L
360.72 311.103 L
362.89 311.562 L
365.06 323.98 L
367.23 305.579 L
369.4 311.598 L
371.57 303.406 L
373.74 281.216 L
375.91 278.737 L
378.08 290.482 L
380.25 270.209 L
382.42 276.77 L
384.59 261.456 L
386.76 227.211 L
388.93 221.458 L
391.1 230.847 L
393.27 231.657 L
395.44 247.56 L
397.61 251.71 L
399.78 244.367 L
401.95 210.323 L
404.12 202.335 L
406.29 188.472 L
408.46 202.92 L
410.63 218.929 L
412.8 201.887 L
414.97 213.118 L
417.14 229.314 L
419.31 223.5 L
421.48 210.665 L
423.65 221.748 L
425.82 231.313 L
427.99 221.238 L
430.16 212.494 L
432.33 208.619 L
434.5 199.749 L
436.67 207.372 L
438.84 200.266 L
441.01 182.098 L
443.18 181.851 L
445.35 193.769 L
447.52 203.534 L
449.69 198.19 L
451.86 195.633 L
454.03 171.86 L
456.2 187.302 L
458.37 201.065 L
460.54 215.784 L
462.71 233.267 L
464.88 221.432 L
467.05 238.413 L
469.22 208.216 L
471.39 207.1 L
473.56 205.967 L
475.73 198.578 L
477.9 203.689 L
480.07 213.681 L
482.24 191.037 L
484.41 193.928 L
486.58 196.957 L
488.75 194.382 L
490.92 196.762 L
493.09 199.21 L
495.26 188.506 L
497.43 181.334 L
499.6 171.24 L
501.77 159.858 L
503.94 187.401 L
506.11 196.635 L
508.28 214.538 L
510.45 195.664 L
512.62 219.219 L
514.79 182.947 L
516.96 167.085 L
519.13 169.571 L
521.3 169.176 L
523.47 181.124 L
525.64 173.364 L
527.81 165.682 L
529.98 168.498 L
532.15 202.166 L
534.32 207.67 L
536.49 236.153 L
538.66 226.443 L
540.83 215.058 L
543 200.212 L
545.17 196.555 L
547.34 173.398 L
549.51 191.379 L
551.68 216.389 L
553.85 223.452 L
556.02 239.849 L
558.19 250.667 L
560.36 283.272 L
562.53 269.927 L
564.7 280.859 L
566.87 251.858 L
569.04 270.747 L
571.21 293.894 L
573.38 295.027 L
575.55 297.311 L
577.72 306.731 L
579.89 279.299 L
582.06 282.659 L
584.23 291.792 L
586.4 291.166 L
588.57 290.853 L
590.74 278.663 L
592.91 268.654 L
595.08 281.859 L
597.25 287.863 L
599.42 264.821 L
601.59 275.414 L
603.76 263.417 L
605.93 281.826 L
608.1 271.937 L
610.27 272.294 L
612.44 251.07 L
614.61 256.147 L
616.78 234.532 L
618.95 222.247 L
621.12 245.465 L
623.29 252.112 L
625.46 274.607 L
627.63 306 L
629.8 309.995 L
631.97 306.874 L
634.14 293.77 L
636.31 292.654 L
638.48 296.398 L
640.65 322.972 L
642.82 323.089 L
644.99 334.79 L
647.16 348.206 L
649.33 346.496 L
651.5 328.232 L
S
GR
GS
[0.5 0 0 0.5 0 0] CT
0 0.447 0.741 RC
1 LJ
N
651.5 244.66 M
760 172.7 L
S
GR
GS
[0.5 0 0 0.5 0 0] CT
0 0.447 0.741 RC
1 LJ
N
651.5 244.66 M
760 234.38 L
S
GR
GS
[0.5 0 0 0.5 0 0] CT
0 0.447 0.741 RC
1 LJ
N
651.5 244.66 M
760 296.06 L
S
GR
GS
[0.5 0 0 0.5 0 0] CT
0.851 0.325 0.098 RC
1 LJ
N
651.5 421.842 M
760 370.442 L
S
GR
GS
[0.5 0 0 0.5 0 0] CT
0.851 0.325 0.098 RC
1 LJ
N
651.5 421.842 M
760 401.282 L
S
GR
GS
[0.5 0 0 0.5 0 0] CT
0.851 0.325 0.098 RC
1 LJ
N
651.5 421.842 M
760 452.682 L
S
GR
GS
[0.5 0 0 0.5 0 0] CT
0.929 0.694 0.125 RC
1 LJ
N
651.5 328.232 M
760 235.712 L
S
GR
GS
[0.5 0 0 0.5 0 0] CT
0.929 0.694 0.125 RC
1 LJ
N
651.5 328.232 M
760 317.952 L
S
GR
GS
[0.5 0 0 0.5 0 0] CT
0.929 0.694 0.125 RC
1 LJ
N
651.5 328.232 M
760 410.472 L
S
GR
GS
[0.5 0 0 0.5 0 0] CT
0 0.447 0.741 RC
1 LJ
N
651.5 244.66 M
760 141.86 L
S
GR
GS
[0.5 0 0 0.5 0 0] CT
0 0.447 0.741 RC
1 LJ
N
651.5 244.66 M
760 244.66 L
S
GR
GS
[0.5 0 0 0.5 0 0] CT
0 0.447 0.741 RC
1 LJ
N
651.5 244.66 M
760 326.9 L
S
GR
GS
[0.5 0 0 0.5 0 0] CT
0.851 0.325 0.098 RC
1 LJ
N
651.5 421.842 M
760 391.002 L
S
GR
GS
[0.5 0 0 0.5 0 0] CT
0.851 0.325 0.098 RC
1 LJ
N
651.5 421.842 M
760 411.562 L
S
GR
GS
[0.5 0 0 0.5 0 0] CT
0.851 0.325 0.098 RC
1 LJ
N
651.5 421.842 M
760 462.962 L
S
GR
GS
[0.5 0 0 0.5 0 0] CT
0.929 0.694 0.125 RC
1 LJ
N
651.5 328.232 M
760 256.272 L
S
GR
GS
[0.5 0 0 0.5 0 0] CT
0.929 0.694 0.125 RC
1 LJ
N
651.5 328.232 M
760 328.232 L
S
GR
GS
[0.5 0 0 0.5 0 0] CT
0.929 0.694 0.125 RC
1 LJ
N
651.5 328.232 M
760 379.632 L
S
GR
GS
[0.5 0 0 0.5 0 0] CT
1 LJ
N
651.5 561 M
651.5 503.889 L
651.5 446.778 L
651.5 389.667 L
651.5 332.556 L
651.5 275.444 L
651.5 218.333 L
651.5 161.222 L
651.5 104.111 L
651.5 47 L
S
GR
%%Trailer
%%Pages: 1
%%EOF
