%!PS-Adobe-3.0 EPSF-3.0
%%Creator: (MATLAB, The Mathworks, Inc. Version 9.2.0.556344 \(R2017a\). Operating System: Windows 8)
%%Title: C:/Users/nicol/Downloads/MasterThesisSpeel/SpeelDF.eps
%%CreationDate: 2017-06-14T14:52:43
%%Pages: (atend)
%%BoundingBox: 0 0 420 315
%%LanguageLevel: 3
%%EndComments
%%BeginProlog
%%BeginResource: procset (Apache XML Graphics Std ProcSet) 1.2 0
%%Version: 1.2 0
%%Copyright: (Copyright 2001-2003,2010 The Apache Software Foundation. License terms: http://www.apache.org/licenses/LICENSE-2.0)
/bd{bind def}bind def
/ld{load def}bd
/GR/grestore ld
/M/moveto ld
/LJ/setlinejoin ld
/C/curveto ld
/f/fill ld
/LW/setlinewidth ld
/GC/setgray ld
/t/show ld
/N/newpath ld
/CT/concat ld
/cp/closepath ld
/S/stroke ld
/L/lineto ld
/CC/setcmykcolor ld
/A/ashow ld
/GS/gsave ld
/RC/setrgbcolor ld
/RM/rmoveto ld
/ML/setmiterlimit ld
/re {4 2 roll M
1 index 0 rlineto
0 exch rlineto
neg 0 rlineto
cp } bd
/_ctm matrix def
/_tm matrix def
/BT { _ctm currentmatrix pop matrix _tm copy pop 0 0 moveto } bd
/ET { _ctm setmatrix } bd
/iTm { _ctm setmatrix _tm concat } bd
/Tm { _tm astore pop iTm 0 0 moveto } bd
/ux 0.0 def
/uy 0.0 def
/F {
  /Tp exch def
  /Tf exch def
  Tf findfont Tp scalefont setfont
  /cf Tf def  /cs Tp def
} bd
/ULS {currentpoint /uy exch def /ux exch def} bd
/ULE {
  /Tcx currentpoint pop def
  gsave
  newpath
  cf findfont cs scalefont dup
  /FontMatrix get 0 get /Ts exch def /FontInfo get dup
  /UnderlinePosition get Ts mul /To exch def
  /UnderlineThickness get Ts mul /Tt exch def
  ux uy To add moveto  Tcx uy To add lineto
  Tt setlinewidth stroke
  grestore
} bd
/OLE {
  /Tcx currentpoint pop def
  gsave
  newpath
  cf findfont cs scalefont dup
  /FontMatrix get 0 get /Ts exch def /FontInfo get dup
  /UnderlinePosition get Ts mul /To exch def
  /UnderlineThickness get Ts mul /Tt exch def
  ux uy To add cs add moveto Tcx uy To add cs add lineto
  Tt setlinewidth stroke
  grestore
} bd
/SOE {
  /Tcx currentpoint pop def
  gsave
  newpath
  cf findfont cs scalefont dup
  /FontMatrix get 0 get /Ts exch def /FontInfo get dup
  /UnderlinePosition get Ts mul /To exch def
  /UnderlineThickness get Ts mul /Tt exch def
  ux uy To add cs 10 mul 26 idiv add moveto Tcx uy To add cs 10 mul 26 idiv add lineto
  Tt setlinewidth stroke
  grestore
} bd
/QT {
/Y22 exch store
/X22 exch store
/Y21 exch store
/X21 exch store
currentpoint
/Y21 load 2 mul add 3 div exch
/X21 load 2 mul add 3 div exch
/X21 load 2 mul /X22 load add 3 div
/Y21 load 2 mul /Y22 load add 3 div
/X22 load /Y22 load curveto
} bd
/SSPD {
dup length /d exch dict def
{
/v exch def
/k exch def
currentpagedevice k known {
/cpdv currentpagedevice k get def
v cpdv ne {
/upd false def
/nullv v type /nulltype eq def
/nullcpdv cpdv type /nulltype eq def
nullv nullcpdv or
{
/upd true def
} {
/sametype v type cpdv type eq def
sametype {
v type /arraytype eq {
/vlen v length def
/cpdvlen cpdv length def
vlen cpdvlen eq {
0 1 vlen 1 sub {
/i exch def
/obj v i get def
/cpdobj cpdv i get def
obj cpdobj ne {
/upd true def
exit
} if
} for
} {
/upd true def
} ifelse
} {
v type /dicttype eq {
v {
/dv exch def
/dk exch def
/cpddv cpdv dk get def
dv cpddv ne {
/upd true def
exit
} if
} forall
} {
/upd true def
} ifelse
} ifelse
} if
} ifelse
upd true eq {
d k v put
} if
} if
} if
} forall
d length 0 gt {
d setpagedevice
} if
} bd
/RE { % /NewFontName [NewEncodingArray] /FontName RE -
  findfont dup length dict begin
  {
    1 index /FID ne
    {def} {pop pop} ifelse
  } forall
  /Encoding exch def
  /FontName 1 index def
  currentdict definefont pop
  end
} bind def
%%EndResource
%%BeginResource: procset (Apache XML Graphics EPS ProcSet) 1.0 0
%%Version: 1.0 0
%%Copyright: (Copyright 2002-2003 The Apache Software Foundation. License terms: http://www.apache.org/licenses/LICENSE-2.0)
/BeginEPSF { %def
/b4_Inc_state save def         % Save state for cleanup
/dict_count countdictstack def % Count objects on dict stack
/op_count count 1 sub def      % Count objects on operand stack
userdict begin                 % Push userdict on dict stack
/showpage { } def              % Redefine showpage, { } = null proc
0 setgray 0 setlinecap         % Prepare graphics state
1 setlinewidth 0 setlinejoin
10 setmiterlimit [ ] 0 setdash newpath
/languagelevel where           % If level not equal to 1 then
{pop languagelevel             % set strokeadjust and
1 ne                           % overprint to their defaults.
{false setstrokeadjust false setoverprint
} if
} if
} bd
/EndEPSF { %def
count op_count sub {pop} repeat            % Clean up stacks
countdictstack dict_count sub {end} repeat
b4_Inc_state restore
} bd
%%EndResource
%FOPBeginFontDict
%%IncludeResource: font Courier-Bold
%%IncludeResource: font Helvetica
%%IncludeResource: font Courier-BoldOblique
%%IncludeResource: font Courier-Oblique
%%IncludeResource: font Times-Roman
%%IncludeResource: font Helvetica-BoldOblique
%%IncludeResource: font Helvetica-Bold
%%IncludeResource: font Helvetica-Oblique
%%IncludeResource: font Times-BoldItalic
%%IncludeResource: font Courier
%%IncludeResource: font Times-Italic
%%IncludeResource: font Times-Bold
%%IncludeResource: font Symbol
%%IncludeResource: font ZapfDingbats
%FOPEndFontDict
%%BeginResource: encoding WinAnsiEncoding
/WinAnsiEncoding [
/.notdef /.notdef /.notdef /.notdef /.notdef
/.notdef /.notdef /.notdef /.notdef /.notdef
/.notdef /.notdef /.notdef /.notdef /.notdef
/.notdef /.notdef /.notdef /.notdef /.notdef
/.notdef /.notdef /.notdef /.notdef /.notdef
/.notdef /.notdef /.notdef /.notdef /.notdef
/.notdef /.notdef /space /exclam /quotedbl
/numbersign /dollar /percent /ampersand /quotesingle
/parenleft /parenright /asterisk /plus /comma
/hyphen /period /slash /zero /one
/two /three /four /five /six
/seven /eight /nine /colon /semicolon
/less /equal /greater /question /at
/A /B /C /D /E
/F /G /H /I /J
/K /L /M /N /O
/P /Q /R /S /T
/U /V /W /X /Y
/Z /bracketleft /backslash /bracketright /asciicircum
/underscore /quoteleft /a /b /c
/d /e /f /g /h
/i /j /k /l /m
/n /o /p /q /r
/s /t /u /v /w
/x /y /z /braceleft /bar
/braceright /asciitilde /bullet /Euro /bullet
/quotesinglbase /florin /quotedblbase /ellipsis /dagger
/daggerdbl /circumflex /perthousand /Scaron /guilsinglleft
/OE /bullet /Zcaron /bullet /bullet
/quoteleft /quoteright /quotedblleft /quotedblright /bullet
/endash /emdash /asciitilde /trademark /scaron
/guilsinglright /oe /bullet /zcaron /Ydieresis
/space /exclamdown /cent /sterling /currency
/yen /brokenbar /section /dieresis /copyright
/ordfeminine /guillemotleft /logicalnot /sfthyphen /registered
/macron /degree /plusminus /twosuperior /threesuperior
/acute /mu /paragraph /middot /cedilla
/onesuperior /ordmasculine /guillemotright /onequarter /onehalf
/threequarters /questiondown /Agrave /Aacute /Acircumflex
/Atilde /Adieresis /Aring /AE /Ccedilla
/Egrave /Eacute /Ecircumflex /Edieresis /Igrave
/Iacute /Icircumflex /Idieresis /Eth /Ntilde
/Ograve /Oacute /Ocircumflex /Otilde /Odieresis
/multiply /Oslash /Ugrave /Uacute /Ucircumflex
/Udieresis /Yacute /Thorn /germandbls /agrave
/aacute /acircumflex /atilde /adieresis /aring
/ae /ccedilla /egrave /eacute /ecircumflex
/edieresis /igrave /iacute /icircumflex /idieresis
/eth /ntilde /ograve /oacute /ocircumflex
/otilde /odieresis /divide /oslash /ugrave
/uacute /ucircumflex /udieresis /yacute /thorn
/ydieresis
] def
%%EndResource
%FOPBeginFontReencode
/Courier-Bold findfont
dup length dict begin
  {1 index /FID ne {def} {pop pop} ifelse} forall
  /Encoding WinAnsiEncoding def
  currentdict
end
/Courier-Bold exch definefont pop
/Helvetica findfont
dup length dict begin
  {1 index /FID ne {def} {pop pop} ifelse} forall
  /Encoding WinAnsiEncoding def
  currentdict
end
/Helvetica exch definefont pop
/Courier-BoldOblique findfont
dup length dict begin
  {1 index /FID ne {def} {pop pop} ifelse} forall
  /Encoding WinAnsiEncoding def
  currentdict
end
/Courier-BoldOblique exch definefont pop
/Courier-Oblique findfont
dup length dict begin
  {1 index /FID ne {def} {pop pop} ifelse} forall
  /Encoding WinAnsiEncoding def
  currentdict
end
/Courier-Oblique exch definefont pop
/Times-Roman findfont
dup length dict begin
  {1 index /FID ne {def} {pop pop} ifelse} forall
  /Encoding WinAnsiEncoding def
  currentdict
end
/Times-Roman exch definefont pop
/Helvetica-BoldOblique findfont
dup length dict begin
  {1 index /FID ne {def} {pop pop} ifelse} forall
  /Encoding WinAnsiEncoding def
  currentdict
end
/Helvetica-BoldOblique exch definefont pop
/Helvetica-Bold findfont
dup length dict begin
  {1 index /FID ne {def} {pop pop} ifelse} forall
  /Encoding WinAnsiEncoding def
  currentdict
end
/Helvetica-Bold exch definefont pop
/Helvetica-Oblique findfont
dup length dict begin
  {1 index /FID ne {def} {pop pop} ifelse} forall
  /Encoding WinAnsiEncoding def
  currentdict
end
/Helvetica-Oblique exch definefont pop
/Times-BoldItalic findfont
dup length dict begin
  {1 index /FID ne {def} {pop pop} ifelse} forall
  /Encoding WinAnsiEncoding def
  currentdict
end
/Times-BoldItalic exch definefont pop
/Courier findfont
dup length dict begin
  {1 index /FID ne {def} {pop pop} ifelse} forall
  /Encoding WinAnsiEncoding def
  currentdict
end
/Courier exch definefont pop
/Times-Italic findfont
dup length dict begin
  {1 index /FID ne {def} {pop pop} ifelse} forall
  /Encoding WinAnsiEncoding def
  currentdict
end
/Times-Italic exch definefont pop
/Times-Bold findfont
dup length dict begin
  {1 index /FID ne {def} {pop pop} ifelse} forall
  /Encoding WinAnsiEncoding def
  currentdict
end
/Times-Bold exch definefont pop
%FOPEndFontReencode
%%EndProlog
%%Page: 1 1
%%PageBoundingBox: 0 0 420 315
%%BeginPageSetup
[1 0 0 -1 0 315] CT
%%EndPageSetup
GS
[0.5 0 0 0.5 0 0] CT
1 GC
N
0 0 840 630 re
f
GR
GS
[0.5 0 0 0.5 0 0] CT
1 GC
N
0 0 840 630 re
f
GR
GS
[0.5 0 0 0.5 0 0] CT
1 GC
N
109 561 M
760 561 L
760 47 L
109 47 L
cp
f
GR
GS
[0.5 0 0 0.5 0 0] CT
0.149 GC
2 setlinecap
1 LJ
N
109 561 M
760 561 L
S
GR
GS
[0.5 0 0 0.5 0 0] CT
0.149 GC
2 setlinecap
1 LJ
N
109 47 M
760 47 L
S
GR
GS
[0.5 0 0 0.5 0 0] CT
0.149 GC
2 setlinecap
1 LJ
N
109 561 M
109 554.49 L
S
GR
GS
[0.5 0 0 0.5 0 0] CT
0.149 GC
2 setlinecap
1 LJ
N
181.333 561 M
181.333 554.49 L
S
GR
GS
[0.5 0 0 0.5 0 0] CT
0.149 GC
2 setlinecap
1 LJ
N
253.667 561 M
253.667 554.49 L
S
GR
GS
[0.5 0 0 0.5 0 0] CT
0.149 GC
2 setlinecap
1 LJ
N
326 561 M
326 554.49 L
S
GR
GS
[0.5 0 0 0.5 0 0] CT
0.149 GC
2 setlinecap
1 LJ
N
398.333 561 M
398.333 554.49 L
S
GR
GS
[0.5 0 0 0.5 0 0] CT
0.149 GC
2 setlinecap
1 LJ
N
470.667 561 M
470.667 554.49 L
S
GR
GS
[0.5 0 0 0.5 0 0] CT
0.149 GC
2 setlinecap
1 LJ
N
543 561 M
543 554.49 L
S
GR
GS
[0.5 0 0 0.5 0 0] CT
0.149 GC
2 setlinecap
1 LJ
N
615.333 561 M
615.333 554.49 L
S
GR
GS
[0.5 0 0 0.5 0 0] CT
0.149 GC
2 setlinecap
1 LJ
N
687.667 561 M
687.667 554.49 L
S
GR
GS
[0.5 0 0 0.5 0 0] CT
0.149 GC
2 setlinecap
1 LJ
N
760 561 M
760 554.49 L
S
GR
GS
[0.5 0 0 0.5 0 0] CT
0.149 GC
2 setlinecap
1 LJ
N
109 47 M
109 53.51 L
S
GR
GS
[0.5 0 0 0.5 0 0] CT
0.149 GC
2 setlinecap
1 LJ
N
181.333 47 M
181.333 53.51 L
S
GR
GS
[0.5 0 0 0.5 0 0] CT
0.149 GC
2 setlinecap
1 LJ
N
253.667 47 M
253.667 53.51 L
S
GR
GS
[0.5 0 0 0.5 0 0] CT
0.149 GC
2 setlinecap
1 LJ
N
326 47 M
326 53.51 L
S
GR
GS
[0.5 0 0 0.5 0 0] CT
0.149 GC
2 setlinecap
1 LJ
N
398.333 47 M
398.333 53.51 L
S
GR
GS
[0.5 0 0 0.5 0 0] CT
0.149 GC
2 setlinecap
1 LJ
N
470.667 47 M
470.667 53.51 L
S
GR
GS
[0.5 0 0 0.5 0 0] CT
0.149 GC
2 setlinecap
1 LJ
N
543 47 M
543 53.51 L
S
GR
GS
[0.5 0 0 0.5 0 0] CT
0.149 GC
2 setlinecap
1 LJ
N
615.333 47 M
615.333 53.51 L
S
GR
GS
[0.5 0 0 0.5 0 0] CT
0.149 GC
2 setlinecap
1 LJ
N
687.667 47 M
687.667 53.51 L
S
GR
GS
[0.5 0 0 0.5 0 0] CT
0.149 GC
2 setlinecap
1 LJ
N
760 47 M
760 53.51 L
S
GR
GS
[0.5 0 0 0.5 54.5 284.5] CT
0.149 GC
/Helvetica 20 F
GS
[1 0 0 1 0 0] CT
-17 21 moveto 
1 -1 scale
(100) t 
GR
GR
GS
[0.5 0 0 0.5 90.66666 284.5] CT
0.149 GC
/Helvetica 20 F
GS
[1 0 0 1 0 0] CT
-17 21 moveto 
1 -1 scale
(200) t 
GR
GR
GS
[0.5 0 0 0.5 126.83334 284.5] CT
0.149 GC
/Helvetica 20 F
GS
[1 0 0 1 0 0] CT
-17 21 moveto 
1 -1 scale
(300) t 
GR
GR
GS
[0.5 0 0 0.5 163 284.5] CT
0.149 GC
/Helvetica 20 F
GS
[1 0 0 1 0 0] CT
-17 21 moveto 
1 -1 scale
(400) t 
GR
GR
GS
[0.5 0 0 0.5 199.16667 284.5] CT
0.149 GC
/Helvetica 20 F
GS
[1 0 0 1 0 0] CT
-17 21 moveto 
1 -1 scale
(500) t 
GR
GR
GS
[0.5 0 0 0.5 235.33333 284.5] CT
0.149 GC
/Helvetica 20 F
GS
[1 0 0 1 0 0] CT
-17 21 moveto 
1 -1 scale
(600) t 
GR
GR
GS
[0.5 0 0 0.5 271.5 284.5] CT
0.149 GC
/Helvetica 20 F
GS
[1 0 0 1 0 0] CT
-17 21 moveto 
1 -1 scale
(700) t 
GR
GR
GS
[0.5 0 0 0.5 307.66666 284.5] CT
0.149 GC
/Helvetica 20 F
GS
[1 0 0 1 0 0] CT
-17 21 moveto 
1 -1 scale
(800) t 
GR
GR
GS
[0.5 0 0 0.5 343.83334 284.5] CT
0.149 GC
/Helvetica 20 F
GS
[1 0 0 1 0 0] CT
-17 21 moveto 
1 -1 scale
(900) t 
GR
GR
GS
[0.5 0 0 0.5 380 284.5] CT
0.149 GC
/Helvetica 20 F
GS
[1 0 0 1 0 0] CT
-22.5 21 moveto 
1 -1 scale
(1000) t 
GR
GR
GS
[0.5 0 0 0.5 217.25015 298.5] CT
0.149 GC
/Helvetica 22 F
GS
[1 0 0 1 0 0] CT
-97 23 moveto 
1 -1 scale
(Numero di Elementi) t 
GR
GR
GS
[0.5 0 0 0.5 0 0] CT
0 0.447 0.741 RC
2 setlinecap
1 LJ
N
109 561 M
109 47 L
S
GR
GS
[0.5 0 0 0.5 0 0] CT
0 0.447 0.741 RC
2 setlinecap
1 LJ
N
760 561 M
760 47 L
S
GR
GS
[0.5 0 0 0.5 0 0] CT
0 0.447 0.741 RC
2 setlinecap
1 LJ
N
109 561 M
115.51 561 L
S
GR
GS
[0.5 0 0 0.5 0 0] CT
0 0.447 0.741 RC
2 setlinecap
1 LJ
N
109 432.5 M
115.51 432.5 L
S
GR
GS
[0.5 0 0 0.5 0 0] CT
0 0.447 0.741 RC
2 setlinecap
1 LJ
N
109 304 M
115.51 304 L
S
GR
GS
[0.5 0 0 0.5 0 0] CT
0 0.447 0.741 RC
2 setlinecap
1 LJ
N
109 175.5 M
115.51 175.5 L
S
GR
GS
[0.5 0 0 0.5 0 0] CT
0 0.447 0.741 RC
2 setlinecap
1 LJ
N
109 47 M
115.51 47 L
S
GR
GS
[0.5 0 0 0.5 0 0] CT
0 0.447 0.741 RC
2 setlinecap
1 LJ
N
760 561 M
753.49 561 L
S
GR
GS
[0.5 0 0 0.5 0 0] CT
0 0.447 0.741 RC
2 setlinecap
1 LJ
N
760 432.5 M
753.49 432.5 L
S
GR
GS
[0.5 0 0 0.5 0 0] CT
0 0.447 0.741 RC
2 setlinecap
1 LJ
N
760 304 M
753.49 304 L
S
GR
GS
[0.5 0 0 0.5 0 0] CT
0 0.447 0.741 RC
2 setlinecap
1 LJ
N
760 175.5 M
753.49 175.5 L
S
GR
GS
[0.5 0 0 0.5 0 0] CT
0 0.447 0.741 RC
2 setlinecap
1 LJ
N
760 47 M
753.49 47 L
S
GR
GS
[0.5 0 0 0.5 50.5 280.5] CT
0 0.447 0.741 RC
/Helvetica 20 F
GS
[1 0 0 1 0 0] CT
-12 8 moveto 
1 -1 scale
(0) t 
GR
GR
GS
[0.5 0 0 0.5 50.5 216.25] CT
0 0.447 0.741 RC
/Helvetica 20 F
GS
[1 0 0 1 0 0] CT
-12 8 moveto 
1 -1 scale
(2) t 
GR
GR
GS
[0.5 0 0 0.5 50.5 152] CT
0 0.447 0.741 RC
/Helvetica 20 F
GS
[1 0 0 1 0 0] CT
-12 8 moveto 
1 -1 scale
(4) t 
GR
GR
GS
[0.5 0 0 0.5 50.5 87.75] CT
0 0.447 0.741 RC
/Helvetica 20 F
GS
[1 0 0 1 0 0] CT
-12 8 moveto 
1 -1 scale
(6) t 
GR
GR
GS
[0.5 0 0 0.5 50.5 23.49999] CT
0 0.447 0.741 RC
/Helvetica 20 F
GS
[1 0 0 1 0 0] CT
-12 8 moveto 
1 -1 scale
(8) t 
GR
GR
GS
[0 -0.5 0.5 0 41.5 151.99988] CT
0 0.447 0.741 RC
/Helvetica 22 F
GS
[1 0 0 1 0 0] CT
-67 -5 moveto 
1 -1 scale
(Tempo DF [s]) t 
GR
GR
GS
[0.5 0 0 0.5 54.5 21] CT
0 0.447 0.741 RC
N
2.938 -0.578 M
2.938 -0.734 3.031 -0.859 QT
7.203 -5 L
3.031 -9.156 L
2.938 -9.266 2.938 -9.422 QT
2.938 -9.578 3.055 -9.703 QT
3.172 -9.828 3.344 -9.828 QT
3.484 -9.828 3.641 -9.703 QT
7.781 -5.563 L
11.906 -9.703 L
12.078 -9.828 12.203 -9.828 QT
12.359 -9.828 12.477 -9.711 QT
12.594 -9.594 12.594 -9.422 QT
12.594 -9.266 12.5 -9.156 QT
8.344 -5 L
12.5 -0.859 L
12.594 -0.734 12.594 -0.578 QT
12.594 -0.406 12.477 -0.289 QT
12.359 -0.172 12.203 -0.172 QT
12.047 -0.172 11.906 -0.328 QT
7.781 -4.438 L
3.641 -0.328 L
3.5 -0.172 3.344 -0.172 QT
3.172 -0.172 3.055 -0.305 QT
2.938 -0.438 2.938 -0.578 QT
cp
f
GR
GS
[0.5 0 0 0.5 62.5 21] CT
0 0.447 0.741 RC
/Helvetica 20 F
GS
[1 0 0 1 0 0] CT
0 0 moveto 
1 -1 scale
(10) t 
GR
GR
GS
[0.5 0 0 0.5 74 16] CT
0 0.447 0.741 RC
/Helvetica 16 F
GS
[1 0 0 1 0 0] CT
0 0 moveto 
1 -1 scale
(-3) t 
GR
GR
GS
[0.5 0 0 0.5 0 0] CT
0 0.447 0.741 RC
1 LJ
N
109 518.93 M
116.233 516.142 L
123.467 513.325 L
130.7 510.477 L
137.933 507.598 L
145.167 504.69 L
152.4 501.751 L
159.633 498.782 L
166.867 495.782 L
174.1 492.752 L
181.333 489.692 L
188.567 486.602 L
195.8 483.481 L
203.033 480.33 L
210.267 477.148 L
217.5 473.937 L
224.733 470.695 L
231.967 467.422 L
239.2 464.12 L
246.433 460.787 L
253.667 457.423 L
260.9 454.03 L
268.133 450.606 L
275.367 447.151 L
282.6 443.667 L
289.833 440.152 L
297.067 436.607 L
304.3 433.031 L
311.533 429.425 L
318.767 425.789 L
326 422.123 L
333.233 418.426 L
340.467 414.699 L
347.7 410.941 L
354.933 407.154 L
362.167 403.336 L
369.4 399.487 L
376.633 395.609 L
383.867 391.7 L
391.1 387.76 L
398.333 383.791 L
405.567 379.791 L
412.8 375.761 L
420.033 371.7 L
427.267 367.609 L
434.5 363.488 L
441.733 359.336 L
448.967 355.155 L
456.2 350.942 L
463.433 346.7 L
470.667 342.427 L
477.9 338.124 L
485.133 333.791 L
492.367 329.427 L
499.6 325.033 L
506.833 320.609 L
514.067 316.154 L
521.3 311.669 L
528.533 307.154 L
535.767 302.608 L
543 298.032 L
550.233 293.426 L
557.467 288.79 L
564.7 284.123 L
571.933 279.425 L
579.167 274.698 L
586.4 269.94 L
593.633 265.152 L
600.867 260.334 L
608.1 255.485 L
615.333 250.606 L
622.567 245.696 L
629.8 240.757 L
637.033 235.787 L
644.267 230.786 L
651.5 225.756 L
658.733 220.695 L
665.967 215.604 L
673.2 210.482 L
680.433 205.33 L
687.667 200.148 L
694.9 194.935 L
702.133 189.692 L
709.367 184.419 L
716.6 179.116 L
723.833 173.782 L
731.067 168.418 L
738.3 163.024 L
745.533 157.599 L
752.767 152.144 L
760 146.658 L
S
GR
GS
[0.5 0 0 0.5 0 0] CT
0.873 GC
1 LJ
N
109 561 M
109 47 L
S
GR
GS
[0.5 0 0 0.5 0 0] CT
0.873 GC
1 LJ
N
181.333 561 M
181.333 47 L
S
GR
GS
[0.5 0 0 0.5 0 0] CT
0.873 GC
1 LJ
N
253.667 561 M
253.667 47 L
S
GR
GS
[0.5 0 0 0.5 0 0] CT
0.873 GC
1 LJ
N
326 561 M
326 47 L
S
GR
GS
[0.5 0 0 0.5 0 0] CT
0.873 GC
1 LJ
N
398.333 561 M
398.333 47 L
S
GR
GS
[0.5 0 0 0.5 0 0] CT
0.873 GC
1 LJ
N
470.667 561 M
470.667 47 L
S
GR
GS
[0.5 0 0 0.5 0 0] CT
0.873 GC
1 LJ
N
543 561 M
543 47 L
S
GR
GS
[0.5 0 0 0.5 0 0] CT
0.873 GC
1 LJ
N
615.333 561 M
615.333 47 L
S
GR
GS
[0.5 0 0 0.5 0 0] CT
0.873 GC
1 LJ
N
687.667 561 M
687.667 47 L
S
GR
GS
[0.5 0 0 0.5 0 0] CT
0.873 GC
1 LJ
N
760 561 M
760 47 L
S
GR
GS
[0.5 0 0 0.5 0 0] CT
0.978 0.899 0.866 RC
1 LJ
N
760 561 M
109 561 L
S
GR
GS
[0.5 0 0 0.5 0 0] CT
0.978 0.899 0.866 RC
1 LJ
N
760 432.5 M
109 432.5 L
S
GR
GS
[0.5 0 0 0.5 0 0] CT
0.978 0.899 0.866 RC
1 LJ
N
760 304 M
109 304 L
S
GR
GS
[0.5 0 0 0.5 0 0] CT
0.978 0.899 0.866 RC
1 LJ
N
760 175.5 M
109 175.5 L
S
GR
GS
[0.5 0 0 0.5 0 0] CT
0.978 0.899 0.866 RC
1 LJ
N
760 47 M
109 47 L
S
GR
GS
[0.5 0 0 0.5 0 0] CT
0.851 0.325 0.098 RC
2 setlinecap
1 LJ
N
760 561 M
760 47 L
S
GR
GS
[0.5 0 0 0.5 0 0] CT
0.851 0.325 0.098 RC
2 setlinecap
1 LJ
N
760 561 M
753.49 561 L
S
GR
GS
[0.5 0 0 0.5 0 0] CT
0.851 0.325 0.098 RC
2 setlinecap
1 LJ
N
760 432.5 M
753.49 432.5 L
S
GR
GS
[0.5 0 0 0.5 0 0] CT
0.851 0.325 0.098 RC
2 setlinecap
1 LJ
N
760 304 M
753.49 304 L
S
GR
GS
[0.5 0 0 0.5 0 0] CT
0.851 0.325 0.098 RC
2 setlinecap
1 LJ
N
760 175.5 M
753.49 175.5 L
S
GR
GS
[0.5 0 0 0.5 0 0] CT
0.851 0.325 0.098 RC
2 setlinecap
1 LJ
N
760 47 M
753.49 47 L
S
GR
GS
[0.5 0 0 0.5 384 280.5] CT
0.851 0.325 0.098 RC
/Helvetica 20 F
GS
[1 0 0 1 0 0] CT
0 8 moveto 
1 -1 scale
(0) t 
GR
GR
GS
[0.5 0 0 0.5 384 216.25] CT
0.851 0.325 0.098 RC
/Helvetica 20 F
GS
[1 0 0 1 0 0] CT
0 8 moveto 
1 -1 scale
(10) t 
GR
GR
GS
[0.5 0 0 0.5 384 152] CT
0.851 0.325 0.098 RC
/Helvetica 20 F
GS
[1 0 0 1 0 0] CT
0 8 moveto 
1 -1 scale
(20) t 
GR
GR
GS
[0.5 0 0 0.5 384 87.75] CT
0.851 0.325 0.098 RC
/Helvetica 20 F
GS
[1 0 0 1 0 0] CT
0 8 moveto 
1 -1 scale
(30) t 
GR
GR
GS
[0.5 0 0 0.5 384 23.5] CT
0.851 0.325 0.098 RC
/Helvetica 20 F
GS
[1 0 0 1 0 0] CT
0 8 moveto 
1 -1 scale
(40) t 
GR
GR
GS
[0 -0.5 0.5 0 398.5 151.99988] CT
0.851 0.325 0.098 RC
/Helvetica 22 F
GS
[1 0 0 1 0 0] CT
-67.5 23 moveto 
1 -1 scale
(Tempo DS [s]) t 
GR
GR
GS
[0.5 0 0 0.5 217.2502 22.125] CT
/Helvetica-Bold 22 F
GS
[1 0 0 1 0 0] CT
-136.5 -5 moveto 
1 -1 scale
(Funzione di Speelpenning) t 
GR
GR
GS
[0.5 0 0 0.5 0 0] CT
0.851 0.325 0.098 RC
1 LJ
N
109 534.423 M
116.233 534.399 L
123.467 534.269 L
130.7 534.033 L
137.933 533.692 L
145.167 533.244 L
152.4 532.691 L
159.633 532.031 L
166.867 531.266 L
174.1 530.395 L
181.333 529.419 L
188.567 528.336 L
195.8 527.147 L
203.033 525.853 L
210.267 524.453 L
217.5 522.947 L
224.733 521.335 L
231.967 519.617 L
239.2 517.793 L
246.433 515.864 L
253.667 513.828 L
260.9 511.687 L
268.133 509.44 L
275.367 507.087 L
282.6 504.628 L
289.833 502.063 L
297.067 499.393 L
304.3 496.616 L
311.533 493.734 L
318.767 490.746 L
326 487.652 L
333.233 484.452 L
340.467 481.147 L
347.7 477.735 L
354.933 474.217 L
362.167 470.594 L
369.4 466.865 L
376.633 463.03 L
383.867 459.089 L
391.1 455.042 L
398.333 450.89 L
405.567 446.631 L
412.8 442.267 L
420.033 437.797 L
427.267 433.221 L
434.5 428.539 L
441.733 423.751 L
448.967 418.858 L
456.2 413.858 L
463.433 408.753 L
470.667 403.542 L
477.9 398.225 L
485.133 392.802 L
492.367 387.273 L
499.6 381.638 L
506.833 375.898 L
514.067 370.051 L
521.3 364.099 L
528.533 358.041 L
535.767 351.877 L
543 345.607 L
550.233 339.232 L
557.467 332.75 L
564.7 326.163 L
571.933 319.47 L
579.167 312.671 L
586.4 305.766 L
593.633 298.755 L
600.867 291.638 L
608.1 284.416 L
615.333 277.087 L
622.567 269.653 L
629.8 262.113 L
637.033 254.467 L
644.267 246.715 L
651.5 238.858 L
658.733 230.894 L
665.967 222.825 L
673.2 214.649 L
680.433 206.368 L
687.667 197.981 L
694.9 189.488 L
702.133 180.89 L
709.367 172.185 L
716.6 163.375 L
723.833 154.459 L
731.067 145.436 L
738.3 136.308 L
745.533 127.075 L
752.767 117.735 L
760 108.289 L
S
GR
GS
[0.5 0 0 0.5 0 0] CT
0.941 GC
N
129 120 M
129 67 L
419 67 L
419 120 L
cp
f
GR
GS
[0.5 0 0 0.5 99.81088 40.78436] CT
/Helvetica 18 F
GS
[1 0 0 1 0 0] CT
0 7.5 moveto 
1 -1 scale
(Differenziazione Simbolica) t 
GR
GR
GS
[0.5 0 0 0.5 0 0] CT
0.851 0.325 0.098 RC
1 LJ
N
135.01 81.569 M
195.114 81.569 L
S
GR
GS
[0.5 0 0 0.5 99.81088 52.71564] CT
/Helvetica 18 F
GS
[1 0 0 1 0 0] CT
0 7.5 moveto 
1 -1 scale
(Differenze Finite) t 
GR
GR
GS
[0.5 0 0 0.5 0 0] CT
0 0.447 0.741 RC
1 LJ
N
135.01 105.431 M
195.114 105.431 L
S
GR
GS
[0.5 0 0 0.5 0 0] CT
0.149 GC
10.0 ML
N
129 120 M
129 67 L
419 67 L
419 120 L
cp
S
GR
%%Trailer
%%Pages: 1
%%EOF
