%!PS-Adobe-3.0 EPSF-3.0
%%Creator: (MATLAB, The Mathworks, Inc. Version 9.2.0.556344 \(R2017a\). Operating System: Windows 8)
%%Title: C:/Users/nicol/Desktop/Tesi2.eps
%%CreationDate: 2017-06-03T13:33:30
%%Pages: (atend)
%%BoundingBox: 0 0 473 332
%%LanguageLevel: 3
%%EndComments
%%BeginProlog
%%BeginResource: procset (Apache XML Graphics Std ProcSet) 1.2 0
%%Version: 1.2 0
%%Copyright: (Copyright 2001-2003,2010 The Apache Software Foundation. License terms: http://www.apache.org/licenses/LICENSE-2.0)
/bd{bind def}bind def
/ld{load def}bd
/GR/grestore ld
/M/moveto ld
/LJ/setlinejoin ld
/C/curveto ld
/f/fill ld
/LW/setlinewidth ld
/GC/setgray ld
/t/show ld
/N/newpath ld
/CT/concat ld
/cp/closepath ld
/S/stroke ld
/L/lineto ld
/CC/setcmykcolor ld
/A/ashow ld
/GS/gsave ld
/RC/setrgbcolor ld
/RM/rmoveto ld
/ML/setmiterlimit ld
/re {4 2 roll M
1 index 0 rlineto
0 exch rlineto
neg 0 rlineto
cp } bd
/_ctm matrix def
/_tm matrix def
/BT { _ctm currentmatrix pop matrix _tm copy pop 0 0 moveto } bd
/ET { _ctm setmatrix } bd
/iTm { _ctm setmatrix _tm concat } bd
/Tm { _tm astore pop iTm 0 0 moveto } bd
/ux 0.0 def
/uy 0.0 def
/F {
  /Tp exch def
  /Tf exch def
  Tf findfont Tp scalefont setfont
  /cf Tf def  /cs Tp def
} bd
/ULS {currentpoint /uy exch def /ux exch def} bd
/ULE {
  /Tcx currentpoint pop def
  gsave
  newpath
  cf findfont cs scalefont dup
  /FontMatrix get 0 get /Ts exch def /FontInfo get dup
  /UnderlinePosition get Ts mul /To exch def
  /UnderlineThickness get Ts mul /Tt exch def
  ux uy To add moveto  Tcx uy To add lineto
  Tt setlinewidth stroke
  grestore
} bd
/OLE {
  /Tcx currentpoint pop def
  gsave
  newpath
  cf findfont cs scalefont dup
  /FontMatrix get 0 get /Ts exch def /FontInfo get dup
  /UnderlinePosition get Ts mul /To exch def
  /UnderlineThickness get Ts mul /Tt exch def
  ux uy To add cs add moveto Tcx uy To add cs add lineto
  Tt setlinewidth stroke
  grestore
} bd
/SOE {
  /Tcx currentpoint pop def
  gsave
  newpath
  cf findfont cs scalefont dup
  /FontMatrix get 0 get /Ts exch def /FontInfo get dup
  /UnderlinePosition get Ts mul /To exch def
  /UnderlineThickness get Ts mul /Tt exch def
  ux uy To add cs 10 mul 26 idiv add moveto Tcx uy To add cs 10 mul 26 idiv add lineto
  Tt setlinewidth stroke
  grestore
} bd
/QT {
/Y22 exch store
/X22 exch store
/Y21 exch store
/X21 exch store
currentpoint
/Y21 load 2 mul add 3 div exch
/X21 load 2 mul add 3 div exch
/X21 load 2 mul /X22 load add 3 div
/Y21 load 2 mul /Y22 load add 3 div
/X22 load /Y22 load curveto
} bd
/SSPD {
dup length /d exch dict def
{
/v exch def
/k exch def
currentpagedevice k known {
/cpdv currentpagedevice k get def
v cpdv ne {
/upd false def
/nullv v type /nulltype eq def
/nullcpdv cpdv type /nulltype eq def
nullv nullcpdv or
{
/upd true def
} {
/sametype v type cpdv type eq def
sametype {
v type /arraytype eq {
/vlen v length def
/cpdvlen cpdv length def
vlen cpdvlen eq {
0 1 vlen 1 sub {
/i exch def
/obj v i get def
/cpdobj cpdv i get def
obj cpdobj ne {
/upd true def
exit
} if
} for
} {
/upd true def
} ifelse
} {
v type /dicttype eq {
v {
/dv exch def
/dk exch def
/cpddv cpdv dk get def
dv cpddv ne {
/upd true def
exit
} if
} forall
} {
/upd true def
} ifelse
} ifelse
} if
} ifelse
upd true eq {
d k v put
} if
} if
} if
} forall
d length 0 gt {
d setpagedevice
} if
} bd
/RE { % /NewFontName [NewEncodingArray] /FontName RE -
  findfont dup length dict begin
  {
    1 index /FID ne
    {def} {pop pop} ifelse
  } forall
  /Encoding exch def
  /FontName 1 index def
  currentdict definefont pop
  end
} bind def
%%EndResource
%%BeginResource: procset (Apache XML Graphics EPS ProcSet) 1.0 0
%%Version: 1.0 0
%%Copyright: (Copyright 2002-2003 The Apache Software Foundation. License terms: http://www.apache.org/licenses/LICENSE-2.0)
/BeginEPSF { %def
/b4_Inc_state save def         % Save state for cleanup
/dict_count countdictstack def % Count objects on dict stack
/op_count count 1 sub def      % Count objects on operand stack
userdict begin                 % Push userdict on dict stack
/showpage { } def              % Redefine showpage, { } = null proc
0 setgray 0 setlinecap         % Prepare graphics state
1 setlinewidth 0 setlinejoin
10 setmiterlimit [ ] 0 setdash newpath
/languagelevel where           % If level not equal to 1 then
{pop languagelevel             % set strokeadjust and
1 ne                           % overprint to their defaults.
{false setstrokeadjust false setoverprint
} if
} if
} bd
/EndEPSF { %def
count op_count sub {pop} repeat            % Clean up stacks
countdictstack dict_count sub {end} repeat
b4_Inc_state restore
} bd
%%EndResource
%FOPBeginFontDict
%%IncludeResource: font Courier-Bold
%%IncludeResource: font Helvetica
%%IncludeResource: font Courier-BoldOblique
%%IncludeResource: font Courier-Oblique
%%IncludeResource: font Times-Roman
%%IncludeResource: font Helvetica-BoldOblique
%%IncludeResource: font Helvetica-Bold
%%IncludeResource: font Helvetica-Oblique
%%IncludeResource: font Times-BoldItalic
%%IncludeResource: font Courier
%%IncludeResource: font Times-Italic
%%IncludeResource: font Times-Bold
%%IncludeResource: font Symbol
%%IncludeResource: font ZapfDingbats
%FOPEndFontDict
%%BeginResource: encoding WinAnsiEncoding
/WinAnsiEncoding [
/.notdef /.notdef /.notdef /.notdef /.notdef
/.notdef /.notdef /.notdef /.notdef /.notdef
/.notdef /.notdef /.notdef /.notdef /.notdef
/.notdef /.notdef /.notdef /.notdef /.notdef
/.notdef /.notdef /.notdef /.notdef /.notdef
/.notdef /.notdef /.notdef /.notdef /.notdef
/.notdef /.notdef /space /exclam /quotedbl
/numbersign /dollar /percent /ampersand /quotesingle
/parenleft /parenright /asterisk /plus /comma
/hyphen /period /slash /zero /one
/two /three /four /five /six
/seven /eight /nine /colon /semicolon
/less /equal /greater /question /at
/A /B /C /D /E
/F /G /H /I /J
/K /L /M /N /O
/P /Q /R /S /T
/U /V /W /X /Y
/Z /bracketleft /backslash /bracketright /asciicircum
/underscore /quoteleft /a /b /c
/d /e /f /g /h
/i /j /k /l /m
/n /o /p /q /r
/s /t /u /v /w
/x /y /z /braceleft /bar
/braceright /asciitilde /bullet /Euro /bullet
/quotesinglbase /florin /quotedblbase /ellipsis /dagger
/daggerdbl /circumflex /perthousand /Scaron /guilsinglleft
/OE /bullet /Zcaron /bullet /bullet
/quoteleft /quoteright /quotedblleft /quotedblright /bullet
/endash /emdash /asciitilde /trademark /scaron
/guilsinglright /oe /bullet /zcaron /Ydieresis
/space /exclamdown /cent /sterling /currency
/yen /brokenbar /section /dieresis /copyright
/ordfeminine /guillemotleft /logicalnot /sfthyphen /registered
/macron /degree /plusminus /twosuperior /threesuperior
/acute /mu /paragraph /middot /cedilla
/onesuperior /ordmasculine /guillemotright /onequarter /onehalf
/threequarters /questiondown /Agrave /Aacute /Acircumflex
/Atilde /Adieresis /Aring /AE /Ccedilla
/Egrave /Eacute /Ecircumflex /Edieresis /Igrave
/Iacute /Icircumflex /Idieresis /Eth /Ntilde
/Ograve /Oacute /Ocircumflex /Otilde /Odieresis
/multiply /Oslash /Ugrave /Uacute /Ucircumflex
/Udieresis /Yacute /Thorn /germandbls /agrave
/aacute /acircumflex /atilde /adieresis /aring
/ae /ccedilla /egrave /eacute /ecircumflex
/edieresis /igrave /iacute /icircumflex /idieresis
/eth /ntilde /ograve /oacute /ocircumflex
/otilde /odieresis /divide /oslash /ugrave
/uacute /ucircumflex /udieresis /yacute /thorn
/ydieresis
] def
%%EndResource
%FOPBeginFontReencode
/Courier-Bold findfont
dup length dict begin
  {1 index /FID ne {def} {pop pop} ifelse} forall
  /Encoding WinAnsiEncoding def
  currentdict
end
/Courier-Bold exch definefont pop
/Helvetica findfont
dup length dict begin
  {1 index /FID ne {def} {pop pop} ifelse} forall
  /Encoding WinAnsiEncoding def
  currentdict
end
/Helvetica exch definefont pop
/Courier-BoldOblique findfont
dup length dict begin
  {1 index /FID ne {def} {pop pop} ifelse} forall
  /Encoding WinAnsiEncoding def
  currentdict
end
/Courier-BoldOblique exch definefont pop
/Courier-Oblique findfont
dup length dict begin
  {1 index /FID ne {def} {pop pop} ifelse} forall
  /Encoding WinAnsiEncoding def
  currentdict
end
/Courier-Oblique exch definefont pop
/Times-Roman findfont
dup length dict begin
  {1 index /FID ne {def} {pop pop} ifelse} forall
  /Encoding WinAnsiEncoding def
  currentdict
end
/Times-Roman exch definefont pop
/Helvetica-BoldOblique findfont
dup length dict begin
  {1 index /FID ne {def} {pop pop} ifelse} forall
  /Encoding WinAnsiEncoding def
  currentdict
end
/Helvetica-BoldOblique exch definefont pop
/Helvetica-Bold findfont
dup length dict begin
  {1 index /FID ne {def} {pop pop} ifelse} forall
  /Encoding WinAnsiEncoding def
  currentdict
end
/Helvetica-Bold exch definefont pop
/Helvetica-Oblique findfont
dup length dict begin
  {1 index /FID ne {def} {pop pop} ifelse} forall
  /Encoding WinAnsiEncoding def
  currentdict
end
/Helvetica-Oblique exch definefont pop
/Times-BoldItalic findfont
dup length dict begin
  {1 index /FID ne {def} {pop pop} ifelse} forall
  /Encoding WinAnsiEncoding def
  currentdict
end
/Times-BoldItalic exch definefont pop
/Courier findfont
dup length dict begin
  {1 index /FID ne {def} {pop pop} ifelse} forall
  /Encoding WinAnsiEncoding def
  currentdict
end
/Courier exch definefont pop
/Times-Italic findfont
dup length dict begin
  {1 index /FID ne {def} {pop pop} ifelse} forall
  /Encoding WinAnsiEncoding def
  currentdict
end
/Times-Italic exch definefont pop
/Times-Bold findfont
dup length dict begin
  {1 index /FID ne {def} {pop pop} ifelse} forall
  /Encoding WinAnsiEncoding def
  currentdict
end
/Times-Bold exch definefont pop
%FOPEndFontReencode
%%EndProlog
%%Page: 1 1
%%PageBoundingBox: 0 0 473 332
%%BeginPageSetup
[1 0 0 -1 0 332] CT
%%EndPageSetup
GS
[0.5 0 0 0.5 0 0] CT
1 GC
N
0 0 946 664 re
f
GR
GS
[0.5 0 0 0.5 0 0] CT
1 GC
N
0 0 946 664 re
f
GR
GS
[0.5 0 0 0.5 0 0] CT
1 GC
N
123 591 M
856 591 L
856 50 L
123 50 L
cp
f
GR
GS
[0.5 0 0 0.5 0 0] CT
0.873 GC
1 LJ
N
123 591 M
123 50 L
S
GR
GS
[0.5 0 0 0.5 0 0] CT
0.873 GC
1 LJ
N
196.3 591 M
196.3 50 L
S
GR
GS
[0.5 0 0 0.5 0 0] CT
0.873 GC
1 LJ
N
269.6 591 M
269.6 50 L
S
GR
GS
[0.5 0 0 0.5 0 0] CT
0.873 GC
1 LJ
N
342.9 591 M
342.9 50 L
S
GR
GS
[0.5 0 0 0.5 0 0] CT
0.873 GC
1 LJ
N
416.2 591 M
416.2 50 L
S
GR
GS
[0.5 0 0 0.5 0 0] CT
0.873 GC
1 LJ
N
489.5 591 M
489.5 50 L
S
GR
GS
[0.5 0 0 0.5 0 0] CT
0.873 GC
1 LJ
N
562.8 591 M
562.8 50 L
S
GR
GS
[0.5 0 0 0.5 0 0] CT
0.873 GC
1 LJ
N
636.1 591 M
636.1 50 L
S
GR
GS
[0.5 0 0 0.5 0 0] CT
0.873 GC
1 LJ
N
709.4 591 M
709.4 50 L
S
GR
GS
[0.5 0 0 0.5 0 0] CT
0.873 GC
1 LJ
N
782.7 591 M
782.7 50 L
S
GR
GS
[0.5 0 0 0.5 0 0] CT
0.873 GC
1 LJ
N
856 591 M
856 50 L
S
GR
GS
[0.5 0 0 0.5 0 0] CT
0.873 GC
1 LJ
N
856 591 M
123 591 L
S
GR
GS
[0.5 0 0 0.5 0 0] CT
0.873 GC
1 LJ
N
856 513.714 M
123 513.714 L
S
GR
GS
[0.5 0 0 0.5 0 0] CT
0.873 GC
1 LJ
N
856 436.429 M
123 436.429 L
S
GR
GS
[0.5 0 0 0.5 0 0] CT
0.873 GC
1 LJ
N
856 359.143 M
123 359.143 L
S
GR
GS
[0.5 0 0 0.5 0 0] CT
0.873 GC
1 LJ
N
856 281.857 M
123 281.857 L
S
GR
GS
[0.5 0 0 0.5 0 0] CT
0.873 GC
1 LJ
N
856 204.571 M
123 204.571 L
S
GR
GS
[0.5 0 0 0.5 0 0] CT
0.873 GC
1 LJ
N
856 127.286 M
123 127.286 L
S
GR
GS
[0.5 0 0 0.5 0 0] CT
0.873 GC
1 LJ
N
856 50 M
123 50 L
S
GR
GS
[0.5 0 0 0.5 0 0] CT
0.149 GC
2 setlinecap
1 LJ
N
123 591 M
856 591 L
S
GR
GS
[0.5 0 0 0.5 0 0] CT
0.149 GC
2 setlinecap
1 LJ
N
123 50 M
856 50 L
S
GR
GS
[0.5 0 0 0.5 0 0] CT
0.149 GC
2 setlinecap
1 LJ
N
123 591 M
123 583.67 L
S
GR
GS
[0.5 0 0 0.5 0 0] CT
0.149 GC
2 setlinecap
1 LJ
N
196.3 591 M
196.3 583.67 L
S
GR
GS
[0.5 0 0 0.5 0 0] CT
0.149 GC
2 setlinecap
1 LJ
N
269.6 591 M
269.6 583.67 L
S
GR
GS
[0.5 0 0 0.5 0 0] CT
0.149 GC
2 setlinecap
1 LJ
N
342.9 591 M
342.9 583.67 L
S
GR
GS
[0.5 0 0 0.5 0 0] CT
0.149 GC
2 setlinecap
1 LJ
N
416.2 591 M
416.2 583.67 L
S
GR
GS
[0.5 0 0 0.5 0 0] CT
0.149 GC
2 setlinecap
1 LJ
N
489.5 591 M
489.5 583.67 L
S
GR
GS
[0.5 0 0 0.5 0 0] CT
0.149 GC
2 setlinecap
1 LJ
N
562.8 591 M
562.8 583.67 L
S
GR
GS
[0.5 0 0 0.5 0 0] CT
0.149 GC
2 setlinecap
1 LJ
N
636.1 591 M
636.1 583.67 L
S
GR
GS
[0.5 0 0 0.5 0 0] CT
0.149 GC
2 setlinecap
1 LJ
N
709.4 591 M
709.4 583.67 L
S
GR
GS
[0.5 0 0 0.5 0 0] CT
0.149 GC
2 setlinecap
1 LJ
N
782.7 591 M
782.7 583.67 L
S
GR
GS
[0.5 0 0 0.5 0 0] CT
0.149 GC
2 setlinecap
1 LJ
N
856 591 M
856 583.67 L
S
GR
GS
[0.5 0 0 0.5 0 0] CT
0.149 GC
2 setlinecap
1 LJ
N
123 50 M
123 57.33 L
S
GR
GS
[0.5 0 0 0.5 0 0] CT
0.149 GC
2 setlinecap
1 LJ
N
196.3 50 M
196.3 57.33 L
S
GR
GS
[0.5 0 0 0.5 0 0] CT
0.149 GC
2 setlinecap
1 LJ
N
269.6 50 M
269.6 57.33 L
S
GR
GS
[0.5 0 0 0.5 0 0] CT
0.149 GC
2 setlinecap
1 LJ
N
342.9 50 M
342.9 57.33 L
S
GR
GS
[0.5 0 0 0.5 0 0] CT
0.149 GC
2 setlinecap
1 LJ
N
416.2 50 M
416.2 57.33 L
S
GR
GS
[0.5 0 0 0.5 0 0] CT
0.149 GC
2 setlinecap
1 LJ
N
489.5 50 M
489.5 57.33 L
S
GR
GS
[0.5 0 0 0.5 0 0] CT
0.149 GC
2 setlinecap
1 LJ
N
562.8 50 M
562.8 57.33 L
S
GR
GS
[0.5 0 0 0.5 0 0] CT
0.149 GC
2 setlinecap
1 LJ
N
636.1 50 M
636.1 57.33 L
S
GR
GS
[0.5 0 0 0.5 0 0] CT
0.149 GC
2 setlinecap
1 LJ
N
709.4 50 M
709.4 57.33 L
S
GR
GS
[0.5 0 0 0.5 0 0] CT
0.149 GC
2 setlinecap
1 LJ
N
782.7 50 M
782.7 57.33 L
S
GR
GS
[0.5 0 0 0.5 0 0] CT
0.149 GC
2 setlinecap
1 LJ
N
856 50 M
856 57.33 L
S
GR
GS
[0.5 0 0 0.5 61.5 299.5] CT
0.149 GC
/Helvetica 20 F
GS
[1 0 0 1 0 0] CT
-6 21 moveto 
1 -1 scale
(0) t 
GR
GR
GS
[0.5 0 0 0.5 98.15 299.5] CT
0.149 GC
/Helvetica 20 F
GS
[1 0 0 1 0 0] CT
-14 21 moveto 
1 -1 scale
(0.2) t 
GR
GR
GS
[0.5 0 0 0.5 134.8 299.5] CT
0.149 GC
/Helvetica 20 F
GS
[1 0 0 1 0 0] CT
-14 21 moveto 
1 -1 scale
(0.4) t 
GR
GR
GS
[0.5 0 0 0.5 171.45 299.5] CT
0.149 GC
/Helvetica 20 F
GS
[1 0 0 1 0 0] CT
-14 21 moveto 
1 -1 scale
(0.6) t 
GR
GR
GS
[0.5 0 0 0.5 208.10001 299.5] CT
0.149 GC
/Helvetica 20 F
GS
[1 0 0 1 0 0] CT
-14 21 moveto 
1 -1 scale
(0.8) t 
GR
GR
GS
[0.5 0 0 0.5 244.75 299.5] CT
0.149 GC
/Helvetica 20 F
GS
[1 0 0 1 0 0] CT
-6 21 moveto 
1 -1 scale
(1) t 
GR
GR
GS
[0.5 0 0 0.5 281.39999 299.5] CT
0.149 GC
/Helvetica 20 F
GS
[1 0 0 1 0 0] CT
-14 21 moveto 
1 -1 scale
(1.2) t 
GR
GR
GS
[0.5 0 0 0.5 318.04999 299.5] CT
0.149 GC
/Helvetica 20 F
GS
[1 0 0 1 0 0] CT
-14 21 moveto 
1 -1 scale
(1.4) t 
GR
GR
GS
[0.5 0 0 0.5 354.70001 299.5] CT
0.149 GC
/Helvetica 20 F
GS
[1 0 0 1 0 0] CT
-14 21 moveto 
1 -1 scale
(1.6) t 
GR
GR
GS
[0.5 0 0 0.5 391.35001 299.5] CT
0.149 GC
/Helvetica 20 F
GS
[1 0 0 1 0 0] CT
-14 21 moveto 
1 -1 scale
(1.8) t 
GR
GR
GS
[0.5 0 0 0.5 428 299.5] CT
0.149 GC
/Helvetica 20 F
GS
[1 0 0 1 0 0] CT
-6 21 moveto 
1 -1 scale
(2) t 
GR
GR
GS
[0.5 0 0 0.5 247.75018 316.5] CT
0.149 GC
/Helvetica 22 F
GS
[1 0 0 1 0 0] CT
-83 23 moveto 
1 -1 scale
(Time To Maturity) t 
GR
GR
GS
[0.5 0 0 0.5 0 0] CT
0.149 GC
2 setlinecap
1 LJ
N
123 591 M
123 50 L
S
GR
GS
[0.5 0 0 0.5 0 0] CT
0.149 GC
2 setlinecap
1 LJ
N
856 591 M
856 50 L
S
GR
GS
[0.5 0 0 0.5 0 0] CT
0.149 GC
2 setlinecap
1 LJ
N
123 591 M
130.33 591 L
S
GR
GS
[0.5 0 0 0.5 0 0] CT
0.149 GC
2 setlinecap
1 LJ
N
123 513.714 M
130.33 513.714 L
S
GR
GS
[0.5 0 0 0.5 0 0] CT
0.149 GC
2 setlinecap
1 LJ
N
123 436.429 M
130.33 436.429 L
S
GR
GS
[0.5 0 0 0.5 0 0] CT
0.149 GC
2 setlinecap
1 LJ
N
123 359.143 M
130.33 359.143 L
S
GR
GS
[0.5 0 0 0.5 0 0] CT
0.149 GC
2 setlinecap
1 LJ
N
123 281.857 M
130.33 281.857 L
S
GR
GS
[0.5 0 0 0.5 0 0] CT
0.149 GC
2 setlinecap
1 LJ
N
123 204.571 M
130.33 204.571 L
S
GR
GS
[0.5 0 0 0.5 0 0] CT
0.149 GC
2 setlinecap
1 LJ
N
123 127.286 M
130.33 127.286 L
S
GR
GS
[0.5 0 0 0.5 0 0] CT
0.149 GC
2 setlinecap
1 LJ
N
123 50 M
130.33 50 L
S
GR
GS
[0.5 0 0 0.5 0 0] CT
0.149 GC
2 setlinecap
1 LJ
N
856 591 M
848.67 591 L
S
GR
GS
[0.5 0 0 0.5 0 0] CT
0.149 GC
2 setlinecap
1 LJ
N
856 513.714 M
848.67 513.714 L
S
GR
GS
[0.5 0 0 0.5 0 0] CT
0.149 GC
2 setlinecap
1 LJ
N
856 436.429 M
848.67 436.429 L
S
GR
GS
[0.5 0 0 0.5 0 0] CT
0.149 GC
2 setlinecap
1 LJ
N
856 359.143 M
848.67 359.143 L
S
GR
GS
[0.5 0 0 0.5 0 0] CT
0.149 GC
2 setlinecap
1 LJ
N
856 281.857 M
848.67 281.857 L
S
GR
GS
[0.5 0 0 0.5 0 0] CT
0.149 GC
2 setlinecap
1 LJ
N
856 204.571 M
848.67 204.571 L
S
GR
GS
[0.5 0 0 0.5 0 0] CT
0.149 GC
2 setlinecap
1 LJ
N
856 127.286 M
848.67 127.286 L
S
GR
GS
[0.5 0 0 0.5 0 0] CT
0.149 GC
2 setlinecap
1 LJ
N
856 50 M
848.67 50 L
S
GR
GS
[0.5 0 0 0.5 57.5 295.5] CT
0.149 GC
/Helvetica 20 F
GS
[1 0 0 1 0 0] CT
-23 8 moveto 
1 -1 scale
(80) t 
GR
GR
GS
[0.5 0 0 0.5 57.5 256.85715] CT
0.149 GC
/Helvetica 20 F
GS
[1 0 0 1 0 0] CT
-23 8 moveto 
1 -1 scale
(90) t 
GR
GR
GS
[0.5 0 0 0.5 57.5 218.21428] CT
0.149 GC
/Helvetica 20 F
GS
[1 0 0 1 0 0] CT
-34 8 moveto 
1 -1 scale
(100) t 
GR
GR
GS
[0.5 0 0 0.5 57.5 179.57143] CT
0.149 GC
/Helvetica 20 F
GS
[1 0 0 1 0 0] CT
-34 8 moveto 
1 -1 scale
(110) t 
GR
GR
GS
[0.5 0 0 0.5 57.5 140.92857] CT
0.149 GC
/Helvetica 20 F
GS
[1 0 0 1 0 0] CT
-34 8 moveto 
1 -1 scale
(120) t 
GR
GR
GS
[0.5 0 0 0.5 57.5 102.28571] CT
0.149 GC
/Helvetica 20 F
GS
[1 0 0 1 0 0] CT
-34 8 moveto 
1 -1 scale
(130) t 
GR
GR
GS
[0.5 0 0 0.5 57.5 63.64286] CT
0.149 GC
/Helvetica 20 F
GS
[1 0 0 1 0 0] CT
-34 8 moveto 
1 -1 scale
(140) t 
GR
GR
GS
[0.5 0 0 0.5 57.5 25] CT
0.149 GC
/Helvetica 20 F
GS
[1 0 0 1 0 0] CT
-34 8 moveto 
1 -1 scale
(150) t 
GR
GR
GS
[0 -0.5 0.5 0 37.5 160.24988] CT
0.149 GC
/Helvetica 22 F
GS
[1 0 0 1 0 0] CT
-56 -5 moveto 
1 -1 scale
(Stock Price) t 
GR
GR
GS
[0.5 0 0 0.5 0 0] CT
0 0.447 0.741 RC
1 LJ
N
123 436.429 M
125.443 444.914 L
127.887 429.401 L
130.33 421.858 L
132.773 410.122 L
135.217 407.536 L
137.66 421.99 L
140.103 444.348 L
142.547 427.275 L
144.99 442.382 L
147.433 440.833 L
149.877 419.065 L
152.32 422.003 L
154.763 447.39 L
157.207 448.253 L
159.65 451.436 L
162.093 458.589 L
164.537 440.441 L
166.98 435.93 L
169.423 421.705 L
171.867 413.302 L
174.31 433.991 L
176.753 425.934 L
179.197 413.74 L
181.64 417.854 L
184.083 423.259 L
186.527 407.333 L
188.97 384.308 L
191.413 392.177 L
193.857 395.218 L
196.3 392.461 L
198.743 393.799 L
201.187 406.87 L
203.63 388.197 L
206.073 396.271 L
208.517 422.665 L
210.96 395.983 L
213.403 402.092 L
215.847 388.965 L
218.29 387.479 L
220.733 411.601 L
223.177 410.373 L
225.62 413.516 L
228.063 420.309 L
230.507 417.655 L
232.95 409.091 L
235.393 394.137 L
237.837 397.914 L
240.28 393.796 L
242.723 404.07 L
245.167 391.049 L
247.61 381.317 L
250.053 379.488 L
252.497 385.63 L
254.94 379.661 L
257.383 365.178 L
259.827 381.038 L
262.27 396.699 L
264.713 399.021 L
267.157 399.427 L
269.6 403.643 L
272.043 386.832 L
274.487 383.144 L
276.93 390.969 L
279.373 406.426 L
281.817 394.849 L
284.26 401.273 L
286.703 376.075 L
289.147 358.14 L
291.59 371.553 L
294.033 379.653 L
296.477 364.497 L
298.92 365.672 L
301.363 350.737 L
303.807 341.909 L
306.25 328.065 L
308.693 324.165 L
311.137 326.363 L
313.58 347.942 L
316.023 343.811 L
318.467 347.962 L
320.91 367.398 L
323.353 350.268 L
325.797 356.1 L
328.24 328.999 L
330.683 342.792 L
333.127 355.368 L
335.57 355.543 L
338.013 375.931 L
340.457 375.695 L
342.9 370.232 L
345.343 375.418 L
347.787 379.5 L
350.23 385.37 L
352.673 373.153 L
355.117 378.143 L
357.56 372.964 L
360.003 388.671 L
362.447 379.167 L
364.89 355.881 L
367.333 356.649 L
369.777 356.511 L
372.22 358.779 L
374.663 338.379 L
377.107 369.103 L
379.55 354.767 L
381.993 351.463 L
384.437 356.144 L
386.88 333.662 L
389.323 321.345 L
391.767 297.583 L
394.21 309.294 L
396.653 298.559 L
399.097 305.903 L
401.54 306.849 L
403.983 298.84 L
406.427 296.219 L
408.87 301.024 L
411.313 267.63 L
413.757 261.179 L
416.2 250.411 L
418.643 243.644 L
421.087 245.728 L
423.53 250.455 L
425.973 239.315 L
428.417 242.404 L
430.86 227.445 L
433.303 214.466 L
435.747 207.292 L
438.19 217.847 L
440.633 186.109 L
443.077 212.921 L
445.52 200.01 L
447.963 179.217 L
450.407 167.715 L
452.85 185.863 L
455.293 202.501 L
457.737 183.651 L
460.18 190.719 L
462.623 222.394 L
465.067 244.343 L
467.51 248.693 L
469.953 263.689 L
472.397 228.807 L
474.84 228.657 L
477.283 214.126 L
479.727 234.045 L
482.17 253.874 L
484.613 267.283 L
487.057 302.362 L
489.5 310.501 L
491.943 338.227 L
494.387 335.945 L
496.83 339.385 L
499.273 322.319 L
501.717 340.139 L
504.16 312.364 L
506.603 327.132 L
509.047 322.83 L
511.49 329.092 L
513.933 330.843 L
516.377 352.337 L
518.82 370.015 L
521.263 371.322 L
523.707 366.479 L
526.15 359.006 L
528.593 353.858 L
531.037 348.733 L
533.48 370.885 L
535.923 356.02 L
538.367 349.098 L
540.81 340.773 L
543.253 336.237 L
545.697 346.563 L
548.14 355.053 L
550.583 360.368 L
553.027 378.875 L
555.47 352.921 L
557.913 352.916 L
560.357 352.916 L
562.8 321.646 L
565.243 333.99 L
567.687 348.74 L
570.13 343.369 L
572.573 352.831 L
575.017 334.127 L
577.46 351.859 L
579.903 334.654 L
582.347 340.406 L
584.79 314.327 L
587.233 325.696 L
589.677 346.021 L
592.12 356.703 L
594.563 356.311 L
597.007 352.439 L
599.45 340.11 L
601.893 358.95 L
604.337 363.225 L
606.78 352.992 L
609.223 350.336 L
611.667 344.65 L
614.11 352.526 L
616.553 341.72 L
618.997 325.714 L
621.44 316.569 L
623.883 299.857 L
626.327 286.119 L
628.77 283.066 L
631.213 268.146 L
633.657 285.074 L
636.1 293.874 L
638.543 326.065 L
640.987 339.014 L
643.43 346.736 L
645.873 358.02 L
648.317 357.361 L
650.76 325.131 L
653.203 324.082 L
655.647 311.06 L
658.09 306.763 L
660.533 324.999 L
662.977 325.949 L
665.42 298.996 L
667.863 303.482 L
670.307 318.337 L
672.75 325.348 L
675.193 322.071 L
677.637 332.403 L
680.08 356.888 L
682.523 359.829 L
684.967 364.733 L
687.41 368.186 L
689.853 373.993 L
692.297 380.133 L
694.74 374.582 L
697.183 359.046 L
699.627 361.911 L
702.07 351.501 L
704.513 332.621 L
706.957 339.697 L
709.4 327.027 L
711.843 303.466 L
714.287 300.174 L
716.73 289.572 L
719.173 293.537 L
721.617 274.139 L
724.06 276.906 L
726.503 226.396 L
728.947 205.145 L
731.39 197.879 L
733.833 184.015 L
S
GR
GS
[0.5 0 0 0.5 0 0] CT
0.851 0.325 0.098 RC
1 LJ
N
123 436.429 M
125.443 428.606 L
127.887 420.414 L
130.33 415.471 L
132.773 402.924 L
135.217 402.951 L
137.66 410.464 L
140.103 379.434 L
142.547 386.876 L
144.99 416.77 L
147.433 426.795 L
149.877 425.609 L
152.32 435.639 L
154.763 425.229 L
157.207 414.725 L
159.65 413.526 L
162.093 380.771 L
164.537 381.642 L
166.98 372.883 L
169.423 364.948 L
171.867 370.763 L
174.31 368.224 L
176.753 346.89 L
179.197 350.228 L
181.64 346.599 L
184.083 353.197 L
186.527 361.381 L
188.97 357.447 L
191.413 334.773 L
193.857 332.805 L
196.3 344.415 L
198.743 333.272 L
201.187 335.338 L
203.63 330.1 L
206.073 328.587 L
208.517 318.042 L
210.96 288.94 L
213.403 291.531 L
215.847 304.725 L
218.29 319.484 L
220.733 337.034 L
223.177 353.925 L
225.62 366.453 L
228.063 392.364 L
230.507 400.408 L
232.95 395.167 L
235.393 403.612 L
237.837 399.1 L
240.28 395.533 L
242.723 399.062 L
245.167 401.787 L
247.61 398.014 L
250.053 411.575 L
252.497 400.669 L
254.94 390.475 L
257.383 382.885 L
259.827 413.068 L
262.27 407.638 L
264.713 423.115 L
267.157 426.928 L
269.6 417.384 L
272.043 409.274 L
274.487 433.405 L
276.93 444.076 L
279.373 416.337 L
281.817 400.993 L
284.26 400.658 L
286.703 395.883 L
289.147 392.379 L
291.59 415.104 L
294.033 421.47 L
296.477 430.352 L
298.92 440.795 L
301.363 407.517 L
303.807 401.375 L
306.25 404.05 L
308.693 415.325 L
311.137 415.634 L
313.58 411.145 L
316.023 423.926 L
318.467 403.92 L
320.91 411.217 L
323.353 419.224 L
325.797 437.293 L
328.24 434.196 L
330.683 418.103 L
333.127 438.154 L
335.57 423.215 L
338.013 415.634 L
340.457 404.889 L
342.9 407.687 L
345.343 444.5 L
347.787 421.271 L
350.23 399.107 L
352.673 397.697 L
355.117 392.035 L
357.56 384.57 L
360.003 391.605 L
362.447 402.514 L
364.89 414.127 L
367.333 418.494 L
369.777 419.608 L
372.22 429.92 L
374.663 427.018 L
377.107 401.802 L
379.55 386.938 L
381.993 386.996 L
384.437 377.533 L
386.88 367.571 L
389.323 369.351 L
391.767 376.809 L
394.21 390.995 L
396.653 370.607 L
399.097 362.754 L
401.54 357.697 L
403.983 368.654 L
406.427 358.255 L
408.87 379.624 L
411.313 374.783 L
413.757 374.602 L
416.2 376.906 L
418.643 348.754 L
421.087 338.062 L
423.53 366.153 L
425.973 366.056 L
428.417 359.121 L
430.86 354.311 L
433.303 344.491 L
435.747 328.474 L
438.19 325.939 L
440.633 319.054 L
443.077 324.769 L
445.52 326.297 L
447.963 307.676 L
450.407 306.341 L
452.85 313.835 L
455.293 299.786 L
457.737 297.975 L
460.18 290.035 L
462.623 259.134 L
465.067 237.959 L
467.51 234.336 L
469.953 225.926 L
472.397 215.682 L
474.84 219.431 L
477.283 204.53 L
479.727 209.145 L
482.17 198.17 L
484.613 172.758 L
487.057 165.301 L
489.5 182.307 L
491.943 205.344 L
494.387 214.433 L
496.83 213.595 L
499.273 216.914 L
501.717 204.77 L
504.16 221.647 L
506.603 232.612 L
509.047 220.343 L
511.49 212.378 L
513.933 194.311 L
516.377 176.943 L
518.82 167.126 L
521.263 141.114 L
523.707 76.78 L
526.15 64.104 L
528.593 77.129 L
531.037 94.926 L
533.48 93.01 L
535.923 84.466 L
538.367 93.267 L
540.81 102.614 L
543.253 127.484 L
545.697 152.803 L
548.14 134.968 L
550.583 114.545 L
553.027 119.544 L
555.47 128.089 L
557.913 131.721 L
560.357 164.837 L
562.8 140.701 L
565.243 135.888 L
567.687 143.719 L
570.13 129.934 L
572.573 156.924 L
575.017 161.321 L
577.46 142.355 L
579.903 132.377 L
582.347 148.641 L
584.79 160.534 L
587.233 163.19 L
589.677 162.652 L
592.12 167.292 L
594.563 182.298 L
597.007 169.819 L
599.45 158.928 L
601.893 138.599 L
604.337 146.467 L
606.78 113.974 L
609.223 113.002 L
611.667 122.237 L
614.11 132.265 L
616.553 120.504 L
618.997 120.512 L
621.44 128.865 L
623.883 129.138 L
626.327 140.775 L
628.77 148.582 L
631.213 156.547 L
633.657 160.698 L
636.1 141.608 L
638.543 123.943 L
640.987 135.884 L
643.43 121.426 L
645.873 113.072 L
648.317 114.669 L
650.76 130.293 L
653.203 114.648 L
655.647 135.617 L
658.09 138.056 L
660.533 147.869 L
662.977 166.266 L
665.42 176.585 L
667.863 201.147 L
670.307 238.506 L
672.75 244.543 L
675.193 250.792 L
677.637 241.456 L
680.08 234.176 L
682.523 221.335 L
684.967 203.222 L
687.41 167.833 L
689.853 150.431 L
692.297 171.129 L
694.74 161.839 L
697.183 175.466 L
699.627 188.309 L
702.07 164.988 L
704.513 154.822 L
706.957 144.119 L
709.4 165.548 L
711.843 159.2 L
714.287 135.449 L
716.73 132.473 L
719.173 147.005 L
721.617 141.228 L
724.06 109.131 L
726.503 100.536 L
728.947 82.693 L
731.39 120.441 L
733.833 124.46 L
S
GR
GS
[0.5 0 0 0.5 0 0] CT
0.929 0.694 0.125 RC
1 LJ
N
123 436.429 M
125.443 427.71 L
127.887 430.342 L
130.33 431.49 L
132.773 442.878 L
135.217 421.314 L
137.66 445.249 L
140.103 443.598 L
142.547 443 L
144.99 417.379 L
147.433 418.415 L
149.877 396.647 L
152.32 376.933 L
154.763 357.134 L
157.207 331.499 L
159.65 330.347 L
162.093 332.612 L
164.537 334.987 L
166.98 348.613 L
169.423 350.436 L
171.867 340.351 L
174.31 338.145 L
176.753 343.433 L
179.197 348.628 L
181.64 370.031 L
184.083 396.104 L
186.527 402.671 L
188.97 406.497 L
191.413 422.316 L
193.857 432.509 L
196.3 428.228 L
198.743 427.091 L
201.187 429.602 L
203.63 432.182 L
206.073 446.924 L
208.517 447.882 L
210.96 433.602 L
213.403 419.012 L
215.847 417.929 L
218.29 403.11 L
220.733 404.504 L
223.177 390.57 L
225.62 389.494 L
228.063 416.284 L
230.507 435.131 L
232.95 446.667 L
235.393 447.846 L
237.837 432.25 L
240.28 430.524 L
242.723 445.851 L
245.167 461.37 L
247.61 454.495 L
250.053 473.446 L
252.497 487.215 L
254.94 483.285 L
257.383 484.407 L
259.827 485.472 L
262.27 470.182 L
264.713 490.628 L
267.157 480.933 L
269.6 476.143 L
272.043 489.572 L
274.487 501 L
276.93 497.497 L
279.373 489.541 L
281.817 523.667 L
284.26 516.927 L
286.703 515.573 L
289.147 518.157 L
291.59 524.48 L
294.033 524.064 L
296.477 539.764 L
298.92 521.349 L
301.363 531.903 L
303.807 538.028 L
306.25 548.166 L
308.693 555.836 L
311.137 563.619 L
313.58 548.452 L
316.023 538.744 L
318.467 535.206 L
320.91 519.473 L
323.353 516.877 L
325.797 535.102 L
328.24 528.002 L
330.683 530.949 L
333.127 537.143 L
335.57 542.916 L
338.013 546.656 L
340.457 547.454 L
342.9 536.514 L
345.343 537.237 L
347.787 517.823 L
350.23 506.504 L
352.673 510.91 L
355.117 504.714 L
357.56 515.154 L
360.003 524.24 L
362.447 517.793 L
364.89 511.24 L
367.333 500.436 L
369.777 488.855 L
372.22 483.512 L
374.663 488.054 L
377.107 468.025 L
379.55 477.65 L
381.993 463.539 L
384.437 460.38 L
386.88 448.531 L
389.323 432.749 L
391.767 421.238 L
394.21 426.721 L
396.653 426.696 L
399.097 431.5 L
401.54 418.606 L
403.983 400.421 L
406.427 405.872 L
408.87 408.023 L
411.313 377.431 L
413.757 385.131 L
416.2 402.332 L
418.643 399.687 L
421.087 432.413 L
423.53 465.095 L
425.973 463.89 L
428.417 459.746 L
430.86 461.631 L
433.303 460.545 L
435.747 454.157 L
438.19 450.227 L
440.633 430.824 L
443.077 433.916 L
445.52 439.216 L
447.963 448.144 L
450.407 442.226 L
452.85 449.897 L
455.293 445.295 L
457.737 421.445 L
460.18 398.312 L
462.623 389.098 L
465.067 383.39 L
467.51 368.173 L
469.953 382.753 L
472.397 382.478 L
474.84 372.817 L
477.283 348.99 L
479.727 347.448 L
482.17 352.795 L
484.613 363.211 L
487.057 355.176 L
489.5 334.423 L
491.943 369.04 L
494.387 366.823 L
496.83 378.299 L
499.273 369.153 L
501.717 376.745 L
504.16 397.643 L
506.603 393.631 L
509.047 407.944 L
511.49 403.197 L
513.933 420.149 L
516.377 439.596 L
518.82 436.064 L
521.263 442.771 L
523.707 458.653 L
526.15 469.881 L
528.593 464.365 L
531.037 443.404 L
533.48 453.108 L
535.923 454.627 L
538.367 466.466 L
540.81 466.022 L
543.253 448.7 L
545.697 445.754 L
548.14 426.701 L
550.583 426.408 L
553.027 445.282 L
555.47 456.008 L
557.913 444.639 L
560.357 417.632 L
562.8 436.315 L
565.243 457.575 L
567.687 452.259 L
570.13 441.415 L
572.573 444.52 L
575.017 430.528 L
577.46 421.062 L
579.903 403.919 L
582.347 389.461 L
584.79 394.657 L
587.233 373.581 L
589.677 382.421 L
592.12 386.182 L
594.563 394.012 L
597.007 383.06 L
599.45 385.363 L
601.893 382.962 L
604.337 382.688 L
606.78 364.415 L
609.223 364.048 L
611.667 362.918 L
614.11 371.628 L
616.553 374 L
618.997 370.852 L
621.44 380.277 L
623.883 375.218 L
626.327 383.967 L
628.77 401.758 L
631.213 387.528 L
633.657 385.85 L
636.1 393.882 L
638.543 424.456 L
640.987 423.587 L
643.43 423.527 L
645.873 429.968 L
648.317 434.41 L
650.76 435.655 L
653.203 438.064 L
655.647 416.504 L
658.09 435.359 L
660.533 464.839 L
662.977 450.289 L
665.42 447.757 L
667.863 440.16 L
670.307 437.282 L
672.75 456.918 L
675.193 463.459 L
677.637 444.02 L
680.08 446.62 L
682.523 446.649 L
684.967 449.812 L
687.41 459.587 L
689.853 445.095 L
692.297 431.834 L
694.74 438.231 L
697.183 432.502 L
699.627 415.788 L
702.07 408.965 L
704.513 411.859 L
706.957 401.874 L
709.4 414.373 L
711.843 409.698 L
714.287 393.322 L
716.73 399.185 L
719.173 421.571 L
721.617 433.181 L
724.06 431.245 L
726.503 421.999 L
728.947 419.924 L
731.39 418.423 L
733.833 424.055 L
S
GR
GS
[0.5 0 0 0.5 0 0] CT
0.494 0.184 0.557 RC
1 LJ
N
733.833 591 M
733.833 530.889 L
733.833 470.778 L
733.833 410.667 L
733.833 350.556 L
733.833 290.444 L
733.833 230.333 L
733.833 170.222 L
733.833 110.111 L
733.833 50 L
S
GR
GS
[0.5 0 0 0.5 0 0] CT
0 0.447 0.741 RC
1 LJ
N
733.833 184.015 M
856 129.915 L
S
GR
GS
[0.5 0 0 0.5 0 0] CT
0 0.447 0.741 RC
1 LJ
N
733.833 184.015 M
856 176.287 L
S
GR
GS
[0.5 0 0 0.5 0 0] CT
0 0.447 0.741 RC
1 LJ
N
733.833 184.015 M
856 222.658 L
S
GR
GS
[0.5 0 0 0.5 0 0] CT
0.851 0.325 0.098 RC
1 LJ
N
733.833 124.46 M
856 85.817 L
S
GR
GS
[0.5 0 0 0.5 0 0] CT
0.851 0.325 0.098 RC
1 LJ
N
733.833 124.46 M
856 109.003 L
S
GR
GS
[0.5 0 0 0.5 0 0] CT
0.851 0.325 0.098 RC
1 LJ
N
733.833 124.46 M
856 147.646 L
S
GR
GS
[0.5 0 0 0.5 0 0] CT
0.929 0.694 0.125 RC
1 LJ
N
733.833 424.055 M
856 354.498 L
S
GR
GS
[0.5 0 0 0.5 0 0] CT
0.929 0.694 0.125 RC
1 LJ
N
733.833 424.055 M
856 416.326 L
S
GR
GS
[0.5 0 0 0.5 0 0] CT
0.929 0.694 0.125 RC
1 LJ
N
733.833 424.055 M
856 485.884 L
S
GR
GS
[0.5 0 0 0.5 0 0] CT
0 0.447 0.741 RC
1 LJ
N
733.833 184.015 M
856 106.73 L
S
GR
GS
[0.5 0 0 0.5 0 0] CT
0 0.447 0.741 RC
1 LJ
N
733.833 184.015 M
856 184.015 L
S
GR
GS
[0.5 0 0 0.5 0 0] CT
0 0.447 0.741 RC
1 LJ
N
733.833 184.015 M
856 245.844 L
S
GR
GS
[0.5 0 0 0.5 0 0] CT
0.851 0.325 0.098 RC
1 LJ
N
733.833 124.46 M
856 101.274 L
S
GR
GS
[0.5 0 0 0.5 0 0] CT
0.851 0.325 0.098 RC
1 LJ
N
733.833 124.46 M
856 116.731 L
S
GR
GS
[0.5 0 0 0.5 0 0] CT
0.851 0.325 0.098 RC
1 LJ
N
733.833 124.46 M
856 155.374 L
S
GR
GS
[0.5 0 0 0.5 0 0] CT
0.929 0.694 0.125 RC
1 LJ
N
733.833 424.055 M
856 369.955 L
S
GR
GS
[0.5 0 0 0.5 0 0] CT
0.929 0.694 0.125 RC
1 LJ
N
733.833 424.055 M
856 424.055 L
S
GR
GS
[0.5 0 0 0.5 0 0] CT
0.929 0.694 0.125 RC
1 LJ
N
733.833 424.055 M
856 462.698 L
S
GR
GS
[0.5 0 0 0.5 0 0] CT
1 GC
N
749.125 627 M
829 627 L
829 593.6 L
749.125 593.6 L
cp
f
GR
GS
[0.5 0 0 0.5 0 0] CT
1 GC
10.0 ML
N
749.125 627 M
749.125 593.6 L
829 593.6 L
829 627 L
cp
S
GR
GS
[0.5 0 0 0.5 379.56229 299.79999] CT
/Helvetica 20 F
GS
[1 0 0 1 0 0] CT
0 21 moveto 
1 -1 scale
(LRM) t 
GR
GR
GS
[0.5 0 0 0.5 0 0] CT
1 GC
N
365.125 626 M
479 626 L
479 592.6 L
365.125 592.6 L
cp
f
GR
GS
[0.5 0 0 0.5 0 0] CT
1 GC
10.0 ML
N
365.125 626 M
365.125 592.6 L
479 592.6 L
479 626 L
cp
S
GR
GS
[0.5 0 0 0.5 187.56229 299.29999] CT
/Helvetica 20 F
GS
[1 0 0 1 0 0] CT
0 21 moveto 
1 -1 scale
(Pathwise) t 
GR
GR
%%Trailer
%%Pages: 1
%%EOF
