%!PS-Adobe-3.0 EPSF-3.0
%%Creator: (MATLAB, The Mathworks, Inc. Version 9.2.0.556344 \(R2017a\). Operating System: Windows 8)
%%Title: D:/WorkInProgress/Matlab/Thesis/untitled.eps
%%CreationDate: 2017-06-10T15:08:22
%%Pages: (atend)
%%BoundingBox: 0 0 401 269
%%LanguageLevel: 3
%%EndComments
%%BeginProlog
%%BeginResource: procset (Apache XML Graphics Std ProcSet) 1.2 0
%%Version: 1.2 0
%%Copyright: (Copyright 2001-2003,2010 The Apache Software Foundation. License terms: http://www.apache.org/licenses/LICENSE-2.0)
/bd{bind def}bind def
/ld{load def}bd
/GR/grestore ld
/M/moveto ld
/LJ/setlinejoin ld
/C/curveto ld
/f/fill ld
/LW/setlinewidth ld
/GC/setgray ld
/t/show ld
/N/newpath ld
/CT/concat ld
/cp/closepath ld
/S/stroke ld
/L/lineto ld
/CC/setcmykcolor ld
/A/ashow ld
/GS/gsave ld
/RC/setrgbcolor ld
/RM/rmoveto ld
/ML/setmiterlimit ld
/re {4 2 roll M
1 index 0 rlineto
0 exch rlineto
neg 0 rlineto
cp } bd
/_ctm matrix def
/_tm matrix def
/BT { _ctm currentmatrix pop matrix _tm copy pop 0 0 moveto } bd
/ET { _ctm setmatrix } bd
/iTm { _ctm setmatrix _tm concat } bd
/Tm { _tm astore pop iTm 0 0 moveto } bd
/ux 0.0 def
/uy 0.0 def
/F {
  /Tp exch def
  /Tf exch def
  Tf findfont Tp scalefont setfont
  /cf Tf def  /cs Tp def
} bd
/ULS {currentpoint /uy exch def /ux exch def} bd
/ULE {
  /Tcx currentpoint pop def
  gsave
  newpath
  cf findfont cs scalefont dup
  /FontMatrix get 0 get /Ts exch def /FontInfo get dup
  /UnderlinePosition get Ts mul /To exch def
  /UnderlineThickness get Ts mul /Tt exch def
  ux uy To add moveto  Tcx uy To add lineto
  Tt setlinewidth stroke
  grestore
} bd
/OLE {
  /Tcx currentpoint pop def
  gsave
  newpath
  cf findfont cs scalefont dup
  /FontMatrix get 0 get /Ts exch def /FontInfo get dup
  /UnderlinePosition get Ts mul /To exch def
  /UnderlineThickness get Ts mul /Tt exch def
  ux uy To add cs add moveto Tcx uy To add cs add lineto
  Tt setlinewidth stroke
  grestore
} bd
/SOE {
  /Tcx currentpoint pop def
  gsave
  newpath
  cf findfont cs scalefont dup
  /FontMatrix get 0 get /Ts exch def /FontInfo get dup
  /UnderlinePosition get Ts mul /To exch def
  /UnderlineThickness get Ts mul /Tt exch def
  ux uy To add cs 10 mul 26 idiv add moveto Tcx uy To add cs 10 mul 26 idiv add lineto
  Tt setlinewidth stroke
  grestore
} bd
/QT {
/Y22 exch store
/X22 exch store
/Y21 exch store
/X21 exch store
currentpoint
/Y21 load 2 mul add 3 div exch
/X21 load 2 mul add 3 div exch
/X21 load 2 mul /X22 load add 3 div
/Y21 load 2 mul /Y22 load add 3 div
/X22 load /Y22 load curveto
} bd
/SSPD {
dup length /d exch dict def
{
/v exch def
/k exch def
currentpagedevice k known {
/cpdv currentpagedevice k get def
v cpdv ne {
/upd false def
/nullv v type /nulltype eq def
/nullcpdv cpdv type /nulltype eq def
nullv nullcpdv or
{
/upd true def
} {
/sametype v type cpdv type eq def
sametype {
v type /arraytype eq {
/vlen v length def
/cpdvlen cpdv length def
vlen cpdvlen eq {
0 1 vlen 1 sub {
/i exch def
/obj v i get def
/cpdobj cpdv i get def
obj cpdobj ne {
/upd true def
exit
} if
} for
} {
/upd true def
} ifelse
} {
v type /dicttype eq {
v {
/dv exch def
/dk exch def
/cpddv cpdv dk get def
dv cpddv ne {
/upd true def
exit
} if
} forall
} {
/upd true def
} ifelse
} ifelse
} if
} ifelse
upd true eq {
d k v put
} if
} if
} if
} forall
d length 0 gt {
d setpagedevice
} if
} bd
/RE { % /NewFontName [NewEncodingArray] /FontName RE -
  findfont dup length dict begin
  {
    1 index /FID ne
    {def} {pop pop} ifelse
  } forall
  /Encoding exch def
  /FontName 1 index def
  currentdict definefont pop
  end
} bind def
%%EndResource
%%BeginResource: procset (Apache XML Graphics EPS ProcSet) 1.0 0
%%Version: 1.0 0
%%Copyright: (Copyright 2002-2003 The Apache Software Foundation. License terms: http://www.apache.org/licenses/LICENSE-2.0)
/BeginEPSF { %def
/b4_Inc_state save def         % Save state for cleanup
/dict_count countdictstack def % Count objects on dict stack
/op_count count 1 sub def      % Count objects on operand stack
userdict begin                 % Push userdict on dict stack
/showpage { } def              % Redefine showpage, { } = null proc
0 setgray 0 setlinecap         % Prepare graphics state
1 setlinewidth 0 setlinejoin
10 setmiterlimit [ ] 0 setdash newpath
/languagelevel where           % If level not equal to 1 then
{pop languagelevel             % set strokeadjust and
1 ne                           % overprint to their defaults.
{false setstrokeadjust false setoverprint
} if
} if
} bd
/EndEPSF { %def
count op_count sub {pop} repeat            % Clean up stacks
countdictstack dict_count sub {end} repeat
b4_Inc_state restore
} bd
%%EndResource
%FOPBeginFontDict
%%IncludeResource: font Courier-Bold
%%IncludeResource: font Helvetica
%%IncludeResource: font Courier-BoldOblique
%%IncludeResource: font Courier-Oblique
%%IncludeResource: font Times-Roman
%%IncludeResource: font Helvetica-BoldOblique
%%IncludeResource: font Helvetica-Bold
%%IncludeResource: font Helvetica-Oblique
%%IncludeResource: font Times-BoldItalic
%%IncludeResource: font Courier
%%IncludeResource: font Times-Italic
%%IncludeResource: font Times-Bold
%%IncludeResource: font Symbol
%%IncludeResource: font ZapfDingbats
%FOPEndFontDict
%%BeginResource: encoding WinAnsiEncoding
/WinAnsiEncoding [
/.notdef /.notdef /.notdef /.notdef /.notdef
/.notdef /.notdef /.notdef /.notdef /.notdef
/.notdef /.notdef /.notdef /.notdef /.notdef
/.notdef /.notdef /.notdef /.notdef /.notdef
/.notdef /.notdef /.notdef /.notdef /.notdef
/.notdef /.notdef /.notdef /.notdef /.notdef
/.notdef /.notdef /space /exclam /quotedbl
/numbersign /dollar /percent /ampersand /quotesingle
/parenleft /parenright /asterisk /plus /comma
/hyphen /period /slash /zero /one
/two /three /four /five /six
/seven /eight /nine /colon /semicolon
/less /equal /greater /question /at
/A /B /C /D /E
/F /G /H /I /J
/K /L /M /N /O
/P /Q /R /S /T
/U /V /W /X /Y
/Z /bracketleft /backslash /bracketright /asciicircum
/underscore /quoteleft /a /b /c
/d /e /f /g /h
/i /j /k /l /m
/n /o /p /q /r
/s /t /u /v /w
/x /y /z /braceleft /bar
/braceright /asciitilde /bullet /Euro /bullet
/quotesinglbase /florin /quotedblbase /ellipsis /dagger
/daggerdbl /circumflex /perthousand /Scaron /guilsinglleft
/OE /bullet /Zcaron /bullet /bullet
/quoteleft /quoteright /quotedblleft /quotedblright /bullet
/endash /emdash /asciitilde /trademark /scaron
/guilsinglright /oe /bullet /zcaron /Ydieresis
/space /exclamdown /cent /sterling /currency
/yen /brokenbar /section /dieresis /copyright
/ordfeminine /guillemotleft /logicalnot /sfthyphen /registered
/macron /degree /plusminus /twosuperior /threesuperior
/acute /mu /paragraph /middot /cedilla
/onesuperior /ordmasculine /guillemotright /onequarter /onehalf
/threequarters /questiondown /Agrave /Aacute /Acircumflex
/Atilde /Adieresis /Aring /AE /Ccedilla
/Egrave /Eacute /Ecircumflex /Edieresis /Igrave
/Iacute /Icircumflex /Idieresis /Eth /Ntilde
/Ograve /Oacute /Ocircumflex /Otilde /Odieresis
/multiply /Oslash /Ugrave /Uacute /Ucircumflex
/Udieresis /Yacute /Thorn /germandbls /agrave
/aacute /acircumflex /atilde /adieresis /aring
/ae /ccedilla /egrave /eacute /ecircumflex
/edieresis /igrave /iacute /icircumflex /idieresis
/eth /ntilde /ograve /oacute /ocircumflex
/otilde /odieresis /divide /oslash /ugrave
/uacute /ucircumflex /udieresis /yacute /thorn
/ydieresis
] def
%%EndResource
%FOPBeginFontReencode
/Courier-Bold findfont
dup length dict begin
  {1 index /FID ne {def} {pop pop} ifelse} forall
  /Encoding WinAnsiEncoding def
  currentdict
end
/Courier-Bold exch definefont pop
/Helvetica findfont
dup length dict begin
  {1 index /FID ne {def} {pop pop} ifelse} forall
  /Encoding WinAnsiEncoding def
  currentdict
end
/Helvetica exch definefont pop
/Courier-BoldOblique findfont
dup length dict begin
  {1 index /FID ne {def} {pop pop} ifelse} forall
  /Encoding WinAnsiEncoding def
  currentdict
end
/Courier-BoldOblique exch definefont pop
/Courier-Oblique findfont
dup length dict begin
  {1 index /FID ne {def} {pop pop} ifelse} forall
  /Encoding WinAnsiEncoding def
  currentdict
end
/Courier-Oblique exch definefont pop
/Times-Roman findfont
dup length dict begin
  {1 index /FID ne {def} {pop pop} ifelse} forall
  /Encoding WinAnsiEncoding def
  currentdict
end
/Times-Roman exch definefont pop
/Helvetica-BoldOblique findfont
dup length dict begin
  {1 index /FID ne {def} {pop pop} ifelse} forall
  /Encoding WinAnsiEncoding def
  currentdict
end
/Helvetica-BoldOblique exch definefont pop
/Helvetica-Bold findfont
dup length dict begin
  {1 index /FID ne {def} {pop pop} ifelse} forall
  /Encoding WinAnsiEncoding def
  currentdict
end
/Helvetica-Bold exch definefont pop
/Helvetica-Oblique findfont
dup length dict begin
  {1 index /FID ne {def} {pop pop} ifelse} forall
  /Encoding WinAnsiEncoding def
  currentdict
end
/Helvetica-Oblique exch definefont pop
/Times-BoldItalic findfont
dup length dict begin
  {1 index /FID ne {def} {pop pop} ifelse} forall
  /Encoding WinAnsiEncoding def
  currentdict
end
/Times-BoldItalic exch definefont pop
/Courier findfont
dup length dict begin
  {1 index /FID ne {def} {pop pop} ifelse} forall
  /Encoding WinAnsiEncoding def
  currentdict
end
/Courier exch definefont pop
/Times-Italic findfont
dup length dict begin
  {1 index /FID ne {def} {pop pop} ifelse} forall
  /Encoding WinAnsiEncoding def
  currentdict
end
/Times-Italic exch definefont pop
/Times-Bold findfont
dup length dict begin
  {1 index /FID ne {def} {pop pop} ifelse} forall
  /Encoding WinAnsiEncoding def
  currentdict
end
/Times-Bold exch definefont pop
%FOPEndFontReencode
%%EndProlog
%%Page: 1 1
%%PageBoundingBox: 0 0 401 269
%%BeginPageSetup
[1 0 0 -1 0 269] CT
%%EndPageSetup
GS
[0.5 0 0 0.5 0 0] CT
1 GC
N
0 0 802 538 re
f
GR
GS
[0.5 0 0 0.5 0 0] CT
1 GC
N
0 0 802 538 re
f
GR
GS
[0.5 0 0 0.5 0 0] CT
1 GC
N
104 474 M
726 474 L
726 40 L
104 40 L
cp
f
GR
GS
[0.5 0 0 0.5 0 0] CT
0.873 GC
1 LJ
N
104 474 M
104 40 L
S
GR
GS
[0.5 0 0 0.5 0 0] CT
0.873 GC
1 LJ
N
259.5 474 M
259.5 40 L
S
GR
GS
[0.5 0 0 0.5 0 0] CT
0.873 GC
1 LJ
N
415 474 M
415 40 L
S
GR
GS
[0.5 0 0 0.5 0 0] CT
0.873 GC
1 LJ
N
570.5 474 M
570.5 40 L
S
GR
GS
[0.5 0 0 0.5 0 0] CT
0.873 GC
1 LJ
N
726 474 M
726 40 L
S
GR
GS
[0.5 0 0 0.5 0 0] CT
0.873 GC
1 LJ
N
726 474 M
104 474 L
S
GR
GS
[0.5 0 0 0.5 0 0] CT
0.873 GC
1 LJ
N
726 419.75 M
104 419.75 L
S
GR
GS
[0.5 0 0 0.5 0 0] CT
0.873 GC
1 LJ
N
726 365.5 M
104 365.5 L
S
GR
GS
[0.5 0 0 0.5 0 0] CT
0.873 GC
1 LJ
N
726 311.25 M
104 311.25 L
S
GR
GS
[0.5 0 0 0.5 0 0] CT
0.873 GC
1 LJ
N
726 257 M
104 257 L
S
GR
GS
[0.5 0 0 0.5 0 0] CT
0.873 GC
1 LJ
N
726 202.75 M
104 202.75 L
S
GR
GS
[0.5 0 0 0.5 0 0] CT
0.873 GC
1 LJ
N
726 148.5 M
104 148.5 L
S
GR
GS
[0.5 0 0 0.5 0 0] CT
0.873 GC
1 LJ
N
726 94.25 M
104 94.25 L
S
GR
GS
[0.5 0 0 0.5 0 0] CT
0.873 GC
1 LJ
N
726 40 M
104 40 L
S
GR
GS
[0.5 0 0 0.5 0 0] CT
0.149 GC
2 setlinecap
1 LJ
N
104 474 M
726 474 L
S
GR
GS
[0.5 0 0 0.5 0 0] CT
0.149 GC
2 setlinecap
1 LJ
N
104 40 M
726 40 L
S
GR
GS
[0.5 0 0 0.5 0 0] CT
0.149 GC
2 setlinecap
1 LJ
N
104 474 M
104 467.78 L
S
GR
GS
[0.5 0 0 0.5 0 0] CT
0.149 GC
2 setlinecap
1 LJ
N
259.5 474 M
259.5 467.78 L
S
GR
GS
[0.5 0 0 0.5 0 0] CT
0.149 GC
2 setlinecap
1 LJ
N
415 474 M
415 467.78 L
S
GR
GS
[0.5 0 0 0.5 0 0] CT
0.149 GC
2 setlinecap
1 LJ
N
570.5 474 M
570.5 467.78 L
S
GR
GS
[0.5 0 0 0.5 0 0] CT
0.149 GC
2 setlinecap
1 LJ
N
726 474 M
726 467.78 L
S
GR
GS
[0.5 0 0 0.5 0 0] CT
0.149 GC
2 setlinecap
1 LJ
N
104 40 M
104 46.22 L
S
GR
GS
[0.5 0 0 0.5 0 0] CT
0.149 GC
2 setlinecap
1 LJ
N
259.5 40 M
259.5 46.22 L
S
GR
GS
[0.5 0 0 0.5 0 0] CT
0.149 GC
2 setlinecap
1 LJ
N
415 40 M
415 46.22 L
S
GR
GS
[0.5 0 0 0.5 0 0] CT
0.149 GC
2 setlinecap
1 LJ
N
570.5 40 M
570.5 46.22 L
S
GR
GS
[0.5 0 0 0.5 0 0] CT
0.149 GC
2 setlinecap
1 LJ
N
726 40 M
726 46.22 L
S
GR
GS
[0.5 0 0 0.5 52 241] CT
0.149 GC
/Helvetica 20 F
GS
[1 0 0 1 0 0] CT
-6 21 moveto 
1 -1 scale
(0) t 
GR
GR
GS
[0.5 0 0 0.5 129.75 241] CT
0.149 GC
/Helvetica 20 F
GS
[1 0 0 1 0 0] CT
-14 21 moveto 
1 -1 scale
(0.5) t 
GR
GR
GS
[0.5 0 0 0.5 207.5 241] CT
0.149 GC
/Helvetica 20 F
GS
[1 0 0 1 0 0] CT
-6 21 moveto 
1 -1 scale
(1) t 
GR
GR
GS
[0.5 0 0 0.5 285.25 241] CT
0.149 GC
/Helvetica 20 F
GS
[1 0 0 1 0 0] CT
-14 21 moveto 
1 -1 scale
(1.5) t 
GR
GR
GS
[0.5 0 0 0.5 363 241] CT
0.149 GC
/Helvetica 20 F
GS
[1 0 0 1 0 0] CT
-6 21 moveto 
1 -1 scale
(2) t 
GR
GR
GS
[0.5 0 0 0.5 207.50015 255] CT
0.149 GC
/Helvetica 22 F
GS
[1 0 0 1 0 0] CT
-83 23 moveto 
1 -1 scale
(Time To Maturity) t 
GR
GR
GS
[0.5 0 0 0.5 0 0] CT
0.149 GC
2 setlinecap
1 LJ
N
104 474 M
104 40 L
S
GR
GS
[0.5 0 0 0.5 0 0] CT
0.149 GC
2 setlinecap
1 LJ
N
726 474 M
726 40 L
S
GR
GS
[0.5 0 0 0.5 0 0] CT
0.149 GC
2 setlinecap
1 LJ
N
104 474 M
110.22 474 L
S
GR
GS
[0.5 0 0 0.5 0 0] CT
0.149 GC
2 setlinecap
1 LJ
N
104 419.75 M
110.22 419.75 L
S
GR
GS
[0.5 0 0 0.5 0 0] CT
0.149 GC
2 setlinecap
1 LJ
N
104 365.5 M
110.22 365.5 L
S
GR
GS
[0.5 0 0 0.5 0 0] CT
0.149 GC
2 setlinecap
1 LJ
N
104 311.25 M
110.22 311.25 L
S
GR
GS
[0.5 0 0 0.5 0 0] CT
0.149 GC
2 setlinecap
1 LJ
N
104 257 M
110.22 257 L
S
GR
GS
[0.5 0 0 0.5 0 0] CT
0.149 GC
2 setlinecap
1 LJ
N
104 202.75 M
110.22 202.75 L
S
GR
GS
[0.5 0 0 0.5 0 0] CT
0.149 GC
2 setlinecap
1 LJ
N
104 148.5 M
110.22 148.5 L
S
GR
GS
[0.5 0 0 0.5 0 0] CT
0.149 GC
2 setlinecap
1 LJ
N
104 94.25 M
110.22 94.25 L
S
GR
GS
[0.5 0 0 0.5 0 0] CT
0.149 GC
2 setlinecap
1 LJ
N
104 40 M
110.22 40 L
S
GR
GS
[0.5 0 0 0.5 0 0] CT
0.149 GC
2 setlinecap
1 LJ
N
726 474 M
719.78 474 L
S
GR
GS
[0.5 0 0 0.5 0 0] CT
0.149 GC
2 setlinecap
1 LJ
N
726 419.75 M
719.78 419.75 L
S
GR
GS
[0.5 0 0 0.5 0 0] CT
0.149 GC
2 setlinecap
1 LJ
N
726 365.5 M
719.78 365.5 L
S
GR
GS
[0.5 0 0 0.5 0 0] CT
0.149 GC
2 setlinecap
1 LJ
N
726 311.25 M
719.78 311.25 L
S
GR
GS
[0.5 0 0 0.5 0 0] CT
0.149 GC
2 setlinecap
1 LJ
N
726 257 M
719.78 257 L
S
GR
GS
[0.5 0 0 0.5 0 0] CT
0.149 GC
2 setlinecap
1 LJ
N
726 202.75 M
719.78 202.75 L
S
GR
GS
[0.5 0 0 0.5 0 0] CT
0.149 GC
2 setlinecap
1 LJ
N
726 148.5 M
719.78 148.5 L
S
GR
GS
[0.5 0 0 0.5 0 0] CT
0.149 GC
2 setlinecap
1 LJ
N
726 94.25 M
719.78 94.25 L
S
GR
GS
[0.5 0 0 0.5 0 0] CT
0.149 GC
2 setlinecap
1 LJ
N
726 40 M
719.78 40 L
S
GR
GS
[0.5 0 0 0.5 48 237] CT
0.149 GC
/Helvetica 20 F
GS
[1 0 0 1 0 0] CT
-23 8 moveto 
1 -1 scale
(40) t 
GR
GR
GS
[0.5 0 0 0.5 48 209.875] CT
0.149 GC
/Helvetica 20 F
GS
[1 0 0 1 0 0] CT
-23 8 moveto 
1 -1 scale
(50) t 
GR
GR
GS
[0.5 0 0 0.5 48 182.75] CT
0.149 GC
/Helvetica 20 F
GS
[1 0 0 1 0 0] CT
-23 8 moveto 
1 -1 scale
(60) t 
GR
GR
GS
[0.5 0 0 0.5 48 155.625] CT
0.149 GC
/Helvetica 20 F
GS
[1 0 0 1 0 0] CT
-23 8 moveto 
1 -1 scale
(70) t 
GR
GR
GS
[0.5 0 0 0.5 48 128.5] CT
0.149 GC
/Helvetica 20 F
GS
[1 0 0 1 0 0] CT
-23 8 moveto 
1 -1 scale
(80) t 
GR
GR
GS
[0.5 0 0 0.5 48 101.375] CT
0.149 GC
/Helvetica 20 F
GS
[1 0 0 1 0 0] CT
-23 8 moveto 
1 -1 scale
(90) t 
GR
GR
GS
[0.5 0 0 0.5 48 74.25] CT
0.149 GC
/Helvetica 20 F
GS
[1 0 0 1 0 0] CT
-34 8 moveto 
1 -1 scale
(100) t 
GR
GR
GS
[0.5 0 0 0.5 48 47.125] CT
0.149 GC
/Helvetica 20 F
GS
[1 0 0 1 0 0] CT
-34 8 moveto 
1 -1 scale
(110) t 
GR
GR
GS
[0.5 0 0 0.5 48 20] CT
0.149 GC
/Helvetica 20 F
GS
[1 0 0 1 0 0] CT
-34 8 moveto 
1 -1 scale
(120) t 
GR
GR
GS
[0 -0.5 0.5 0 28 128.49989] CT
0.149 GC
/Helvetica 22 F
GS
[1 0 0 1 0 0] CT
-56 -5 moveto 
1 -1 scale
(Stock Price) t 
GR
GR
GS
[0.5 0 0 0.5 207.5002 18.625] CT
/Helvetica-Bold 22 F
GS
[1 0 0 1 0 0] CT
-111 -5 moveto 
1 -1 scale
(Levy ad Attivit\340 finita) t 
GR
GR
GS
[0.5 0 0 0.5 0 0] CT
0 0.447 0.741 RC
1 LJ
N
104 148.5 M
106.073 137.928 L
108.147 129.805 L
110.22 128.064 L
112.293 119.587 L
114.367 129.768 L
116.44 141.172 L
118.513 142.165 L
120.587 145.071 L
122.66 151.648 L
124.733 137.068 L
126.807 123.444 L
128.88 113.948 L
130.953 107.634 L
133.027 121.494 L
135.1 119.549 L
137.173 114.532 L
139.247 100.965 L
141.32 90.469 L
143.393 92.277 L
145.467 88.64 L
147.54 55.806 L
149.613 62.627 L
151.687 62.627 L
153.76 57.034 L
155.833 70.364 L
157.907 77.869 L
159.98 59.655 L
162.053 87.764 L
164.127 107.4 L
166.2 98.291 L
168.273 103.8 L
170.347 115.725 L
172.42 118.544 L
174.493 114.678 L
176.567 107.315 L
178.64 107.583 L
180.713 97.613 L
182.787 96.443 L
184.86 92.028 L
186.933 93.744 L
189.007 96.594 L
191.08 106.465 L
193.153 94.187 L
195.227 89.478 L
197.3 94.049 L
199.373 94.923 L
201.447 103.425 L
203.52 103.153 L
205.593 110.126 L
207.667 114.308 L
209.74 121.951 L
211.813 140.762 L
213.887 138.317 L
215.96 149.662 L
218.033 164.825 L
220.107 165.875 L
222.18 179.755 L
224.253 187.711 L
226.327 194.032 L
228.4 191.872 L
230.473 197.894 L
232.547 199.045 L
234.62 204.076 L
236.693 202.525 L
238.767 199.607 L
240.84 191.836 L
242.913 193.122 L
244.987 191.384 L
247.06 185.121 L
249.133 199.987 L
251.207 195.275 L
253.28 199.119 L
255.353 198.045 L
257.427 190.456 L
259.5 200.612 L
261.573 210.038 L
263.647 220.464 L
265.72 207.793 L
267.793 206.153 L
269.867 207.525 L
271.94 221.513 L
274.013 216.231 L
276.087 214.216 L
278.16 205.911 L
280.233 197.872 L
282.307 190.975 L
284.38 188.886 L
286.453 201.673 L
288.527 208.969 L
290.6 204.223 L
292.673 195.401 L
294.747 197.354 L
296.82 200.35 L
298.893 210.343 L
300.967 209.302 L
303.04 204.955 L
305.113 219.59 L
307.187 224.295 L
309.26 234.474 L
311.333 242.211 L
313.407 254.291 L
315.48 249.316 L
317.553 245.107 L
319.627 254.631 L
321.7 276.157 L
323.773 276.691 L
325.847 285.032 L
327.92 277.303 L
329.993 280.951 L
332.067 277.692 L
334.14 267.145 L
336.213 271.87 L
338.287 271.182 L
340.36 269.558 L
342.433 269.6 L
344.507 274.354 L
346.58 279.495 L
348.653 278.922 L
350.727 275.325 L
352.8 266.465 L
354.873 269.803 L
356.947 269.799 L
359.02 260.886 L
361.093 266.59 L
363.167 272.587 L
365.24 267.678 L
367.313 272.396 L
369.387 263.382 L
371.46 262.403 L
373.533 258.596 L
375.607 259.216 L
377.68 256.598 L
379.753 264.293 L
381.827 267.759 L
383.9 262.318 L
385.973 258.79 L
388.047 255.893 L
390.12 257.585 L
392.193 271.301 L
394.267 274.029 L
396.34 270.04 L
398.413 265.621 L
400.487 271.553 L
402.56 278.443 L
404.633 280.908 L
406.707 278.362 L
408.78 282.529 L
410.853 279.262 L
412.927 284.929 L
415 284.054 L
417.073 282.353 L
419.147 283.875 L
421.22 278.348 L
423.293 278.578 L
425.367 270.77 L
427.44 273.446 L
429.513 268.691 L
431.587 270.434 L
433.66 274.846 L
435.733 270.762 L
437.807 270.152 L
439.88 264.156 L
441.953 260.434 L
444.027 252.333 L
446.1 249.668 L
448.173 240.558 L
450.247 241.861 L
452.32 228.81 L
454.393 232.039 L
456.467 231.482 L
458.54 227.021 L
460.613 228.298 L
462.687 225.154 L
464.76 225.706 L
466.833 227.498 L
468.907 223.986 L
470.98 217.817 L
473.053 222.458 L
475.127 231.426 L
477.2 225.748 L
479.273 219.786 L
481.347 223.345 L
483.42 302.262 L
485.493 305.79 L
487.567 300.881 L
489.64 293.124 L
491.713 293.069 L
493.787 299.744 L
495.86 288.947 L
497.933 282.471 L
500.007 280.589 L
502.08 269.339 L
504.153 265.41 L
506.227 265.48 L
508.3 251.267 L
510.373 250.279 L
512.447 254.524 L
514.52 241.641 L
516.593 238.126 L
518.667 242.869 L
520.74 240.943 L
522.813 246.419 L
524.887 241.517 L
526.96 251.253 L
529.033 246.642 L
531.107 232.661 L
533.18 236.132 L
535.253 239.956 L
537.327 251.661 L
539.4 246.578 L
541.473 238.408 L
543.547 253.044 L
545.62 243.063 L
547.693 238.991 L
549.767 235.77 L
551.84 226.552 L
553.913 228.565 L
555.987 234.903 L
558.06 238.29 L
560.133 237.673 L
562.207 237.623 L
564.28 231.419 L
566.353 219.379 L
568.427 217.736 L
570.5 210.39 L
572.573 203.727 L
574.647 207.538 L
576.72 203.012 L
578.793 213.188 L
580.867 215.783 L
582.94 230.386 L
585.013 226.183 L
587.087 208.816 L
589.16 196.185 L
591.233 187.36 L
593.307 190.469 L
595.38 189.608 L
597.453 197.329 L
599.527 182.476 L
601.6 180.413 L
603.673 187.672 L
605.747 173.961 L
607.82 173.874 L
609.893 170.888 L
611.967 180.25 L
614.04 178.389 L
616.113 179.08 L
618.187 170.517 L
620.26 166.946 L
622.333 162.456 L
624.407 161.859 L
626.48 169.808 L
628.553 159.402 L
630.627 165.652 L
632.7 163.222 L
634.773 162.37 L
636.847 171.688 L
638.92 168.149 L
640.993 168.133 L
643.067 171.5 L
645.14 174.407 L
647.213 170.437 L
649.287 169.75 L
651.36 183.956 L
653.433 172.318 L
655.507 181.237 L
657.58 178.934 L
659.653 196.739 L
661.727 204.093 L
663.8 209.596 L
665.873 218.302 L
667.947 221.989 L
670.02 211.694 L
672.093 218.781 L
674.167 217.147 L
S
GR
GS
[0.5 0 0 0.5 0 0] CT
0.851 0.325 0.098 RC
1 LJ
N
104 148.5 M
106.073 151.998 L
108.147 165.551 L
110.22 163.262 L
112.293 160.461 L
114.367 155.98 L
116.44 152.534 L
118.513 162.769 L
120.587 170.096 L
122.66 149.373 L
124.733 154.131 L
126.807 143.77 L
128.88 160.071 L
130.953 160.262 L
133.027 164.434 L
135.1 165.209 L
137.173 151.761 L
139.247 163.822 L
141.32 162.002 L
143.393 169.258 L
145.467 152.786 L
147.54 152.428 L
149.613 146.012 L
151.687 148.098 L
153.76 159.144 L
155.833 166.653 L
157.907 182.121 L
159.98 187.435 L
162.053 184.025 L
164.127 186.828 L
166.2 200.529 L
168.273 218.869 L
170.347 212.683 L
172.42 202.146 L
174.493 204.577 L
176.567 189.374 L
178.64 198.893 L
180.713 216.868 L
182.787 219.815 L
184.86 219.657 L
186.933 217.02 L
189.007 221.385 L
191.08 222.211 L
193.153 227.852 L
195.227 212.016 L
197.3 221.689 L
199.373 234.21 L
201.447 231.62 L
203.52 237.81 L
205.593 248.27 L
207.667 255.796 L
209.74 242.965 L
211.813 250.553 L
213.887 248.816 L
215.96 249.047 L
218.033 259.795 L
220.107 259.399 L
222.18 263.923 L
224.253 273.681 L
226.327 274.677 L
228.4 271.372 L
230.473 279.364 L
232.547 270.909 L
234.62 279.883 L
236.693 264.222 L
238.767 268.216 L
240.84 282.833 L
242.913 283.273 L
244.987 274.89 L
247.06 278.492 L
249.133 275.547 L
251.207 269.746 L
253.28 267.694 L
255.353 270.633 L
257.427 270.195 L
259.5 277.422 L
261.573 287.877 L
263.647 281.26 L
265.72 275.948 L
267.793 276.592 L
269.867 284.075 L
271.94 278.787 L
274.013 272.148 L
276.087 270.999 L
278.16 272.68 L
280.233 272.767 L
282.307 268.458 L
284.38 262.999 L
286.453 262.344 L
288.527 272.822 L
290.6 277.422 L
292.673 250.95 L
294.747 249.377 L
296.82 248.633 L
298.893 253.391 L
300.967 245.847 L
303.04 257.053 L
305.113 256.198 L
307.187 257.899 L
309.26 258.373 L
311.333 268.113 L
313.407 265.398 L
315.48 262.982 L
317.553 269.159 L
319.627 266.507 L
321.7 264.592 L
323.773 262.633 L
325.847 266.535 L
327.92 272.713 L
329.993 263.39 L
332.067 276.7 L
334.14 276.253 L
336.213 267.869 L
338.287 269.948 L
340.36 269.994 L
342.433 276.526 L
344.507 271.607 L
346.58 279.409 L
348.653 282.97 L
350.727 276.133 L
352.8 283.371 L
354.873 275.769 L
356.947 270.629 L
359.02 269.27 L
361.093 247.071 L
363.167 241.451 L
365.24 239.059 L
367.313 234.101 L
369.387 223.255 L
371.46 235.273 L
373.533 240.178 L
375.607 247.373 L
377.68 242.193 L
379.753 236.315 L
381.827 235.865 L
383.9 229.666 L
385.973 224.094 L
388.047 229.807 L
390.12 227.848 L
392.193 232.721 L
394.267 231.404 L
396.34 226.202 L
398.413 238.878 L
400.487 239.594 L
402.56 230.065 L
404.633 229.424 L
406.707 219.63 L
408.78 228.338 L
410.853 226.163 L
412.927 229.642 L
415 224.197 L
417.073 223.871 L
419.147 228.4 L
421.22 232.423 L
423.293 239.213 L
425.367 234.175 L
427.44 236.374 L
429.513 239.242 L
431.587 242.485 L
433.66 239.062 L
435.733 237.37 L
437.807 234.142 L
439.88 233.464 L
441.953 240.047 L
444.027 243.001 L
446.1 240.703 L
448.173 253.968 L
450.247 247.92 L
452.32 238.277 L
454.393 232.542 L
456.467 244.321 L
458.54 253.583 L
460.613 261.81 L
462.687 261.485 L
464.76 258.655 L
466.833 262.656 L
468.907 257.427 L
470.98 236.788 L
473.053 242.999 L
475.127 247.632 L
477.2 252.013 L
479.273 257.456 L
481.347 268.559 L
483.42 281.448 L
485.493 272.865 L
487.567 274.537 L
489.64 277.311 L
491.713 280.302 L
493.787 280.551 L
495.86 274.325 L
497.933 277.867 L
500.007 271.531 L
502.08 267.056 L
504.153 259.967 L
506.227 270.041 L
508.3 265.665 L
510.373 266.053 L
512.447 274.408 L
514.52 280.87 L
516.593 292.931 L
518.667 288.98 L
520.74 293.114 L
522.813 303.569 L
524.887 310.846 L
526.96 311.944 L
529.033 315.355 L
531.107 319.944 L
533.18 330.484 L
535.253 328.458 L
537.327 329.991 L
539.4 328.395 L
541.473 317.792 L
543.547 318.936 L
545.62 314.662 L
547.693 322.698 L
549.767 323.163 L
551.84 324.629 L
553.913 318.522 L
555.987 322.183 L
558.06 323.723 L
560.133 325.288 L
562.207 332.297 L
564.28 335.758 L
566.353 341.396 L
568.427 338.248 L
570.5 345.879 L
572.573 340.544 L
574.647 339.829 L
576.72 338.244 L
578.793 348.892 L
580.867 345.39 L
582.94 342.693 L
585.013 343.778 L
587.087 343.136 L
589.16 345.234 L
591.233 349.5 L
593.307 343.807 L
595.38 355.756 L
597.453 362.63 L
599.527 353.396 L
601.6 359.354 L
603.673 347.379 L
605.747 356.435 L
607.82 347.091 L
609.893 343.772 L
611.967 346.533 L
614.04 345.067 L
616.113 347.428 L
618.187 345.986 L
620.26 344.198 L
622.333 345.049 L
624.407 345.855 L
626.48 338.433 L
628.553 338.875 L
630.627 336.469 L
632.7 328.021 L
634.773 336.938 L
636.847 330.068 L
638.92 330.889 L
640.993 328.086 L
643.067 327.695 L
645.14 328.04 L
647.213 323.955 L
649.287 319.549 L
651.36 312.878 L
653.433 308.397 L
655.507 301.961 L
657.58 305.697 L
659.653 289.427 L
661.727 298.258 L
663.8 294.396 L
665.873 295.944 L
667.947 294.386 L
670.02 291.767 L
672.093 290.316 L
674.167 284.978 L
676.24 294.826 L
678.313 294.239 L
680.387 293.578 L
682.46 293.164 L
684.533 295.514 L
686.607 306.922 L
688.68 304.525 L
690.753 305.869 L
692.827 307.687 L
694.9 310.939 L
696.973 309.954 L
699.047 314.176 L
701.12 313.033 L
703.193 313.088 L
705.267 309.259 L
S
GR
GS
[0.5 0 0 0.5 0 0] CT
0.929 0.694 0.125 RC
1 LJ
N
104 148.5 M
106.073 145.528 L
108.147 128.422 L
110.22 142.229 L
112.293 151.159 L
114.367 158.663 L
116.44 158.428 L
118.513 158.831 L
120.587 154.664 L
122.66 153.042 L
124.733 158.159 L
126.807 160.504 L
128.88 160.186 L
130.953 162.677 L
133.027 150.651 L
135.1 157.155 L
137.173 156.241 L
139.247 165.41 L
141.32 169.115 L
143.393 178.264 L
145.467 177.049 L
147.54 191.145 L
149.613 190.207 L
151.687 186.786 L
153.76 176.56 L
155.833 175.302 L
157.907 188.218 L
159.98 183.165 L
162.053 190.609 L
164.127 180.97 L
166.2 196.154 L
168.273 201.696 L
170.347 197.644 L
172.42 253.553 L
174.493 244.866 L
176.567 249.985 L
178.64 260.254 L
180.713 268.941 L
182.787 250.258 L
184.86 251.156 L
186.933 227.027 L
189.007 234.231 L
191.08 230.738 L
193.153 229.021 L
195.227 228.769 L
197.3 218.127 L
199.373 208.41 L
201.447 211.127 L
203.52 219.732 L
205.593 207.863 L
207.667 195.487 L
209.74 194.6 L
211.813 205.69 L
213.887 215.849 L
215.96 199.568 L
218.033 203.5 L
220.107 209.801 L
222.18 220.329 L
224.253 212.23 L
226.327 214.361 L
228.4 219 L
230.473 207.151 L
232.547 208.9 L
234.62 213.269 L
236.693 196.206 L
238.767 196.085 L
240.84 189.789 L
242.913 174.073 L
244.987 173.671 L
247.06 176.175 L
249.133 169.922 L
251.207 167.307 L
253.28 160.441 L
255.353 161.558 L
257.427 162.516 L
259.5 163.275 L
261.573 176.267 L
263.647 176.001 L
265.72 186.392 L
267.793 178.001 L
269.867 171.371 L
271.94 178.513 L
274.013 183.479 L
276.087 179.811 L
278.16 173.57 L
280.233 186.326 L
282.307 197.612 L
284.38 206.477 L
286.453 211.087 L
288.527 208.784 L
290.6 211.682 L
292.673 202.691 L
294.747 204.207 L
296.82 198.368 L
298.893 206.312 L
300.967 215.199 L
303.04 213.518 L
305.113 217.645 L
307.187 223.042 L
309.26 221.43 L
311.333 229.229 L
313.407 228.899 L
315.48 235.228 L
317.553 218.793 L
319.627 227.283 L
321.7 239.722 L
323.773 242.192 L
325.847 242.422 L
327.92 241.843 L
329.993 248.74 L
332.067 248.311 L
334.14 240.895 L
336.213 238.219 L
338.287 227.576 L
340.36 227.241 L
342.433 229.468 L
344.507 234.72 L
346.58 237.635 L
348.653 234.766 L
350.727 229.177 L
352.8 231.852 L
354.873 228.264 L
356.947 234.658 L
359.02 237.961 L
361.093 235.777 L
363.167 243.084 L
365.24 252.068 L
367.313 258.712 L
369.387 250.126 L
371.46 244.42 L
373.533 237.723 L
375.607 252.289 L
377.68 264.239 L
379.753 268.777 L
381.827 267.942 L
383.9 273.916 L
385.973 265.133 L
388.047 285.569 L
390.12 277.983 L
392.193 281.584 L
394.267 281.8 L
396.34 287.666 L
398.413 278.974 L
400.487 281.817 L
402.56 277.947 L
404.633 267.465 L
406.707 266.294 L
408.78 271.842 L
410.853 262.266 L
412.927 265.365 L
415 258.131 L
417.073 241.954 L
419.147 239.236 L
421.22 243.671 L
423.293 244.054 L
425.367 251.567 L
427.44 253.527 L
429.513 250.058 L
431.587 233.976 L
433.66 230.203 L
435.733 223.654 L
437.807 230.479 L
439.88 238.041 L
441.953 229.991 L
444.027 235.297 L
446.1 242.947 L
448.173 240.201 L
450.247 234.138 L
452.32 239.373 L
454.393 243.891 L
456.467 239.132 L
458.54 235.002 L
460.613 233.171 L
462.687 228.981 L
464.76 232.582 L
466.833 218.108 L
468.907 209.319 L
470.98 209.2 L
473.053 214.965 L
475.127 219.689 L
477.2 217.104 L
479.273 215.867 L
481.347 204.366 L
483.42 211.837 L
485.493 218.495 L
487.567 225.615 L
489.64 234.072 L
491.713 228.348 L
493.787 236.562 L
495.86 394.987 L
497.933 394.646 L
500.007 394.3 L
502.08 392.045 L
504.153 393.605 L
506.227 396.655 L
508.3 389.742 L
510.373 390.625 L
512.447 391.549 L
514.52 390.763 L
516.593 391.49 L
518.667 392.237 L
520.74 388.969 L
522.813 386.78 L
524.887 383.698 L
526.96 380.223 L
529.033 388.632 L
531.107 391.451 L
533.18 396.917 L
535.253 391.155 L
537.327 398.346 L
539.4 387.272 L
541.473 382.43 L
543.547 383.189 L
545.62 383.068 L
547.693 386.716 L
549.767 384.347 L
551.84 382.001 L
553.913 382.861 L
555.987 393.14 L
558.06 394.82 L
560.133 403.516 L
562.207 400.552 L
564.28 397.076 L
566.353 392.543 L
568.427 391.427 L
570.5 384.357 L
572.573 389.847 L
574.647 397.482 L
576.72 399.639 L
578.793 404.644 L
580.867 407.947 L
582.94 417.901 L
585.013 413.827 L
587.087 417.165 L
589.16 408.311 L
591.233 414.078 L
593.307 421.144 L
595.38 421.49 L
597.453 422.188 L
599.527 425.064 L
601.6 416.688 L
603.673 417.714 L
605.747 420.503 L
607.82 420.311 L
609.893 420.216 L
611.967 416.494 L
S
GR
GS
[0.5 0 0 0.5 0 0] CT
0 0.447 0.741 RC
1 LJ
N
674.167 217.147 M
726 179.172 L
S
GR
GS
[0.5 0 0 0.5 0 0] CT
0 0.447 0.741 RC
1 LJ
N
674.167 217.147 M
726 211.722 L
S
GR
GS
[0.5 0 0 0.5 0 0] CT
0 0.447 0.741 RC
1 LJ
N
674.167 217.147 M
726 244.272 L
S
GR
GS
[0.5 0 0 0.5 0 0] CT
0.851 0.325 0.098 RC
1 LJ
N
705.267 309.259 M
726 282.134 L
S
GR
GS
[0.5 0 0 0.5 0 0] CT
0.851 0.325 0.098 RC
1 LJ
N
705.267 309.259 M
726 298.409 L
S
GR
GS
[0.5 0 0 0.5 0 0] CT
0.851 0.325 0.098 RC
1 LJ
N
705.267 309.259 M
726 325.534 L
S
GR
GS
[0.5 0 0 0.5 0 0] CT
0.929 0.694 0.125 RC
1 LJ
N
611.967 416.494 M
726 367.669 L
S
GR
GS
[0.5 0 0 0.5 0 0] CT
0.929 0.694 0.125 RC
1 LJ
N
611.967 416.494 M
726 411.069 L
S
GR
GS
[0.5 0 0 0.5 0 0] CT
0.929 0.694 0.125 RC
1 LJ
N
611.967 416.494 M
726 459.894 L
S
GR
GS
[0.5 0 0 0.5 0 0] CT
0 0.447 0.741 RC
1 LJ
N
674.167 217.147 M
726 162.897 L
S
GR
GS
[0.5 0 0 0.5 0 0] CT
0 0.447 0.741 RC
1 LJ
N
674.167 217.147 M
726 217.147 L
S
GR
GS
[0.5 0 0 0.5 0 0] CT
0 0.447 0.741 RC
1 LJ
N
674.167 217.147 M
726 260.547 L
S
GR
GS
[0.5 0 0 0.5 0 0] CT
0.851 0.325 0.098 RC
1 LJ
N
705.267 309.259 M
726 292.984 L
S
GR
GS
[0.5 0 0 0.5 0 0] CT
0.851 0.325 0.098 RC
1 LJ
N
705.267 309.259 M
726 303.834 L
S
GR
GS
[0.5 0 0 0.5 0 0] CT
0.851 0.325 0.098 RC
1 LJ
N
705.267 309.259 M
726 330.959 L
S
GR
GS
[0.5 0 0 0.5 0 0] CT
0.929 0.694 0.125 RC
1 LJ
N
611.967 416.494 M
726 378.519 L
S
GR
GS
[0.5 0 0 0.5 0 0] CT
0.929 0.694 0.125 RC
1 LJ
N
611.967 416.494 M
726 416.494 L
S
GR
GS
[0.5 0 0 0.5 0 0] CT
0.929 0.694 0.125 RC
1 LJ
N
611.967 416.494 M
726 443.619 L
S
GR
GS
[0.5 0 0 0.5 0 0] CT
0 0.447 0.741 RC
1 LJ
N
674.167 474 M
674.167 445.461 L
674.167 416.922 L
674.167 388.382 L
674.167 359.843 L
674.167 331.304 L
674.167 302.765 L
674.167 274.225 L
674.167 245.686 L
674.167 217.147 L
S
GR
GS
[0.5 0 0 0.5 0 0] CT
0.851 0.325 0.098 RC
1 LJ
N
705.267 474 M
705.267 455.695 L
705.267 437.391 L
705.267 419.086 L
705.267 400.782 L
705.267 382.477 L
705.267 364.173 L
705.267 345.868 L
705.267 327.564 L
705.267 309.259 L
S
GR
GS
[0.5 0 0 0.5 0 0] CT
0.929 0.694 0.125 RC
1 LJ
N
611.967 474 M
611.967 467.61 L
611.967 461.221 L
611.967 454.831 L
611.967 448.442 L
611.967 442.052 L
611.967 435.663 L
611.967 429.273 L
611.967 422.884 L
611.967 416.494 L
S
GR
GS
[0.5 0 0 0.5 300.5 249.5] CT
N
3.109 -0.297 M
3.109 -0.438 3.141 -0.516 QT
5.25 -7.391 L
3.438 -7.391 L
2.703 -7.391 2.07 -6.93 QT
1.438 -6.469 1.016 -5.766 QT
0.984 -5.688 0.906 -5.688 QT
0.672 -5.688 L
0.484 -5.688 0.484 -5.875 QT
0.484 -5.922 0.516 -6 QT
1.172 -7.109 1.922 -7.867 QT
2.672 -8.625 3.609 -8.625 QT
9.734 -8.625 L
9.953 -8.625 10.102 -8.477 QT
10.25 -8.328 10.25 -8.109 QT
10.25 -7.828 10.039 -7.609 QT
9.828 -7.391 9.516 -7.391 QT
5.906 -7.391 L
4.563 -0.484 L
4.484 -0.156 4.266 0.055 QT
4.047 0.266 3.719 0.266 QT
3.469 0.266 3.289 0.102 QT
3.109 -0.063 3.109 -0.297 QT
cp
f
GR
GS
[0.5 0 0 0.5 305 254.5] CT
/Helvetica 16 F
GS
[1 0 0 1 0 0] CT
0 0 moveto 
1 -1 scale
(1) t 
GR
GR
GS
[0.5 0 0 0.5 328.5 249.5] CT
N
/f1768733076{3.109 -0.297 M
3.109 -0.438 3.141 -0.516 QT
5.25 -7.391 L
3.438 -7.391 L
2.703 -7.391 2.07 -6.93 QT
1.438 -6.469 1.016 -5.766 QT
0.984 -5.688 0.906 -5.688 QT
0.672 -5.688 L
0.484 -5.688 0.484 -5.875 QT
0.484 -5.922 0.516 -6 QT
1.172 -7.109 1.922 -7.867 QT
2.672 -8.625 3.609 -8.625 QT
9.734 -8.625 L
9.953 -8.625 10.102 -8.477 QT
10.25 -8.328 10.25 -8.109 QT
10.25 -7.828 10.039 -7.609 QT
9.828 -7.391 9.516 -7.391 QT
5.906 -7.391 L
4.563 -0.484 L
4.484 -0.156 4.266 0.055 QT
4.047 0.266 3.719 0.266 QT
3.469 0.266 3.289 0.102 QT
3.109 -0.063 3.109 -0.297 QT
cp}def
f1768733076
f
GR
GS
[0.5 0 0 0.5 333 254.5] CT
/Helvetica 16 F
GS
[1 0 0 1 0 0] CT
0 0 moveto 
1 -1 scale
(2) t 
GR
GR
GS
[0.5 0 0 0.5 348 249.5] CT
N
f1768733076
f
GR
GS
[0.5 0 0 0.5 352.5 254.5] CT
/Helvetica 16 F
GS
[1 0 0 1 0 0] CT
0 0 moveto 
1 -1 scale
(3) t 
GR
GR
%%Trailer
%%Pages: 1
%%EOF
